(kicad_pcb (version 20171130) (host pcbnew 5.1.7)

  (general
    (thickness 1.6)
    (drawings 8)
    (tracks 5)
    (zones 0)
    (modules 39)
    (nets 42)
  )

  (page A4)
  (layers
    (0 F.Cu signal)
    (31 B.Cu signal)
    (32 B.Adhes user hide)
    (33 F.Adhes user hide)
    (34 B.Paste user hide)
    (35 F.Paste user hide)
    (36 B.SilkS user)
    (37 F.SilkS user)
    (38 B.Mask user hide)
    (39 F.Mask user hide)
    (40 Dwgs.User user hide)
    (41 Cmts.User user hide)
    (42 Eco1.User user hide)
    (43 Eco2.User user hide)
    (44 Edge.Cuts user)
    (45 Margin user hide)
    (46 B.CrtYd user)
    (47 F.CrtYd user)
    (48 B.Fab user hide)
    (49 F.Fab user)
  )

  (setup
    (last_trace_width 0.25)
    (trace_clearance 0.2)
    (zone_clearance 0.508)
    (zone_45_only no)
    (trace_min 0.2)
    (via_size 0.6)
    (via_drill 0.4)
    (via_min_size 0.4)
    (via_min_drill 0.3)
    (uvia_size 0.3)
    (uvia_drill 0.1)
    (uvias_allowed no)
    (uvia_min_size 0.2)
    (uvia_min_drill 0.1)
    (edge_width 0.15)
    (segment_width 0.2)
    (pcb_text_width 0.3)
    (pcb_text_size 1.5 1.5)
    (mod_edge_width 0.15)
    (mod_text_size 1 1)
    (mod_text_width 0.15)
    (pad_size 3.2 3.2)
    (pad_drill 3.2)
    (pad_to_mask_clearance 0.2)
    (aux_axis_origin 0 0)
    (visible_elements FFFFFFFF)
    (pcbplotparams
      (layerselection 0x010fc_80000001)
      (usegerberextensions false)
      (usegerberattributes true)
      (usegerberadvancedattributes false)
      (creategerberjobfile false)
      (excludeedgelayer true)
      (linewidth 0.100000)
      (plotframeref false)
      (viasonmask false)
      (mode 1)
      (useauxorigin true)
      (hpglpennumber 1)
      (hpglpenspeed 20)
      (hpglpendiameter 15.000000)
      (psnegative false)
      (psa4output false)
      (plotreference true)
      (plotvalue true)
      (plotinvisibletext false)
      (padsonsilk false)
      (subtractmaskfromsilk false)
      (outputformat 1)
      (mirror false)
      (drillshape 0)
      (scaleselection 1)
      (outputdirectory "plotfiles"))
  )

  (net 0 "")
  (net 1 +5V)
  (net 2 VDD)
  (net 3 +3V3)
  (net 4 "Net-(R3-Pad1)")
  (net 5 POE+)
  (net 6 "Net-(C4-Pad1)")
  (net 7 "Net-(C5-Pad1)")
  (net 8 sw_12V)
  (net 9 "Net-(J1-Pad2)")
  (net 10 sw_VDD)
  (net 11 "Net-(J2-Pad4)")
  (net 12 "Net-(LAN1-Pad12)")
  (net 13 "Net-(LAN1-Pad9)")
  (net 14 GND)
  (net 15 relais_signal_amplified)
  (net 16 "Net-(J1-Pad1)")
  (net 17 SDA)
  (net 18 SCK)
  (net 19 MISO)
  (net 20 MOSI)
  (net 21 RST)
  (net 22 Line_Out_L)
  (net 23 audio_enable)
  (net 24 relais_signal)
  (net 25 RD-)
  (net 26 LED_LNK)
  (net 27 TD+)
  (net 28 RD+)
  (net 29 TD-)
  (net 30 LED_ACK)
  (net 31 "Net-(J8-Pad1)")
  (net 32 "Net-(J8-Pad2)")
  (net 33 input1)
  (net 34 input2)
  (net 35 IRQ)
  (net 36 SCL)
  (net 37 "Net-(JP1-Pad1)")
  (net 38 "Net-(JP3-Pad1)")
  (net 39 "Net-(LAN1-Pad7)")
  (net 40 "Net-(LAN1-Pad8)")
  (net 41 "Net-(R2-Pad2)")

  (net_class Default "This is the default net class."
    (clearance 0.2)
    (trace_width 0.25)
    (via_dia 0.6)
    (via_drill 0.4)
    (uvia_dia 0.3)
    (uvia_drill 0.1)
    (add_net +3V3)
    (add_net IRQ)
    (add_net LED_ACK)
    (add_net LED_LNK)
    (add_net Line_Out_L)
    (add_net MISO)
    (add_net MOSI)
    (add_net "Net-(C4-Pad1)")
    (add_net "Net-(C5-Pad1)")
    (add_net "Net-(J1-Pad1)")
    (add_net "Net-(J1-Pad2)")
    (add_net "Net-(J8-Pad1)")
    (add_net "Net-(J8-Pad2)")
    (add_net "Net-(JP1-Pad1)")
    (add_net "Net-(JP3-Pad1)")
    (add_net "Net-(LAN1-Pad12)")
    (add_net "Net-(LAN1-Pad7)")
    (add_net "Net-(LAN1-Pad8)")
    (add_net "Net-(LAN1-Pad9)")
    (add_net "Net-(R2-Pad2)")
    (add_net "Net-(R3-Pad1)")
    (add_net RD+)
    (add_net RD-)
    (add_net RST)
    (add_net SCK)
    (add_net SCL)
    (add_net SDA)
    (add_net TD+)
    (add_net TD-)
    (add_net audio_enable)
    (add_net input1)
    (add_net input2)
    (add_net relais_signal)
    (add_net relais_signal_amplified)
  )

  (net_class gnd ""
    (clearance 0.2)
    (trace_width 1)
    (via_dia 0.6)
    (via_drill 0.4)
    (uvia_dia 0.3)
    (uvia_drill 0.1)
    (add_net GND)
  )

  (net_class power ""
    (clearance 0.2)
    (trace_width 1)
    (via_dia 0.6)
    (via_drill 0.4)
    (uvia_dia 0.3)
    (uvia_drill 0.1)
    (add_net +5V)
    (add_net "Net-(J2-Pad4)")
    (add_net POE+)
    (add_net VDD)
    (add_net sw_12V)
    (add_net sw_VDD)
  )

  (module dooropenerfootprints:J0006D01BNL (layer F.Cu) (tedit 5B33E7BE) (tstamp 5FA33F3C)
    (at 18.555 38.89 180)
    (path /5B310444)
    (fp_text reference LAN1 (at -6.35 6.35 180) (layer B.SilkS)
      (effects (font (size 1 1) (thickness 0.15)) (justify mirror))
    )
    (fp_text value JOOO6D01BNL (at 0 13.97 180) (layer F.Fab)
      (effects (font (size 1 1) (thickness 0.15)))
    )
    (fp_line (start 8.51 -10.79) (end 8.51 10.79) (layer F.CrtYd) (width 0.15))
    (fp_line (start -8.51 -10.79) (end -8.51 10.79) (layer F.CrtYd) (width 0.15))
    (fp_line (start -8.51 10.79) (end 8.51 10.79) (layer F.CrtYd) (width 0.15))
    (fp_line (start -8.51 -10.79) (end 8.51 -10.79) (layer F.CrtYd) (width 0.15))
    (pad "" np_thru_hole circle (at -5.715 0 180) (size 3.2 3.2) (drill 3.2) (layers *.Cu *.Mask))
    (pad "" np_thru_hole circle (at 5.715 0 180) (size 3.2 3.2) (drill 3.2) (layers *.Cu *.Mask))
    (pad "" np_thru_hole circle (at 7.875 3.05 180) (size 1.6 1.6) (drill 1.6) (layers *.Cu *.Mask))
    (pad "" np_thru_hole circle (at -7.875 3.05 180) (size 1.6 1.6) (drill 1.6) (layers *.Cu *.Mask))
    (pad 12 thru_hole circle (at -6.325 -3.38 180) (size 1.8 1.8) (drill 1.05) (layers *.Cu *.Mask)
      (net 12 "Net-(LAN1-Pad12)"))
    (pad 10 thru_hole circle (at 3.785 -3.38 180) (size 1.8 1.8) (drill 1.05) (layers *.Cu *.Mask)
      (net 26 LED_LNK))
    (pad 9 thru_hole circle (at 6.325 -4.9 180) (size 1.8 1.8) (drill 1.05) (layers *.Cu *.Mask)
      (net 13 "Net-(LAN1-Pad9)"))
    (pad 11 thru_hole circle (at -3.785 -4.9 180) (size 1.8 1.8) (drill 1.05) (layers *.Cu *.Mask)
      (net 30 LED_ACK))
    (pad 1 thru_hole circle (at 4.445 6.35 180) (size 1.5 1.5) (drill 0.89) (layers *.Cu *.Mask)
      (net 27 TD+))
    (pad 3 thru_hole circle (at 1.905 6.35 180) (size 1.5 1.5) (drill 0.89) (layers *.Cu *.Mask)
      (net 28 RD+))
    (pad 5 thru_hole circle (at -0.635 6.35 180) (size 1.5 1.5) (drill 0.89) (layers *.Cu *.Mask)
      (net 7 "Net-(C5-Pad1)"))
    (pad 7 thru_hole circle (at -3.175 6.35 180) (size 1.5 1.5) (drill 0.89) (layers *.Cu *.Mask)
      (net 39 "Net-(LAN1-Pad7)"))
    (pad 8 thru_hole circle (at -4.445 8.89 180) (size 1.5 1.5) (drill 0.89) (layers *.Cu *.Mask)
      (net 40 "Net-(LAN1-Pad8)"))
    (pad 6 thru_hole circle (at -1.905 8.89 180) (size 1.5 1.5) (drill 0.89) (layers *.Cu *.Mask)
      (net 25 RD-))
    (pad 4 thru_hole circle (at 0.635 8.89 180) (size 1.5 1.5) (drill 0.89) (layers *.Cu *.Mask)
      (net 6 "Net-(C4-Pad1)"))
    (pad 2 thru_hole circle (at 3.175 8.89 180) (size 1.5 1.5) (drill 0.89) (layers *.Cu *.Mask)
      (net 29 TD-))
  )

  (module Capacitors_SMD:C_0805_HandSoldering (layer B.Cu) (tedit 5B392711) (tstamp 5FA33551)
    (at 19.83894 37.13288 270)
    (descr "Capacitor SMD 0805, hand soldering")
    (tags "capacitor 0805")
    (path /5B3133FD)
    (attr smd)
    (fp_text reference C5 (at 3.36712 -0.16106 90) (layer B.SilkS)
      (effects (font (size 1 1) (thickness 0.15)) (justify mirror))
    )
    (fp_text value "100 nf" (at 0 -1.75 90) (layer B.SilkS)
      (effects (font (size 1 1) (thickness 0.15)) (justify mirror))
    )
    (fp_line (start 2.25 -0.87) (end -2.25 -0.87) (layer B.CrtYd) (width 0.05))
    (fp_line (start 2.25 -0.87) (end 2.25 0.88) (layer B.CrtYd) (width 0.05))
    (fp_line (start -2.25 0.88) (end -2.25 -0.87) (layer B.CrtYd) (width 0.05))
    (fp_line (start -2.25 0.88) (end 2.25 0.88) (layer B.CrtYd) (width 0.05))
    (fp_line (start -0.5 -0.85) (end 0.5 -0.85) (layer B.SilkS) (width 0.12))
    (fp_line (start 0.5 0.85) (end -0.5 0.85) (layer B.SilkS) (width 0.12))
    (fp_line (start -1 0.62) (end 1 0.62) (layer B.Fab) (width 0.1))
    (fp_line (start 1 0.62) (end 1 -0.62) (layer B.Fab) (width 0.1))
    (fp_line (start 1 -0.62) (end -1 -0.62) (layer B.Fab) (width 0.1))
    (fp_line (start -1 -0.62) (end -1 0.62) (layer B.Fab) (width 0.1))
    (fp_text user %R (at 3.36712 -0.16106 90) (layer B.Fab)
      (effects (font (size 1 1) (thickness 0.15)) (justify mirror))
    )
    (pad 1 smd rect (at -1.25 0 270) (size 1.5 1.25) (layers B.Cu B.Paste B.Mask)
      (net 7 "Net-(C5-Pad1)"))
    (pad 2 smd rect (at 1.25 0 270) (size 1.5 1.25) (layers B.Cu B.Paste B.Mask)
      (net 14 GND))
    (model Capacitors_SMD.3dshapes/C_0805.wrl
      (at (xyz 0 0 0))
      (scale (xyz 1 1 1))
      (rotate (xyz 0 0 0))
    )
  )

  (module Capacitors_SMD:C_0805_HandSoldering (layer B.Cu) (tedit 5B392716) (tstamp 5FA335C6)
    (at 16.50138 37.14018 270)
    (descr "Capacitor SMD 0805, hand soldering")
    (tags "capacitor 0805")
    (path /5B31132C)
    (attr smd)
    (fp_text reference C4 (at 3.35982 0.00138 90) (layer B.SilkS)
      (effects (font (size 1 1) (thickness 0.15)) (justify mirror))
    )
    (fp_text value "100 nf" (at 0 -1.75 90) (layer B.SilkS)
      (effects (font (size 1 1) (thickness 0.15)) (justify mirror))
    )
    (fp_line (start 2.25 -0.87) (end -2.25 -0.87) (layer B.CrtYd) (width 0.05))
    (fp_line (start 2.25 -0.87) (end 2.25 0.88) (layer B.CrtYd) (width 0.05))
    (fp_line (start -2.25 0.88) (end -2.25 -0.87) (layer B.CrtYd) (width 0.05))
    (fp_line (start -2.25 0.88) (end 2.25 0.88) (layer B.CrtYd) (width 0.05))
    (fp_line (start -0.5 -0.85) (end 0.5 -0.85) (layer B.SilkS) (width 0.12))
    (fp_line (start 0.5 0.85) (end -0.5 0.85) (layer B.SilkS) (width 0.12))
    (fp_line (start -1 0.62) (end 1 0.62) (layer B.Fab) (width 0.1))
    (fp_line (start 1 0.62) (end 1 -0.62) (layer B.Fab) (width 0.1))
    (fp_line (start 1 -0.62) (end -1 -0.62) (layer B.Fab) (width 0.1))
    (fp_line (start -1 -0.62) (end -1 0.62) (layer B.Fab) (width 0.1))
    (fp_text user %R (at 3.35982 0.00138 90) (layer B.Fab)
      (effects (font (size 1 1) (thickness 0.15)) (justify mirror))
    )
    (pad 1 smd rect (at -1.25 0 270) (size 1.5 1.25) (layers B.Cu B.Paste B.Mask)
      (net 6 "Net-(C4-Pad1)"))
    (pad 2 smd rect (at 1.25 0 270) (size 1.5 1.25) (layers B.Cu B.Paste B.Mask)
      (net 14 GND))
    (model Capacitors_SMD.3dshapes/C_0805.wrl
      (at (xyz 0 0 0))
      (scale (xyz 1 1 1))
      (rotate (xyz 0 0 0))
    )
  )

  (module TO_SOT_Packages_SMD:SOT-23_Handsoldering (layer B.Cu) (tedit 5B392753) (tstamp 5B31691E)
    (at 29.5 -5.5 90)
    (descr "SOT-23, Handsoldering")
    (tags SOT-23)
    (path /59B71298)
    (attr smd)
    (fp_text reference T1 (at -3.5 0 90) (layer B.SilkS)
      (effects (font (size 1 1) (thickness 0.15)) (justify mirror))
    )
    (fp_text value S9014 (at 0 2.5 90) (layer B.SilkS)
      (effects (font (size 1 1) (thickness 0.15)) (justify mirror))
    )
    (fp_line (start 0.76 -1.58) (end -0.7 -1.58) (layer B.SilkS) (width 0.12))
    (fp_line (start -0.7 -1.52) (end 0.7 -1.52) (layer B.Fab) (width 0.1))
    (fp_line (start 0.7 1.52) (end 0.7 -1.52) (layer B.Fab) (width 0.1))
    (fp_line (start -0.7 0.95) (end -0.15 1.52) (layer B.Fab) (width 0.1))
    (fp_line (start -0.15 1.52) (end 0.7 1.52) (layer B.Fab) (width 0.1))
    (fp_line (start -0.7 0.95) (end -0.7 -1.5) (layer B.Fab) (width 0.1))
    (fp_line (start 0.76 1.58) (end -2.4 1.58) (layer B.SilkS) (width 0.12))
    (fp_line (start -2.7 -1.75) (end -2.7 1.75) (layer B.CrtYd) (width 0.05))
    (fp_line (start 2.7 -1.75) (end -2.7 -1.75) (layer B.CrtYd) (width 0.05))
    (fp_line (start 2.7 1.75) (end 2.7 -1.75) (layer B.CrtYd) (width 0.05))
    (fp_line (start -2.7 1.75) (end 2.7 1.75) (layer B.CrtYd) (width 0.05))
    (fp_line (start 0.76 1.58) (end 0.76 0.65) (layer B.SilkS) (width 0.12))
    (fp_line (start 0.76 -1.58) (end 0.76 -0.65) (layer B.SilkS) (width 0.12))
    (fp_text user %R (at 0 0) (layer B.Fab)
      (effects (font (size 0.5 0.5) (thickness 0.075)) (justify mirror))
    )
    (pad 1 smd rect (at -1.5 0.95 90) (size 1.9 0.8) (layers B.Cu B.Paste B.Mask)
      (net 4 "Net-(R3-Pad1)"))
    (pad 2 smd rect (at -1.5 -0.95 90) (size 1.9 0.8) (layers B.Cu B.Paste B.Mask)
      (net 14 GND))
    (pad 3 smd rect (at 1.5 0 90) (size 1.9 0.8) (layers B.Cu B.Paste B.Mask)
      (net 15 relais_signal_amplified))
    (model ${KISYS3DMOD}/TO_SOT_Packages_SMD.3dshapes\SOT-23.wrl
      (at (xyz 0 0 0))
      (scale (xyz 1 1 1))
      (rotate (xyz 0 0 0))
    )
  )

  (module Resistors_SMD:R_0805_HandSoldering (layer B.Cu) (tedit 5B3926E9) (tstamp 5B316905)
    (at -5 12.5)
    (descr "Resistor SMD 0805, hand soldering")
    (tags "resistor 0805")
    (path /59EA47E6)
    (attr smd)
    (fp_text reference R7 (at 0 1.7) (layer B.SilkS)
      (effects (font (size 1 1) (thickness 0.15)) (justify mirror))
    )
    (fp_text value 4.7k (at 0 -1.75) (layer B.SilkS)
      (effects (font (size 1 1) (thickness 0.15)) (justify mirror))
    )
    (fp_line (start 2.35 -0.9) (end -2.35 -0.9) (layer B.CrtYd) (width 0.05))
    (fp_line (start 2.35 -0.9) (end 2.35 0.9) (layer B.CrtYd) (width 0.05))
    (fp_line (start -2.35 0.9) (end -2.35 -0.9) (layer B.CrtYd) (width 0.05))
    (fp_line (start -2.35 0.9) (end 2.35 0.9) (layer B.CrtYd) (width 0.05))
    (fp_line (start -0.6 0.88) (end 0.6 0.88) (layer B.SilkS) (width 0.12))
    (fp_line (start 0.6 -0.88) (end -0.6 -0.88) (layer B.SilkS) (width 0.12))
    (fp_line (start -1 0.62) (end 1 0.62) (layer B.Fab) (width 0.1))
    (fp_line (start 1 0.62) (end 1 -0.62) (layer B.Fab) (width 0.1))
    (fp_line (start 1 -0.62) (end -1 -0.62) (layer B.Fab) (width 0.1))
    (fp_line (start -1 -0.62) (end -1 0.62) (layer B.Fab) (width 0.1))
    (fp_text user %R (at 0 0) (layer B.Fab)
      (effects (font (size 0.5 0.5) (thickness 0.075)) (justify mirror))
    )
    (pad 1 smd rect (at -1.35 0) (size 1.5 1.3) (layers B.Cu B.Paste B.Mask)
      (net 1 +5V))
    (pad 2 smd rect (at 1.35 0) (size 1.5 1.3) (layers B.Cu B.Paste B.Mask)
      (net 17 SDA))
    (model ${KISYS3DMOD}/Resistors_SMD.3dshapes/R_0805.wrl
      (at (xyz 0 0 0))
      (scale (xyz 1 1 1))
      (rotate (xyz 0 0 0))
    )
  )

  (module Resistors_SMD:R_1206_HandSoldering (layer F.Cu) (tedit 5B3926BA) (tstamp 5B3168FF)
    (at 19.5 -14)
    (descr "Resistor SMD 1206, hand soldering")
    (tags "resistor 1206")
    (path /5EC505AF)
    (attr smd)
    (fp_text reference R6 (at -4.5 0) (layer F.SilkS)
      (effects (font (size 1 1) (thickness 0.15)))
    )
    (fp_text value r_1k (at 5.5 0) (layer F.SilkS)
      (effects (font (size 1 1) (thickness 0.15)))
    )
    (fp_line (start 3.25 1.1) (end -3.25 1.1) (layer F.CrtYd) (width 0.05))
    (fp_line (start 3.25 1.1) (end 3.25 -1.11) (layer F.CrtYd) (width 0.05))
    (fp_line (start -3.25 -1.11) (end -3.25 1.1) (layer F.CrtYd) (width 0.05))
    (fp_line (start -3.25 -1.11) (end 3.25 -1.11) (layer F.CrtYd) (width 0.05))
    (fp_line (start -1 -1.07) (end 1 -1.07) (layer F.SilkS) (width 0.12))
    (fp_line (start 1 1.07) (end -1 1.07) (layer F.SilkS) (width 0.12))
    (fp_line (start -1.6 -0.8) (end 1.6 -0.8) (layer F.Fab) (width 0.1))
    (fp_line (start 1.6 -0.8) (end 1.6 0.8) (layer F.Fab) (width 0.1))
    (fp_line (start 1.6 0.8) (end -1.6 0.8) (layer F.Fab) (width 0.1))
    (fp_line (start -1.6 0.8) (end -1.6 -0.8) (layer F.Fab) (width 0.1))
    (fp_text user %R (at 0 0) (layer F.Fab)
      (effects (font (size 0.7 0.7) (thickness 0.105)))
    )
    (pad 1 smd rect (at -2 0) (size 2 1.7) (layers F.Cu F.Paste F.Mask)
      (net 41 "Net-(R2-Pad2)"))
    (pad 2 smd rect (at 2 0) (size 2 1.7) (layers F.Cu F.Paste F.Mask)
      (net 15 relais_signal_amplified))
    (model ${KISYS3DMOD}/Resistors_SMD.3dshapes/R_1206.wrl
      (at (xyz 0 0 0))
      (scale (xyz 1 1 1))
      (rotate (xyz 0 0 0))
    )
  )

  (module Resistors_SMD:R_0805_HandSoldering (layer B.Cu) (tedit 5B3926FA) (tstamp 5B3168F9)
    (at 10 32.15 270)
    (descr "Resistor SMD 0805, hand soldering")
    (tags "resistor 0805")
    (path /59D7FADC)
    (attr smd)
    (fp_text reference R5 (at 0 1.7 270) (layer B.SilkS)
      (effects (font (size 1 1) (thickness 0.15)) (justify mirror))
    )
    (fp_text value 2.2k (at 0 -1.75 270) (layer B.SilkS)
      (effects (font (size 1 1) (thickness 0.15)) (justify mirror))
    )
    (fp_line (start 2.35 -0.9) (end -2.35 -0.9) (layer B.CrtYd) (width 0.05))
    (fp_line (start 2.35 -0.9) (end 2.35 0.9) (layer B.CrtYd) (width 0.05))
    (fp_line (start -2.35 0.9) (end -2.35 -0.9) (layer B.CrtYd) (width 0.05))
    (fp_line (start -2.35 0.9) (end 2.35 0.9) (layer B.CrtYd) (width 0.05))
    (fp_line (start -0.6 0.88) (end 0.6 0.88) (layer B.SilkS) (width 0.12))
    (fp_line (start 0.6 -0.88) (end -0.6 -0.88) (layer B.SilkS) (width 0.12))
    (fp_line (start -1 0.62) (end 1 0.62) (layer B.Fab) (width 0.1))
    (fp_line (start 1 0.62) (end 1 -0.62) (layer B.Fab) (width 0.1))
    (fp_line (start 1 -0.62) (end -1 -0.62) (layer B.Fab) (width 0.1))
    (fp_line (start -1 -0.62) (end -1 0.62) (layer B.Fab) (width 0.1))
    (fp_text user %R (at 0 0 270) (layer B.Fab)
      (effects (font (size 0.5 0.5) (thickness 0.075)) (justify mirror))
    )
    (pad 1 smd rect (at -1.35 0 270) (size 1.5 1.3) (layers B.Cu B.Paste B.Mask)
      (net 1 +5V))
    (pad 2 smd rect (at 1.35 0 270) (size 1.5 1.3) (layers B.Cu B.Paste B.Mask)
      (net 34 input2))
    (model ${KISYS3DMOD}/Resistors_SMD.3dshapes/R_0805.wrl
      (at (xyz 0 0 0))
      (scale (xyz 1 1 1))
      (rotate (xyz 0 0 0))
    )
  )

  (module Resistors_SMD:R_1206_HandSoldering (layer B.Cu) (tedit 5B392683) (tstamp 5B3168F3)
    (at 34.5 -1.5)
    (descr "Resistor SMD 1206, hand soldering")
    (tags "resistor 1206")
    (path /59B7160D)
    (attr smd)
    (fp_text reference R4 (at -4.5 0) (layer B.SilkS)
      (effects (font (size 1 1) (thickness 0.15)) (justify mirror))
    )
    (fp_text value 2k2 (at 5.5 0) (layer B.SilkS)
      (effects (font (size 1 1) (thickness 0.15)) (justify mirror))
    )
    (fp_line (start 3.25 -1.1) (end -3.25 -1.1) (layer B.CrtYd) (width 0.05))
    (fp_line (start 3.25 -1.1) (end 3.25 1.11) (layer B.CrtYd) (width 0.05))
    (fp_line (start -3.25 1.11) (end -3.25 -1.1) (layer B.CrtYd) (width 0.05))
    (fp_line (start -3.25 1.11) (end 3.25 1.11) (layer B.CrtYd) (width 0.05))
    (fp_line (start -1 1.07) (end 1 1.07) (layer B.SilkS) (width 0.12))
    (fp_line (start 1 -1.07) (end -1 -1.07) (layer B.SilkS) (width 0.12))
    (fp_line (start -1.6 0.8) (end 1.6 0.8) (layer B.Fab) (width 0.1))
    (fp_line (start 1.6 0.8) (end 1.6 -0.8) (layer B.Fab) (width 0.1))
    (fp_line (start 1.6 -0.8) (end -1.6 -0.8) (layer B.Fab) (width 0.1))
    (fp_line (start -1.6 -0.8) (end -1.6 0.8) (layer B.Fab) (width 0.1))
    (fp_text user %R (at 0 0) (layer B.Fab)
      (effects (font (size 0.7 0.7) (thickness 0.105)) (justify mirror))
    )
    (pad 1 smd rect (at -2 0) (size 2 1.7) (layers B.Cu B.Paste B.Mask)
      (net 4 "Net-(R3-Pad1)"))
    (pad 2 smd rect (at 2 0) (size 2 1.7) (layers B.Cu B.Paste B.Mask)
      (net 14 GND))
    (model ${KISYS3DMOD}/Resistors_SMD.3dshapes/R_1206.wrl
      (at (xyz 0 0 0))
      (scale (xyz 1 1 1))
      (rotate (xyz 0 0 0))
    )
  )

  (module Resistors_SMD:R_1206_HandSoldering (layer B.Cu) (tedit 5B3926D5) (tstamp 5B3168ED)
    (at 34.5 -4)
    (descr "Resistor SMD 1206, hand soldering")
    (tags "resistor 1206")
    (path /59B71690)
    (attr smd)
    (fp_text reference R3 (at -4 -2) (layer B.SilkS)
      (effects (font (size 1 1) (thickness 0.15)) (justify mirror))
    )
    (fp_text value 2k2 (at 5.5 0) (layer B.SilkS)
      (effects (font (size 1 1) (thickness 0.15)) (justify mirror))
    )
    (fp_line (start 3.25 -1.1) (end -3.25 -1.1) (layer B.CrtYd) (width 0.05))
    (fp_line (start 3.25 -1.1) (end 3.25 1.11) (layer B.CrtYd) (width 0.05))
    (fp_line (start -3.25 1.11) (end -3.25 -1.1) (layer B.CrtYd) (width 0.05))
    (fp_line (start -3.25 1.11) (end 3.25 1.11) (layer B.CrtYd) (width 0.05))
    (fp_line (start -1 1.07) (end 1 1.07) (layer B.SilkS) (width 0.12))
    (fp_line (start 1 -1.07) (end -1 -1.07) (layer B.SilkS) (width 0.12))
    (fp_line (start -1.6 0.8) (end 1.6 0.8) (layer B.Fab) (width 0.1))
    (fp_line (start 1.6 0.8) (end 1.6 -0.8) (layer B.Fab) (width 0.1))
    (fp_line (start 1.6 -0.8) (end -1.6 -0.8) (layer B.Fab) (width 0.1))
    (fp_line (start -1.6 -0.8) (end -1.6 0.8) (layer B.Fab) (width 0.1))
    (fp_text user %R (at 0 0) (layer B.Fab)
      (effects (font (size 0.7 0.7) (thickness 0.105)) (justify mirror))
    )
    (pad 1 smd rect (at -2 0) (size 2 1.7) (layers B.Cu B.Paste B.Mask)
      (net 4 "Net-(R3-Pad1)"))
    (pad 2 smd rect (at 2 0) (size 2 1.7) (layers B.Cu B.Paste B.Mask)
      (net 24 relais_signal))
    (model ${KISYS3DMOD}/Resistors_SMD.3dshapes/R_1206.wrl
      (at (xyz 0 0 0))
      (scale (xyz 1 1 1))
      (rotate (xyz 0 0 0))
    )
  )

  (module Resistors_SMD:R_1206_HandSoldering (layer F.Cu) (tedit 5B3926CD) (tstamp 5B3168E7)
    (at 15 -8.5 90)
    (descr "Resistor SMD 1206, hand soldering")
    (tags "resistor 1206")
    (path /5EC4F57B)
    (attr smd)
    (fp_text reference R2 (at 4.5 -0.5 270) (layer F.SilkS)
      (effects (font (size 1 1) (thickness 0.15)))
    )
    (fp_text value r_1k (at -5.5 0 270) (layer F.SilkS)
      (effects (font (size 1 1) (thickness 0.15)))
    )
    (fp_line (start 3.25 1.1) (end -3.25 1.1) (layer F.CrtYd) (width 0.05))
    (fp_line (start 3.25 1.1) (end 3.25 -1.11) (layer F.CrtYd) (width 0.05))
    (fp_line (start -3.25 -1.11) (end -3.25 1.1) (layer F.CrtYd) (width 0.05))
    (fp_line (start -3.25 -1.11) (end 3.25 -1.11) (layer F.CrtYd) (width 0.05))
    (fp_line (start -1 -1.07) (end 1 -1.07) (layer F.SilkS) (width 0.12))
    (fp_line (start 1 1.07) (end -1 1.07) (layer F.SilkS) (width 0.12))
    (fp_line (start -1.6 -0.8) (end 1.6 -0.8) (layer F.Fab) (width 0.1))
    (fp_line (start 1.6 -0.8) (end 1.6 0.8) (layer F.Fab) (width 0.1))
    (fp_line (start 1.6 0.8) (end -1.6 0.8) (layer F.Fab) (width 0.1))
    (fp_line (start -1.6 0.8) (end -1.6 -0.8) (layer F.Fab) (width 0.1))
    (fp_text user %R (at 0 0 270) (layer F.Fab)
      (effects (font (size 0.7 0.7) (thickness 0.105)))
    )
    (pad 1 smd rect (at -2 0 90) (size 2 1.7) (layers F.Cu F.Paste F.Mask)
      (net 5 POE+))
    (pad 2 smd rect (at 2 0 90) (size 2 1.7) (layers F.Cu F.Paste F.Mask)
      (net 41 "Net-(R2-Pad2)"))
    (model ${KISYS3DMOD}/Resistors_SMD.3dshapes/R_1206.wrl
      (at (xyz 0 0 0))
      (scale (xyz 1 1 1))
      (rotate (xyz 0 0 0))
    )
  )

  (module Diodes_SMD:D_2114 (layer B.Cu) (tedit 590CF38C) (tstamp 5B316830)
    (at 45.175 -7)
    (descr "Diode SMD 2114, reflow soldering http://datasheets.avx.com/schottky.pdf")
    (tags "Diode 2114")
    (path /5A05A5F2)
    (attr smd)
    (fp_text reference D4 (at 4.825 0) (layer B.SilkS)
      (effects (font (size 1 1) (thickness 0.15)) (justify mirror))
    )
    (fp_text value Diode (at -0.675 -3) (layer B.Fab)
      (effects (font (size 1 1) (thickness 0.15)) (justify mirror))
    )
    (fp_line (start 2.6 -1.8) (end 2.6 1.8) (layer B.Fab) (width 0.1))
    (fp_line (start 2.6 -1.8) (end -2.6 -1.8) (layer B.Fab) (width 0.1))
    (fp_line (start -3.46 1.95) (end 2.15 1.95) (layer B.SilkS) (width 0.12))
    (fp_line (start -3.46 -1.95) (end 2.15 -1.95) (layer B.SilkS) (width 0.12))
    (fp_line (start -0.64944 -0.00102) (end 0.50118 0.79908) (layer B.Fab) (width 0.1))
    (fp_line (start -0.64944 -0.00102) (end 0.50118 -0.75032) (layer B.Fab) (width 0.1))
    (fp_line (start 0.50118 -0.75032) (end 0.50118 0.79908) (layer B.Fab) (width 0.1))
    (fp_line (start -0.64944 0.79908) (end -0.64944 -0.80112) (layer B.Fab) (width 0.1))
    (fp_line (start 0.50118 -0.00102) (end 1.4994 -0.00102) (layer B.Fab) (width 0.1))
    (fp_line (start -0.64944 -0.00102) (end -1.55114 -0.00102) (layer B.Fab) (width 0.1))
    (fp_line (start -3.61 -2.1) (end -3.61 2.1) (layer B.CrtYd) (width 0.05))
    (fp_line (start 3.61 -2.1) (end -3.61 -2.1) (layer B.CrtYd) (width 0.05))
    (fp_line (start 3.61 2.1) (end 3.61 -2.1) (layer B.CrtYd) (width 0.05))
    (fp_line (start -3.61 2.1) (end 3.61 2.1) (layer B.CrtYd) (width 0.05))
    (fp_line (start 2.6 1.8) (end -2.6 1.8) (layer B.Fab) (width 0.1))
    (fp_line (start -2.6 -1.8) (end -2.6 1.8) (layer B.Fab) (width 0.1))
    (fp_line (start -3.46 1.95) (end -3.46 -1.95) (layer B.SilkS) (width 0.12))
    (fp_text user %R (at 0 2.7) (layer B.Fab)
      (effects (font (size 1 1) (thickness 0.15)) (justify mirror))
    )
    (pad 1 smd rect (at -2.325 0) (size 2 3) (layers B.Cu B.Paste B.Mask)
      (net 10 sw_VDD))
    (pad 2 smd rect (at 2.325 0) (size 2 3) (layers B.Cu B.Paste B.Mask)
      (net 14 GND))
    (model ${KISYS3DMOD}/Diodes_SMD.3dshapes/D_2114.wrl
      (at (xyz 0 0 0))
      (scale (xyz 1 1 1))
      (rotate (xyz 0 0 0))
    )
  )

  (module Diodes_SMD:D_2114 (layer B.Cu) (tedit 590CF38C) (tstamp 5B31682A)
    (at 45.175 -2 180)
    (descr "Diode SMD 2114, reflow soldering http://datasheets.avx.com/schottky.pdf")
    (tags "Diode 2114")
    (path /5FD08083)
    (attr smd)
    (fp_text reference D3 (at -4.825 0 180) (layer B.SilkS)
      (effects (font (size 1 1) (thickness 0.15)) (justify mirror))
    )
    (fp_text value Diode (at 0 -2.8 180) (layer B.Fab)
      (effects (font (size 1 1) (thickness 0.15)) (justify mirror))
    )
    (fp_line (start 2.6 -1.8) (end 2.6 1.8) (layer B.Fab) (width 0.1))
    (fp_line (start 2.6 -1.8) (end -2.6 -1.8) (layer B.Fab) (width 0.1))
    (fp_line (start -3.46 1.95) (end 2.15 1.95) (layer B.SilkS) (width 0.12))
    (fp_line (start -3.46 -1.95) (end 2.15 -1.95) (layer B.SilkS) (width 0.12))
    (fp_line (start -0.64944 -0.00102) (end 0.50118 0.79908) (layer B.Fab) (width 0.1))
    (fp_line (start -0.64944 -0.00102) (end 0.50118 -0.75032) (layer B.Fab) (width 0.1))
    (fp_line (start 0.50118 -0.75032) (end 0.50118 0.79908) (layer B.Fab) (width 0.1))
    (fp_line (start -0.64944 0.79908) (end -0.64944 -0.80112) (layer B.Fab) (width 0.1))
    (fp_line (start 0.50118 -0.00102) (end 1.4994 -0.00102) (layer B.Fab) (width 0.1))
    (fp_line (start -0.64944 -0.00102) (end -1.55114 -0.00102) (layer B.Fab) (width 0.1))
    (fp_line (start -3.61 -2.1) (end -3.61 2.1) (layer B.CrtYd) (width 0.05))
    (fp_line (start 3.61 -2.1) (end -3.61 -2.1) (layer B.CrtYd) (width 0.05))
    (fp_line (start 3.61 2.1) (end 3.61 -2.1) (layer B.CrtYd) (width 0.05))
    (fp_line (start -3.61 2.1) (end 3.61 2.1) (layer B.CrtYd) (width 0.05))
    (fp_line (start 2.6 1.8) (end -2.6 1.8) (layer B.Fab) (width 0.1))
    (fp_line (start -2.6 -1.8) (end -2.6 1.8) (layer B.Fab) (width 0.1))
    (fp_line (start -3.46 1.95) (end -3.46 -1.95) (layer B.SilkS) (width 0.12))
    (fp_text user %R (at 0 2.7 180) (layer B.Fab)
      (effects (font (size 1 1) (thickness 0.15)) (justify mirror))
    )
    (pad 1 smd rect (at -2.325 0 180) (size 2 3) (layers B.Cu B.Paste B.Mask)
      (net 8 sw_12V))
    (pad 2 smd rect (at 2.325 0 180) (size 2 3) (layers B.Cu B.Paste B.Mask)
      (net 14 GND))
    (model ${KISYS3DMOD}/Diodes_SMD.3dshapes/D_2114.wrl
      (at (xyz 0 0 0))
      (scale (xyz 1 1 1))
      (rotate (xyz 0 0 0))
    )
  )

  (module Diodes_SMD:D_2114 (layer B.Cu) (tedit 590CF38C) (tstamp 5B316824)
    (at 46 -14.675 90)
    (descr "Diode SMD 2114, reflow soldering http://datasheets.avx.com/schottky.pdf")
    (tags "Diode 2114")
    (path /59B720C3)
    (attr smd)
    (fp_text reference D2 (at 0 2.7 270) (layer B.SilkS)
      (effects (font (size 1 1) (thickness 0.15)) (justify mirror))
    )
    (fp_text value SS54 (at 0 -2.8 270) (layer B.Fab)
      (effects (font (size 1 1) (thickness 0.15)) (justify mirror))
    )
    (fp_line (start 2.6 -1.8) (end 2.6 1.8) (layer B.Fab) (width 0.1))
    (fp_line (start 2.6 -1.8) (end -2.6 -1.8) (layer B.Fab) (width 0.1))
    (fp_line (start -3.46 1.95) (end 2.15 1.95) (layer B.SilkS) (width 0.12))
    (fp_line (start -3.46 -1.95) (end 2.15 -1.95) (layer B.SilkS) (width 0.12))
    (fp_line (start -0.64944 -0.00102) (end 0.50118 0.79908) (layer B.Fab) (width 0.1))
    (fp_line (start -0.64944 -0.00102) (end 0.50118 -0.75032) (layer B.Fab) (width 0.1))
    (fp_line (start 0.50118 -0.75032) (end 0.50118 0.79908) (layer B.Fab) (width 0.1))
    (fp_line (start -0.64944 0.79908) (end -0.64944 -0.80112) (layer B.Fab) (width 0.1))
    (fp_line (start 0.50118 -0.00102) (end 1.4994 -0.00102) (layer B.Fab) (width 0.1))
    (fp_line (start -0.64944 -0.00102) (end -1.55114 -0.00102) (layer B.Fab) (width 0.1))
    (fp_line (start -3.61 -2.1) (end -3.61 2.1) (layer B.CrtYd) (width 0.05))
    (fp_line (start 3.61 -2.1) (end -3.61 -2.1) (layer B.CrtYd) (width 0.05))
    (fp_line (start 3.61 2.1) (end 3.61 -2.1) (layer B.CrtYd) (width 0.05))
    (fp_line (start -3.61 2.1) (end 3.61 2.1) (layer B.CrtYd) (width 0.05))
    (fp_line (start 2.6 1.8) (end -2.6 1.8) (layer B.Fab) (width 0.1))
    (fp_line (start -2.6 -1.8) (end -2.6 1.8) (layer B.Fab) (width 0.1))
    (fp_line (start -3.46 1.95) (end -3.46 -1.95) (layer B.SilkS) (width 0.12))
    (fp_text user %R (at 0 2.7 270) (layer B.Fab)
      (effects (font (size 1 1) (thickness 0.15)) (justify mirror))
    )
    (pad 1 smd rect (at -2.325 0 90) (size 2 3) (layers B.Cu B.Paste B.Mask)
      (net 1 +5V))
    (pad 2 smd rect (at 2.325 0 90) (size 2 3) (layers B.Cu B.Paste B.Mask)
      (net 15 relais_signal_amplified))
    (model ${KISYS3DMOD}/Diodes_SMD.3dshapes/D_2114.wrl
      (at (xyz 0 0 0))
      (scale (xyz 1 1 1))
      (rotate (xyz 0 0 0))
    )
  )

  (module Capacitors_SMD:C_0805_HandSoldering (layer B.Cu) (tedit 58AA84A8) (tstamp 5FA33626)
    (at 12 32.25 90)
    (descr "Capacitor SMD 0805, hand soldering")
    (tags "capacitor 0805")
    (path /5FB2B525)
    (attr smd)
    (fp_text reference C2 (at 0 1.75 270) (layer B.SilkS)
      (effects (font (size 1 1) (thickness 0.15)) (justify mirror))
    )
    (fp_text value 1nF (at 0 -1.75 270) (layer B.Fab)
      (effects (font (size 1 1) (thickness 0.15)) (justify mirror))
    )
    (fp_line (start 2.25 -0.87) (end -2.25 -0.87) (layer B.CrtYd) (width 0.05))
    (fp_line (start 2.25 -0.87) (end 2.25 0.88) (layer B.CrtYd) (width 0.05))
    (fp_line (start -2.25 0.88) (end -2.25 -0.87) (layer B.CrtYd) (width 0.05))
    (fp_line (start -2.25 0.88) (end 2.25 0.88) (layer B.CrtYd) (width 0.05))
    (fp_line (start -0.5 -0.85) (end 0.5 -0.85) (layer B.SilkS) (width 0.12))
    (fp_line (start 0.5 0.85) (end -0.5 0.85) (layer B.SilkS) (width 0.12))
    (fp_line (start -1 0.62) (end 1 0.62) (layer B.Fab) (width 0.1))
    (fp_line (start 1 0.62) (end 1 -0.62) (layer B.Fab) (width 0.1))
    (fp_line (start 1 -0.62) (end -1 -0.62) (layer B.Fab) (width 0.1))
    (fp_line (start -1 -0.62) (end -1 0.62) (layer B.Fab) (width 0.1))
    (fp_text user %R (at 0 1.75 270) (layer B.Fab)
      (effects (font (size 1 1) (thickness 0.15)) (justify mirror))
    )
    (pad 1 smd rect (at -1.25 0 90) (size 1.5 1.25) (layers B.Cu B.Paste B.Mask)
      (net 34 input2))
    (pad 2 smd rect (at 1.25 0 90) (size 1.5 1.25) (layers B.Cu B.Paste B.Mask)
      (net 14 GND))
    (model Capacitors_SMD.3dshapes/C_0805.wrl
      (at (xyz 0 0 0))
      (scale (xyz 1 1 1))
      (rotate (xyz 0 0 0))
    )
  )

  (module dooropenerfootprints:JST_XH_B04B-XH-A_04x2.50mm_Straight (layer F.Cu) (tedit 5B35F3DB) (tstamp 5B36B09B)
    (at 1.5 1.5 270)
    (descr "JST XH series connector, B04B-XH-A, top entry type, through hole")
    (tags "connector jst xh tht top vertical 2.50mm")
    (path /59B72A54)
    (fp_text reference U3 (at 3.75 -3.5 270) (layer F.SilkS)
      (effects (font (size 1 1) (thickness 0.15)))
    )
    (fp_text value i²C (at 5 -2 270) (layer F.Fab)
      (effects (font (size 1 1) (thickness 0.15)))
    )
    (fp_line (start 10.45 -2.85) (end -2.95 -2.85) (layer F.CrtYd) (width 0.05))
    (fp_line (start 10.45 3.9) (end 10.45 -2.85) (layer F.CrtYd) (width 0.05))
    (fp_line (start -2.95 3.9) (end 10.45 3.9) (layer F.CrtYd) (width 0.05))
    (fp_line (start -2.95 -2.85) (end -2.95 3.9) (layer F.CrtYd) (width 0.05))
    (fp_text user %R (at 8.5 -2 270) (layer F.Fab)
      (effects (font (size 1 1) (thickness 0.15)))
    )
    (pad 1 thru_hole rect (at 0 0 270) (size 1.75 1.75) (drill 1) (layers *.Cu *.Mask)
      (net 14 GND))
    (pad 2 thru_hole circle (at 2.5 0 270) (size 1.75 1.75) (drill 1) (layers *.Cu *.Mask)
      (net 1 +5V))
    (pad 3 thru_hole circle (at 5 0 270) (size 1.75 1.75) (drill 1) (layers *.Cu *.Mask)
      (net 17 SDA))
    (pad 4 thru_hole circle (at 7.5 0 270) (size 1.75 1.75) (drill 1) (layers *.Cu *.Mask)
      (net 36 SCL))
    (model Connectors_JST.3dshapes/JST_XH_B04B-XH-A_04x2.50mm_Straight.wrl
      (at (xyz 0 0 0))
      (scale (xyz 1 1 1))
      (rotate (xyz 0 0 0))
    )
  )

  (module dooropenerfootprints:JST_XH_B08B-XH-A_08x2.50mm_Straight (layer F.Cu) (tedit 5B36B029) (tstamp 5B36B5B7)
    (at 1.5 15 270)
    (descr "JST XH series connector, B08B-XH-A, top entry type, through hole")
    (tags "connector jst xh tht top vertical 2.50mm")
    (path /59AE62DC)
    (fp_text reference U4 (at 8.75 -3.5 270) (layer F.SilkS)
      (effects (font (size 1 1) (thickness 0.15)))
    )
    (fp_text value MFRC522 (at 7 -2 270) (layer F.Fab)
      (effects (font (size 1 1) (thickness 0.15)))
    )
    (fp_line (start 20.45 -2.85) (end -2.95 -2.85) (layer F.CrtYd) (width 0.05))
    (fp_line (start 20.45 3.9) (end 20.45 -2.85) (layer F.CrtYd) (width 0.05))
    (fp_line (start -2.95 3.9) (end 20.45 3.9) (layer F.CrtYd) (width 0.05))
    (fp_line (start -2.95 -2.85) (end -2.95 3.9) (layer F.CrtYd) (width 0.05))
    (fp_text user %R (at 6.5 -2 270) (layer F.Fab)
      (effects (font (size 1 1) (thickness 0.15)))
    )
    (pad 1 thru_hole rect (at 0 0 270) (size 1.75 1.75) (drill 1) (layers *.Cu *.Mask)
      (net 17 SDA))
    (pad 2 thru_hole circle (at 2.5 0 270) (size 1.75 1.75) (drill 1) (layers *.Cu *.Mask)
      (net 18 SCK))
    (pad 3 thru_hole circle (at 5 0 270) (size 1.75 1.75) (drill 1) (layers *.Cu *.Mask)
      (net 20 MOSI))
    (pad 4 thru_hole circle (at 7.5 0 270) (size 1.75 1.75) (drill 1) (layers *.Cu *.Mask)
      (net 19 MISO))
    (pad 5 thru_hole circle (at 10 0 270) (size 1.75 1.75) (drill 1) (layers *.Cu *.Mask)
      (net 35 IRQ))
    (pad 6 thru_hole circle (at 12.5 0 270) (size 1.75 1.75) (drill 1) (layers *.Cu *.Mask)
      (net 14 GND))
    (pad 7 thru_hole circle (at 15 0 270) (size 1.75 1.75) (drill 1) (layers *.Cu *.Mask)
      (net 21 RST))
    (pad 8 thru_hole circle (at 17.5 0 270) (size 1.75 1.75) (drill 1) (layers *.Cu *.Mask)
      (net 3 +3V3))
    (model Connectors_JST.3dshapes/JST_XH_B08B-XH-A_08x2.50mm_Straight.wrl
      (at (xyz 0 0 0))
      (scale (xyz 1 1 1))
      (rotate (xyz 0 0 0))
    )
  )

  (module Connectors_JST:JST_XH_B03B-XH-A_03x2.50mm_Straight (layer B.Cu) (tedit 58EAE7F0) (tstamp 5B391A33)
    (at 8.5 4 90)
    (descr "JST XH series connector, B03B-XH-A, top entry type, through hole")
    (tags "connector jst xh tht top vertical 2.50mm")
    (path /5B1EEDCB)
    (fp_text reference J4 (at 2.5 3.5 90) (layer B.SilkS)
      (effects (font (size 1 1) (thickness 0.15)) (justify mirror))
    )
    (fp_text value " buck converter" (at 2.5 2 90) (layer F.Fab)
      (effects (font (size 1 1) (thickness 0.15)))
    )
    (fp_line (start -2.85 2.75) (end -2.85 0.25) (layer B.Fab) (width 0.1))
    (fp_line (start -0.35 2.75) (end -2.85 2.75) (layer B.Fab) (width 0.1))
    (fp_line (start -2.85 2.75) (end -2.85 0.25) (layer B.SilkS) (width 0.12))
    (fp_line (start -0.35 2.75) (end -2.85 2.75) (layer B.SilkS) (width 0.12))
    (fp_line (start 6.8 -2.75) (end 2.5 -2.75) (layer B.SilkS) (width 0.12))
    (fp_line (start 6.8 0.2) (end 6.8 -2.75) (layer B.SilkS) (width 0.12))
    (fp_line (start 7.55 0.2) (end 6.8 0.2) (layer B.SilkS) (width 0.12))
    (fp_line (start -1.8 -2.75) (end 2.5 -2.75) (layer B.SilkS) (width 0.12))
    (fp_line (start -1.8 0.2) (end -1.8 -2.75) (layer B.SilkS) (width 0.12))
    (fp_line (start -2.55 0.2) (end -1.8 0.2) (layer B.SilkS) (width 0.12))
    (fp_line (start 7.55 2.45) (end 5.75 2.45) (layer B.SilkS) (width 0.12))
    (fp_line (start 7.55 1.7) (end 7.55 2.45) (layer B.SilkS) (width 0.12))
    (fp_line (start 5.75 1.7) (end 7.55 1.7) (layer B.SilkS) (width 0.12))
    (fp_line (start 5.75 2.45) (end 5.75 1.7) (layer B.SilkS) (width 0.12))
    (fp_line (start -0.75 2.45) (end -2.55 2.45) (layer B.SilkS) (width 0.12))
    (fp_line (start -0.75 1.7) (end -0.75 2.45) (layer B.SilkS) (width 0.12))
    (fp_line (start -2.55 1.7) (end -0.75 1.7) (layer B.SilkS) (width 0.12))
    (fp_line (start -2.55 2.45) (end -2.55 1.7) (layer B.SilkS) (width 0.12))
    (fp_line (start 4.25 2.45) (end 0.75 2.45) (layer B.SilkS) (width 0.12))
    (fp_line (start 4.25 1.7) (end 4.25 2.45) (layer B.SilkS) (width 0.12))
    (fp_line (start 0.75 1.7) (end 4.25 1.7) (layer B.SilkS) (width 0.12))
    (fp_line (start 0.75 2.45) (end 0.75 1.7) (layer B.SilkS) (width 0.12))
    (fp_line (start 7.55 2.45) (end -2.55 2.45) (layer B.SilkS) (width 0.12))
    (fp_line (start 7.55 -3.5) (end 7.55 2.45) (layer B.SilkS) (width 0.12))
    (fp_line (start -2.55 -3.5) (end 7.55 -3.5) (layer B.SilkS) (width 0.12))
    (fp_line (start -2.55 2.45) (end -2.55 -3.5) (layer B.SilkS) (width 0.12))
    (fp_line (start 7.95 2.85) (end -2.95 2.85) (layer B.CrtYd) (width 0.05))
    (fp_line (start 7.95 -3.9) (end 7.95 2.85) (layer B.CrtYd) (width 0.05))
    (fp_line (start -2.95 -3.9) (end 7.95 -3.9) (layer B.CrtYd) (width 0.05))
    (fp_line (start -2.95 2.85) (end -2.95 -3.9) (layer B.CrtYd) (width 0.05))
    (fp_line (start 7.45 2.35) (end -2.45 2.35) (layer B.Fab) (width 0.1))
    (fp_line (start 7.45 -3.4) (end 7.45 2.35) (layer B.Fab) (width 0.1))
    (fp_line (start -2.45 -3.4) (end 7.45 -3.4) (layer B.Fab) (width 0.1))
    (fp_line (start -2.45 2.35) (end -2.45 -3.4) (layer B.Fab) (width 0.1))
    (fp_text user %R (at 2.5 -2.5 90) (layer B.Fab)
      (effects (font (size 1 1) (thickness 0.15)) (justify mirror))
    )
    (pad 1 thru_hole rect (at 0 0 90) (size 1.75 1.75) (drill 1) (layers *.Cu *.Mask)
      (net 5 POE+))
    (pad 2 thru_hole circle (at 2.5 0 90) (size 1.75 1.75) (drill 1) (layers *.Cu *.Mask)
      (net 2 VDD))
    (pad 3 thru_hole circle (at 5 0 90) (size 1.75 1.75) (drill 1) (layers *.Cu *.Mask)
      (net 14 GND))
    (model Connectors_JST.3dshapes/JST_XH_B03B-XH-A_03x2.50mm_Straight.wrl
      (at (xyz 0 0 0))
      (scale (xyz 1 1 1))
      (rotate (xyz 0 0 0))
    )
  )

  (module Mounting_Holes:MountingHole_3.2mm_M3 (layer F.Cu) (tedit 56D1B4CB) (tstamp 5FA3279D)
    (at -14.5 8.5)
    (descr "Mounting Hole 3.2mm, no annular, M3")
    (tags "mounting hole 3.2mm no annular m3")
    (path /5FAABE40)
    (attr virtual)
    (fp_text reference H1 (at 0 -4.2) (layer F.SilkS)
      (effects (font (size 1 1) (thickness 0.15)))
    )
    (fp_text value MountingHole (at 0 4.2) (layer F.Fab)
      (effects (font (size 1 1) (thickness 0.15)))
    )
    (fp_circle (center 0 0) (end 3.2 0) (layer Cmts.User) (width 0.15))
    (fp_circle (center 0 0) (end 3.45 0) (layer F.CrtYd) (width 0.05))
    (fp_text user %R (at 0.074999 0) (layer F.Fab)
      (effects (font (size 1 1) (thickness 0.15)))
    )
    (pad 1 np_thru_hole circle (at 0 0) (size 3.2 3.2) (drill 3.2) (layers *.Cu *.Mask))
  )

  (module Mounting_Holes:MountingHole_3.2mm_M3 (layer F.Cu) (tedit 56D1B4CB) (tstamp 5FA31610)
    (at -14.5 -13.5)
    (descr "Mounting Hole 3.2mm, no annular, M3")
    (tags "mounting hole 3.2mm no annular m3")
    (path /5FAAD278)
    (attr virtual)
    (fp_text reference H2 (at 0 -4.2) (layer F.SilkS)
      (effects (font (size 1 1) (thickness 0.15)))
    )
    (fp_text value MountingHole (at 0 4.2) (layer F.Fab)
      (effects (font (size 1 1) (thickness 0.15)))
    )
    (fp_circle (center 0 0) (end 3.2 0) (layer Cmts.User) (width 0.15))
    (fp_circle (center 0 0) (end 3.45 0) (layer F.CrtYd) (width 0.05))
    (fp_text user %R (at 0.3 0) (layer F.Fab)
      (effects (font (size 1 1) (thickness 0.15)))
    )
    (pad 1 np_thru_hole circle (at 0 0) (size 3.2 3.2) (drill 3.2) (layers *.Cu *.Mask))
  )

  (module Connector_JST:JST_PH_B2B-PH-K_1x02_P2.00mm_Vertical (layer F.Cu) (tedit 5B7745C2) (tstamp 5FA31722)
    (at -16.5 39 90)
    (descr "JST PH series connector, B2B-PH-K (http://www.jst-mfg.com/product/pdf/eng/ePH.pdf), generated with kicad-footprint-generator")
    (tags "connector JST PH side entry")
    (path /5EDD3AEE)
    (fp_text reference J8 (at 1 -2.9 90) (layer F.SilkS)
      (effects (font (size 1 1) (thickness 0.15)))
    )
    (fp_text value "Speaker 4-8 ohm" (at 1 4 90) (layer F.Fab)
      (effects (font (size 1 1) (thickness 0.15)))
    )
    (fp_line (start 4.45 -2.2) (end -2.45 -2.2) (layer F.CrtYd) (width 0.05))
    (fp_line (start 4.45 3.3) (end 4.45 -2.2) (layer F.CrtYd) (width 0.05))
    (fp_line (start -2.45 3.3) (end 4.45 3.3) (layer F.CrtYd) (width 0.05))
    (fp_line (start -2.45 -2.2) (end -2.45 3.3) (layer F.CrtYd) (width 0.05))
    (fp_line (start 3.95 -1.7) (end -1.95 -1.7) (layer F.Fab) (width 0.1))
    (fp_line (start 3.95 2.8) (end 3.95 -1.7) (layer F.Fab) (width 0.1))
    (fp_line (start -1.95 2.8) (end 3.95 2.8) (layer F.Fab) (width 0.1))
    (fp_line (start -1.95 -1.7) (end -1.95 2.8) (layer F.Fab) (width 0.1))
    (fp_line (start -2.36 -2.11) (end -2.36 -0.86) (layer F.Fab) (width 0.1))
    (fp_line (start -1.11 -2.11) (end -2.36 -2.11) (layer F.Fab) (width 0.1))
    (fp_line (start -2.36 -2.11) (end -2.36 -0.86) (layer F.SilkS) (width 0.12))
    (fp_line (start -1.11 -2.11) (end -2.36 -2.11) (layer F.SilkS) (width 0.12))
    (fp_line (start 1 2.3) (end 1 1.8) (layer F.SilkS) (width 0.12))
    (fp_line (start 1.1 1.8) (end 1.1 2.3) (layer F.SilkS) (width 0.12))
    (fp_line (start 0.9 1.8) (end 1.1 1.8) (layer F.SilkS) (width 0.12))
    (fp_line (start 0.9 2.3) (end 0.9 1.8) (layer F.SilkS) (width 0.12))
    (fp_line (start 4.06 0.8) (end 3.45 0.8) (layer F.SilkS) (width 0.12))
    (fp_line (start 4.06 -0.5) (end 3.45 -0.5) (layer F.SilkS) (width 0.12))
    (fp_line (start -2.06 0.8) (end -1.45 0.8) (layer F.SilkS) (width 0.12))
    (fp_line (start -2.06 -0.5) (end -1.45 -0.5) (layer F.SilkS) (width 0.12))
    (fp_line (start 1.5 -1.2) (end 1.5 -1.81) (layer F.SilkS) (width 0.12))
    (fp_line (start 3.45 -1.2) (end 1.5 -1.2) (layer F.SilkS) (width 0.12))
    (fp_line (start 3.45 2.3) (end 3.45 -1.2) (layer F.SilkS) (width 0.12))
    (fp_line (start -1.45 2.3) (end 3.45 2.3) (layer F.SilkS) (width 0.12))
    (fp_line (start -1.45 -1.2) (end -1.45 2.3) (layer F.SilkS) (width 0.12))
    (fp_line (start 0.5 -1.2) (end -1.45 -1.2) (layer F.SilkS) (width 0.12))
    (fp_line (start 0.5 -1.81) (end 0.5 -1.2) (layer F.SilkS) (width 0.12))
    (fp_line (start -0.3 -1.91) (end -0.6 -1.91) (layer F.SilkS) (width 0.12))
    (fp_line (start -0.6 -2.01) (end -0.6 -1.81) (layer F.SilkS) (width 0.12))
    (fp_line (start -0.3 -2.01) (end -0.6 -2.01) (layer F.SilkS) (width 0.12))
    (fp_line (start -0.3 -1.81) (end -0.3 -2.01) (layer F.SilkS) (width 0.12))
    (fp_line (start 4.06 -1.81) (end -2.06 -1.81) (layer F.SilkS) (width 0.12))
    (fp_line (start 4.06 2.91) (end 4.06 -1.81) (layer F.SilkS) (width 0.12))
    (fp_line (start -2.06 2.91) (end 4.06 2.91) (layer F.SilkS) (width 0.12))
    (fp_line (start -2.06 -1.81) (end -2.06 2.91) (layer F.SilkS) (width 0.12))
    (fp_text user %R (at 1 1.5 90) (layer F.Fab)
      (effects (font (size 1 1) (thickness 0.15)))
    )
    (pad 1 thru_hole roundrect (at 0 0 90) (size 1.2 1.75) (drill 0.75) (layers *.Cu *.Mask) (roundrect_rratio 0.208333)
      (net 31 "Net-(J8-Pad1)"))
    (pad 2 thru_hole oval (at 2 0 90) (size 1.2 1.75) (drill 0.75) (layers *.Cu *.Mask)
      (net 32 "Net-(J8-Pad2)"))
    (model ${KISYS3DMOD}/Connector_JST.3dshapes/JST_PH_B2B-PH-K_1x02_P2.00mm_Vertical.wrl
      (at (xyz 0 0 0))
      (scale (xyz 1 1 1))
      (rotate (xyz 0 0 0))
    )
  )

  (module NetTie:NetTie-2_SMD_Pad0.5mm (layer F.Cu) (tedit 5A1CF6D3) (tstamp 5FA31738)
    (at 56 0.5 180)
    (descr "Net tie, 2 pin, 0.5mm square SMD pads")
    (tags "net tie")
    (path /5FAC1EF1)
    (attr virtual)
    (fp_text reference NT2 (at 0 -1.2) (layer F.SilkS)
      (effects (font (size 1 1) (thickness 0.15)))
    )
    (fp_text value Net-Tie_2 (at 0 1.2) (layer F.Fab)
      (effects (font (size 1 1) (thickness 0.15)))
    )
    (fp_line (start -1 -0.5) (end -1 0.5) (layer F.CrtYd) (width 0.05))
    (fp_line (start -1 0.5) (end 1 0.5) (layer F.CrtYd) (width 0.05))
    (fp_line (start 1 0.5) (end 1 -0.5) (layer F.CrtYd) (width 0.05))
    (fp_line (start 1 -0.5) (end -1 -0.5) (layer F.CrtYd) (width 0.05))
    (fp_poly (pts (xy -0.5 -0.25) (xy 0.5 -0.25) (xy 0.5 0.25) (xy -0.5 0.25)) (layer F.Cu) (width 0))
    (pad 1 smd circle (at -0.5 0 180) (size 0.5 0.5) (layers F.Cu)
      (net 11 "Net-(J2-Pad4)"))
    (pad 2 smd circle (at 0.5 0 180) (size 0.5 0.5) (layers F.Cu)
      (net 14 GND))
  )

  (module SparkFun-DiscreteSemi:SOT89 (layer F.Cu) (tedit 200000) (tstamp 5FA31754)
    (at 12.70168 -14 90)
    (path /5ECC0C94)
    (attr smd)
    (fp_text reference r_Q1 (at -2.72034 -0.05842) (layer B.SilkS)
      (effects (font (size 0.4064 0.4064) (thickness 0.0254)))
    )
    (fp_text value 2SB1386 (at 2.78638 -0.0889) (layer B.SilkS)
      (effects (font (size 0.4064 0.4064) (thickness 0.0254)))
    )
    (fp_line (start -2.2987 -1.29794) (end 2.2987 -1.29794) (layer B.SilkS) (width 0.2032))
    (fp_line (start -2.2987 1.29794) (end -2.2987 -1.29794) (layer B.SilkS) (width 0.2032))
    (fp_line (start 2.2987 1.29794) (end -2.2987 1.29794) (layer B.SilkS) (width 0.2032))
    (fp_line (start 2.2987 -1.29794) (end 2.2987 1.29794) (layer B.SilkS) (width 0.2032))
    (fp_line (start 1.25984 2.22758) (end 1.25984 1.27) (layer F.SilkS) (width 0.06604))
    (fp_line (start 1.25984 1.27) (end 1.7399 1.27) (layer F.SilkS) (width 0.06604))
    (fp_line (start 1.7399 2.22758) (end 1.7399 1.27) (layer F.SilkS) (width 0.06604))
    (fp_line (start 1.25984 2.22758) (end 1.7399 2.22758) (layer F.SilkS) (width 0.06604))
    (fp_line (start -0.23876 2.22758) (end -0.23876 1.27) (layer F.SilkS) (width 0.06604))
    (fp_line (start -0.23876 1.27) (end 0.23876 1.27) (layer F.SilkS) (width 0.06604))
    (fp_line (start 0.23876 2.22758) (end 0.23876 1.27) (layer F.SilkS) (width 0.06604))
    (fp_line (start -0.23876 2.22758) (end 0.23876 2.22758) (layer F.SilkS) (width 0.06604))
    (fp_line (start -1.7399 2.22758) (end -1.7399 1.27) (layer F.SilkS) (width 0.06604))
    (fp_line (start -1.7399 1.27) (end -1.25984 1.27) (layer F.SilkS) (width 0.06604))
    (fp_line (start -1.25984 2.22758) (end -1.25984 1.27) (layer F.SilkS) (width 0.06604))
    (fp_line (start -1.7399 2.22758) (end -1.25984 2.22758) (layer F.SilkS) (width 0.06604))
    (fp_line (start -0.9144 -0.30226) (end -0.9144 -2.15646) (layer F.SilkS) (width 0.06604))
    (fp_line (start -0.9144 -2.15646) (end 0.9144 -2.15646) (layer F.SilkS) (width 0.06604))
    (fp_line (start 0.9144 -0.30226) (end 0.9144 -2.15646) (layer F.SilkS) (width 0.06604))
    (fp_line (start -0.9144 -0.30226) (end 0.9144 -0.30226) (layer F.SilkS) (width 0.06604))
    (pad 1 smd rect (at -1.4986 1.79832 90) (size 0.57912 1.19888) (layers F.Cu F.Paste F.Mask)
      (net 41 "Net-(R2-Pad2)"))
    (pad 2 smd rect (at 0 1.79832 90) (size 0.57912 1.19888) (layers F.Cu F.Paste F.Mask)
      (net 8 sw_12V))
    (pad 3 smd rect (at 1.4986 1.79832 90) (size 0.57912 1.19888) (layers F.Cu F.Paste F.Mask)
      (net 5 POE+))
    (pad 4 smd rect (at 0 -1.29794 90) (size 1.99898 1.99898) (layers F.Cu F.Paste F.Mask)
      (net 8 sw_12V))
  )

  (module micro_coax:HRS_U_FL-R-SMT (layer B.Cu) (tedit 5FA1CCFA) (tstamp 5FA31E38)
    (at 11.975 47 180)
    (path /5FA6D3DB)
    (fp_text reference J1 (at 0.371335 2.239855) (layer B.SilkS)
      (effects (font (size 1.001126 1.001126) (thickness 0.015)) (justify mirror))
    )
    (fp_text value Mic (at 8.24735 -3.171995) (layer B.Fab)
      (effects (font (size 1.002134 1.002134) (thickness 0.015)) (justify mirror))
    )
    (fp_line (start -1.3 -1.3) (end -1.3 -0.87) (layer B.Fab) (width 0.127))
    (fp_line (start -1.3 -0.87) (end -1.3 1.3) (layer B.Fab) (width 0.127))
    (fp_line (start 1.3 1.3) (end 1.3 -1.3) (layer B.Fab) (width 0.127))
    (fp_circle (center 0.01 0.01) (end 0.342412 0.01) (layer B.Fab) (width 0.127))
    (fp_circle (center 0 0.01) (end 0.551541 0.01) (layer B.Fab) (width 0.127))
    (fp_line (start 1.38 0.87) (end 1.57 0.87) (layer B.Fab) (width 0.127))
    (fp_line (start 1.57 0.87) (end 1.57 -0.87) (layer B.Fab) (width 0.127))
    (fp_line (start 1.57 -0.87) (end 1.34 -0.87) (layer B.Fab) (width 0.127))
    (fp_line (start 1.34 -0.9) (end 1.34 -0.91) (layer B.Fab) (width 0.127))
    (fp_line (start -1.57 0.87) (end -1.57 -0.87) (layer B.Fab) (width 0.127))
    (fp_line (start -1.57 0.87) (end -1.33 0.87) (layer B.Fab) (width 0.127))
    (fp_line (start -1.33 0.87) (end -1.33 0.88) (layer B.Fab) (width 0.127))
    (fp_line (start -2.3 1.6) (end -2.3 -2.4) (layer B.CrtYd) (width 0.05))
    (fp_line (start -2.3 -2.4) (end 2.3 -2.4) (layer B.CrtYd) (width 0.05))
    (fp_line (start 2.3 -2.4) (end 2.3 1.6) (layer B.CrtYd) (width 0.05))
    (fp_line (start 2.3 1.6) (end -2.3 1.6) (layer B.CrtYd) (width 0.05))
    (fp_line (start -1.3 -1.3) (end 1.3 -1.3) (layer B.Fab) (width 0.127))
    (fp_line (start -1.3 1.3) (end 1.3 1.3) (layer B.Fab) (width 0.127))
    (fp_line (start 1.3 1.3) (end -1.3 1.3) (layer B.SilkS) (width 0.127))
    (fp_line (start -1.57 -0.87) (end -1.3 -0.87) (layer B.Fab) (width 0.127))
    (fp_poly (pts (xy -0.903064 1.15) (xy 0.9 1.15) (xy 0.9 -0.963268) (xy -0.903064 -0.963268)) (layer Dwgs.User) (width 0.01))
    (pad 2 smd rect (at -1.475 0 180) (size 1.1 2.25) (layers B.Cu B.Paste B.Mask)
      (net 9 "Net-(J1-Pad2)"))
    (pad 2 smd rect (at 1.475 0 180) (size 1.1 2.25) (layers B.Cu B.Paste B.Mask)
      (net 9 "Net-(J1-Pad2)"))
    (pad 1 smd rect (at 0 -1.55 180) (size 1.05 1.1) (layers B.Cu B.Paste B.Mask)
      (net 16 "Net-(J1-Pad1)"))
  )

  (module Connector_PinHeader_2.54mm:PinHeader_1x01_P2.54mm_Vertical (layer F.Cu) (tedit 59FED5CC) (tstamp 5FA31E53)
    (at 20 -20.5)
    (descr "Through hole straight pin header, 1x01, 2.54mm pitch, single row")
    (tags "Through hole pin header THT 1x01 2.54mm single row")
    (path /5FABE294)
    (fp_text reference J6 (at 0 -2.33) (layer F.SilkS)
      (effects (font (size 1 1) (thickness 0.15)))
    )
    (fp_text value "deenergized a" (at 0 2.33) (layer F.Fab)
      (effects (font (size 1 1) (thickness 0.15)))
    )
    (fp_line (start 1.8 -1.8) (end -1.8 -1.8) (layer F.CrtYd) (width 0.05))
    (fp_line (start 1.8 1.8) (end 1.8 -1.8) (layer F.CrtYd) (width 0.05))
    (fp_line (start -1.8 1.8) (end 1.8 1.8) (layer F.CrtYd) (width 0.05))
    (fp_line (start -1.8 -1.8) (end -1.8 1.8) (layer F.CrtYd) (width 0.05))
    (fp_line (start -1.33 -1.33) (end 0 -1.33) (layer F.SilkS) (width 0.12))
    (fp_line (start -1.33 0) (end -1.33 -1.33) (layer F.SilkS) (width 0.12))
    (fp_line (start -1.33 1.27) (end 1.33 1.27) (layer F.SilkS) (width 0.12))
    (fp_line (start 1.33 1.27) (end 1.33 1.33) (layer F.SilkS) (width 0.12))
    (fp_line (start -1.33 1.27) (end -1.33 1.33) (layer F.SilkS) (width 0.12))
    (fp_line (start -1.33 1.33) (end 1.33 1.33) (layer F.SilkS) (width 0.12))
    (fp_line (start -1.27 -0.635) (end -0.635 -1.27) (layer F.Fab) (width 0.1))
    (fp_line (start -1.27 1.27) (end -1.27 -0.635) (layer F.Fab) (width 0.1))
    (fp_line (start 1.27 1.27) (end -1.27 1.27) (layer F.Fab) (width 0.1))
    (fp_line (start 1.27 -1.27) (end 1.27 1.27) (layer F.Fab) (width 0.1))
    (fp_line (start -0.635 -1.27) (end 1.27 -1.27) (layer F.Fab) (width 0.1))
    (fp_text user %R (at 0 0 90) (layer F.Fab)
      (effects (font (size 1 1) (thickness 0.15)))
    )
    (pad 1 thru_hole rect (at 0 0) (size 1.7 1.7) (drill 1) (layers *.Cu *.Mask)
      (net 10 sw_VDD))
    (model ${KISYS3DMOD}/Connector_PinHeader_2.54mm.3dshapes/PinHeader_1x01_P2.54mm_Vertical.wrl
      (at (xyz 0 0 0))
      (scale (xyz 1 1 1))
      (rotate (xyz 0 0 0))
    )
  )

  (module Jumper:SolderJumper-2_P1.3mm_Open_Pad1.0x1.5mm (layer B.Cu) (tedit 5A3EABFC) (tstamp 5FA31E88)
    (at 39.5 -10.65 270)
    (descr "SMD Solder Jumper, 1x1.5mm Pads, 0.3mm gap, open")
    (tags "solder jumper open")
    (path /5FACFE0E)
    (attr virtual)
    (fp_text reference JP2 (at 0 1.8 90) (layer B.SilkS)
      (effects (font (size 1 1) (thickness 0.15)) (justify mirror))
    )
    (fp_text value "solder gap" (at 0 -1.9 90) (layer B.Fab)
      (effects (font (size 1 1) (thickness 0.15)) (justify mirror))
    )
    (fp_line (start 1.65 -1.25) (end -1.65 -1.25) (layer B.CrtYd) (width 0.05))
    (fp_line (start 1.65 -1.25) (end 1.65 1.25) (layer B.CrtYd) (width 0.05))
    (fp_line (start -1.65 1.25) (end -1.65 -1.25) (layer B.CrtYd) (width 0.05))
    (fp_line (start -1.65 1.25) (end 1.65 1.25) (layer B.CrtYd) (width 0.05))
    (fp_line (start -1.4 1) (end 1.4 1) (layer B.SilkS) (width 0.12))
    (fp_line (start 1.4 1) (end 1.4 -1) (layer B.SilkS) (width 0.12))
    (fp_line (start 1.4 -1) (end -1.4 -1) (layer B.SilkS) (width 0.12))
    (fp_line (start -1.4 -1) (end -1.4 1) (layer B.SilkS) (width 0.12))
    (pad 2 smd rect (at 0.65 0 270) (size 1 1.5) (layers B.Cu B.Mask)
      (net 11 "Net-(J2-Pad4)"))
    (pad 1 smd rect (at -0.65 0 270) (size 1 1.5) (layers B.Cu B.Mask)
      (net 5 POE+))
  )

  (module Resistors_SMD:R_0805_HandSoldering (layer B.Cu) (tedit 58E0A804) (tstamp 5FA31E95)
    (at 64.5 21.5)
    (descr "Resistor SMD 0805, hand soldering")
    (tags "resistor 0805")
    (path /5FB134CF)
    (attr smd)
    (fp_text reference R1 (at 0 1.7) (layer B.SilkS)
      (effects (font (size 1 1) (thickness 0.15)) (justify mirror))
    )
    (fp_text value 2.2k (at 0 -1.75) (layer B.Fab)
      (effects (font (size 1 1) (thickness 0.15)) (justify mirror))
    )
    (fp_line (start -1 -0.62) (end -1 0.62) (layer B.Fab) (width 0.1))
    (fp_line (start 1 -0.62) (end -1 -0.62) (layer B.Fab) (width 0.1))
    (fp_line (start 1 0.62) (end 1 -0.62) (layer B.Fab) (width 0.1))
    (fp_line (start -1 0.62) (end 1 0.62) (layer B.Fab) (width 0.1))
    (fp_line (start 0.6 -0.88) (end -0.6 -0.88) (layer B.SilkS) (width 0.12))
    (fp_line (start -0.6 0.88) (end 0.6 0.88) (layer B.SilkS) (width 0.12))
    (fp_line (start -2.35 0.9) (end 2.35 0.9) (layer B.CrtYd) (width 0.05))
    (fp_line (start -2.35 0.9) (end -2.35 -0.9) (layer B.CrtYd) (width 0.05))
    (fp_line (start 2.35 -0.9) (end 2.35 0.9) (layer B.CrtYd) (width 0.05))
    (fp_line (start 2.35 -0.9) (end -2.35 -0.9) (layer B.CrtYd) (width 0.05))
    (fp_text user %R (at 0 0) (layer B.Fab)
      (effects (font (size 0.5 0.5) (thickness 0.075)) (justify mirror))
    )
    (pad 2 smd rect (at 1.35 0) (size 1.5 1.3) (layers B.Cu B.Paste B.Mask)
      (net 33 input1))
    (pad 1 smd rect (at -1.35 0) (size 1.5 1.3) (layers B.Cu B.Paste B.Mask)
      (net 1 +5V))
    (model ${KISYS3DMOD}/Resistors_SMD.3dshapes/R_0805.wrl
      (at (xyz 0 0 0))
      (scale (xyz 1 1 1))
      (rotate (xyz 0 0 0))
    )
  )

  (module Resistors_SMD:R_1206_HandSoldering (layer B.Cu) (tedit 58E0A804) (tstamp 5FA33521)
    (at 17.5 43.65 90)
    (descr "Resistor SMD 1206, hand soldering")
    (tags "resistor 1206")
    (path /5B312C5A)
    (attr smd)
    (fp_text reference R9 (at 0 1.85 90) (layer B.SilkS)
      (effects (font (size 1 1) (thickness 0.15)) (justify mirror))
    )
    (fp_text value 330 (at 0 -1.9 90) (layer B.Fab)
      (effects (font (size 1 1) (thickness 0.15)) (justify mirror))
    )
    (fp_line (start -1.6 -0.8) (end -1.6 0.8) (layer B.Fab) (width 0.1))
    (fp_line (start 1.6 -0.8) (end -1.6 -0.8) (layer B.Fab) (width 0.1))
    (fp_line (start 1.6 0.8) (end 1.6 -0.8) (layer B.Fab) (width 0.1))
    (fp_line (start -1.6 0.8) (end 1.6 0.8) (layer B.Fab) (width 0.1))
    (fp_line (start 1 -1.07) (end -1 -1.07) (layer B.SilkS) (width 0.12))
    (fp_line (start -1 1.07) (end 1 1.07) (layer B.SilkS) (width 0.12))
    (fp_line (start -3.25 1.11) (end 3.25 1.11) (layer B.CrtYd) (width 0.05))
    (fp_line (start -3.25 1.11) (end -3.25 -1.1) (layer B.CrtYd) (width 0.05))
    (fp_line (start 3.25 -1.1) (end 3.25 1.11) (layer B.CrtYd) (width 0.05))
    (fp_line (start 3.25 -1.1) (end -3.25 -1.1) (layer B.CrtYd) (width 0.05))
    (fp_text user %R (at 0 0 90) (layer B.Fab)
      (effects (font (size 0.7 0.7) (thickness 0.105)) (justify mirror))
    )
    (pad 2 smd rect (at 2 0 90) (size 2 1.7) (layers B.Cu B.Paste B.Mask)
      (net 13 "Net-(LAN1-Pad9)"))
    (pad 1 smd rect (at -2 0 90) (size 2 1.7) (layers B.Cu B.Paste B.Mask)
      (net 3 +3V3))
    (model ${KISYS3DMOD}/Resistors_SMD.3dshapes/R_1206.wrl
      (at (xyz 0 0 0))
      (scale (xyz 1 1 1))
      (rotate (xyz 0 0 0))
    )
  )

  (module Resistors_SMD:R_1206_HandSoldering (layer B.Cu) (tedit 58E0A804) (tstamp 5FA335F6)
    (at 20 43.65 90)
    (descr "Resistor SMD 1206, hand soldering")
    (tags "resistor 1206")
    (path /5B3122F1)
    (attr smd)
    (fp_text reference R10 (at 0 1.85 90) (layer B.SilkS)
      (effects (font (size 1 1) (thickness 0.15)) (justify mirror))
    )
    (fp_text value 330 (at 0 -1.9 90) (layer B.Fab)
      (effects (font (size 1 1) (thickness 0.15)) (justify mirror))
    )
    (fp_line (start 3.25 -1.1) (end -3.25 -1.1) (layer B.CrtYd) (width 0.05))
    (fp_line (start 3.25 -1.1) (end 3.25 1.11) (layer B.CrtYd) (width 0.05))
    (fp_line (start -3.25 1.11) (end -3.25 -1.1) (layer B.CrtYd) (width 0.05))
    (fp_line (start -3.25 1.11) (end 3.25 1.11) (layer B.CrtYd) (width 0.05))
    (fp_line (start -1 1.07) (end 1 1.07) (layer B.SilkS) (width 0.12))
    (fp_line (start 1 -1.07) (end -1 -1.07) (layer B.SilkS) (width 0.12))
    (fp_line (start -1.6 0.8) (end 1.6 0.8) (layer B.Fab) (width 0.1))
    (fp_line (start 1.6 0.8) (end 1.6 -0.8) (layer B.Fab) (width 0.1))
    (fp_line (start 1.6 -0.8) (end -1.6 -0.8) (layer B.Fab) (width 0.1))
    (fp_line (start -1.6 -0.8) (end -1.6 0.8) (layer B.Fab) (width 0.1))
    (fp_text user %R (at 0 0 90) (layer B.Fab)
      (effects (font (size 0.7 0.7) (thickness 0.105)) (justify mirror))
    )
    (pad 1 smd rect (at -2 0 90) (size 2 1.7) (layers B.Cu B.Paste B.Mask)
      (net 3 +3V3))
    (pad 2 smd rect (at 2 0 90) (size 2 1.7) (layers B.Cu B.Paste B.Mask)
      (net 12 "Net-(LAN1-Pad12)"))
    (model ${KISYS3DMOD}/Resistors_SMD.3dshapes/R_1206.wrl
      (at (xyz 0 0 0))
      (scale (xyz 1 1 1))
      (rotate (xyz 0 0 0))
    )
  )

  (module nanopi:Ayima_3w_8002_audio_amplifier_module (layer F.Cu) (tedit 5FA1AC0A) (tstamp 5FA31EC5)
    (at 2 44 90)
    (path /5FC7F145)
    (fp_text reference U1 (at -8.89 -5.08) (layer F.SilkS)
      (effects (font (size 1 1) (thickness 0.15)))
    )
    (fp_text value 8002_3w_audio_module (at 1 -10 90) (layer F.Fab)
      (effects (font (size 1 1) (thickness 0.15)))
    )
    (fp_line (start 6.25 -2) (end 8 -2) (layer F.SilkS) (width 0.15))
    (fp_line (start 6.25 2) (end 6.25 -2) (layer F.SilkS) (width 0.15))
    (fp_line (start -6.35 -2) (end -8 -2) (layer F.SilkS) (width 0.15))
    (fp_line (start -6.25 2) (end -6.25 -2) (layer F.SilkS) (width 0.15))
    (fp_line (start -7 -8.5) (end -8 -7.5) (layer F.SilkS) (width 0.15))
    (fp_line (start -7 -8.5) (end 8 -8.5) (layer F.SilkS) (width 0.15))
    (fp_line (start 8 -2) (end 8 -8.5) (layer F.SilkS) (width 0.15))
    (fp_line (start -6.25 2) (end 6.25 2) (layer F.SilkS) (width 0.15))
    (fp_line (start -8 -7.5) (end -8 -2) (layer F.SilkS) (width 0.15))
    (fp_text user enable (at -5.08 -5) (layer F.SilkS)
      (effects (font (size 1 1) (thickness 0.15)))
    )
    (fp_text user in (at -3 -3) (layer F.SilkS)
      (effects (font (size 1 1) (thickness 0.15)))
    )
    (fp_text user gnd (at -1 -4) (layer F.SilkS)
      (effects (font (size 1 1) (thickness 0.15)))
    )
    (fp_text user 3-5v (at 1 -4) (layer F.SilkS)
      (effects (font (size 1 1) (thickness 0.15)))
    )
    (fp_text user sp+ (at 3 -4) (layer F.SilkS)
      (effects (font (size 1 1) (thickness 0.15)))
    )
    (fp_text user sp- (at 5 -4) (layer F.SilkS)
      (effects (font (size 1 1) (thickness 0.15)))
    )
    (pad 1 smd rect (at -5 0 90) (size 1.524 3) (layers F.Cu F.Paste F.Mask)
      (net 23 audio_enable))
    (pad 2 smd rect (at -3 0 90) (size 1.524 3) (layers F.Cu F.Paste F.Mask)
      (net 22 Line_Out_L))
    (pad 3 smd rect (at -1 0 90) (size 1.524 3) (layers F.Cu F.Paste F.Mask)
      (net 14 GND))
    (pad 4 smd rect (at 1 0 90) (size 1.524 3) (layers F.Cu F.Paste F.Mask)
      (net 1 +5V))
    (pad 5 smd rect (at 3 0 90) (size 1.524 3) (layers F.Cu F.Paste F.Mask)
      (net 31 "Net-(J8-Pad1)"))
    (pad 6 smd rect (at 5 0 90) (size 1.524 3) (layers F.Cu F.Paste F.Mask)
      (net 32 "Net-(J8-Pad2)"))
  )

  (module charleslabs:Mini360_Module (layer F.Cu) (tedit 5DE81915) (tstamp 5FA3420B)
    (at 10.76 17.5)
    (path /5FA197A4)
    (fp_text reference A1 (at 0.24 -2.5) (layer F.SilkS)
      (effects (font (size 1 1) (thickness 0.15)))
    )
    (fp_text value Mini360_Module (at 7.62 7.62) (layer F.Fab)
      (effects (font (size 1 1) (thickness 0.15)))
    )
    (fp_line (start 12.7 5.08) (end 11.43 6.35) (layer F.SilkS) (width 0.15))
    (fp_line (start 11.43 3.81) (end 12.7 5.08) (layer F.SilkS) (width 0.15))
    (fp_line (start 2.54 5.08) (end 12.7 5.08) (layer F.SilkS) (width 0.15))
    (fp_line (start 16.51 -1.27) (end -1.27 -1.27) (layer F.SilkS) (width 0.15))
    (fp_line (start 16.51 10.16) (end 16.51 -1.27) (layer F.SilkS) (width 0.15))
    (fp_line (start -1.27 10.16) (end 16.51 10.16) (layer F.SilkS) (width 0.15))
    (fp_line (start -1.27 -1.27) (end -1.27 10.16) (layer F.SilkS) (width 0.15))
    (fp_line (start -1.27 -1.27) (end 16.51 -1.27) (layer F.CrtYd) (width 0.12))
    (fp_line (start 16.51 -1.27) (end 16.51 10.16) (layer F.CrtYd) (width 0.12))
    (fp_line (start 16.51 10.16) (end -1.27 10.16) (layer F.CrtYd) (width 0.12))
    (fp_line (start -1.27 10.16) (end -1.27 -1.27) (layer F.CrtYd) (width 0.12))
    (fp_text user + (at 15.24 7.62) (layer F.SilkS)
      (effects (font (size 1 1) (thickness 0.15)))
    )
    (fp_text user - (at 15.24 1.27) (layer F.SilkS)
      (effects (font (size 1 1) (thickness 0.15)))
    )
    (fp_text user + (at 0 7.62) (layer F.SilkS)
      (effects (font (size 1 1) (thickness 0.15)))
    )
    (fp_text user - (at 0 1.27) (layer F.SilkS)
      (effects (font (size 1 1) (thickness 0.15)))
    )
    (pad 3 thru_hole circle (at 15.24 9.144) (size 1.524 1.524) (drill 0.762) (layers *.Cu *.Mask)
      (net 1 +5V))
    (pad 4 thru_hole circle (at 15.24 0) (size 1.524 1.524) (drill 0.762) (layers *.Cu *.Mask)
      (net 14 GND))
    (pad 1 thru_hole circle (at 0 9.144) (size 1.524 1.524) (drill 0.762) (layers *.Cu *.Mask)
      (net 5 POE+))
    (pad 2 thru_hole rect (at 0 0) (size 1.524 1.524) (drill 0.762) (layers *.Cu *.Mask))
  )

  (module nanopi:nanopi (layer F.Cu) (tedit 5B3158CA) (tstamp 5FA324EF)
    (at 18.225001 26.245001)
    (descr "Low profile, screw machine socket strip, through hole, 100mil / 2.54mm pitch")
    (tags "samtec socket strip tht single")
    (path /5FDCB21B)
    (fp_text reference J5 (at -13.7 1.27 90) (layer F.SilkS)
      (effects (font (size 1 1) (thickness 0.15)))
    )
    (fp_text value nanopiduo (at -8.89 0 90) (layer F.Fab)
      (effects (font (size 1 1) (thickness 0.15)))
    )
    (fp_line (start 3.81 -26.67) (end -3.81 -26.67) (layer F.SilkS) (width 0.15))
    (fp_line (start 3.81 -22.86) (end 3.81 -26.67) (layer F.SilkS) (width 0.15))
    (fp_line (start -3.81 -22.86) (end 3.81 -22.86) (layer F.SilkS) (width 0.15))
    (fp_line (start -3.81 -26.67) (end -3.81 -22.86) (layer F.SilkS) (width 0.15))
    (fp_line (start 12.7 24.13) (end 12.7 -25.4) (layer F.SilkS) (width 0.15))
    (fp_line (start -12.7 24.13) (end 12.7 24.13) (layer F.SilkS) (width 0.15))
    (fp_line (start -12.7 -25.4) (end -12.7 24.13) (layer F.SilkS) (width 0.15))
    (fp_line (start 12.7 -25.4) (end -12.7 -25.4) (layer F.SilkS) (width 0.15))
    (fp_line (start -11.6 -19.2) (end -10.01 -19.2) (layer F.SilkS) (width 0.12))
    (fp_line (start -10.01 -19.2) (end -10.01 21.74) (layer F.SilkS) (width 0.12))
    (fp_line (start -10.01 21.74) (end -12.85 21.74) (layer F.SilkS) (width 0.12))
    (fp_line (start -12.85 21.74) (end -12.85 -17.95) (layer F.SilkS) (width 0.12))
    (fp_line (start -11.7 -19.45) (end -13.1 -19.45) (layer F.SilkS) (width 0.12))
    (fp_line (start -13.1 -19.45) (end -13.1 -18.05) (layer F.SilkS) (width 0.12))
    (fp_line (start -11.7 -19.45) (end -13.1 -19.45) (layer F.Fab) (width 0.1))
    (fp_line (start -13.1 -19.45) (end -13.1 -18.05) (layer F.Fab) (width 0.1))
    (fp_line (start -12.7 -19.05) (end -12.7 21.59) (layer F.Fab) (width 0.1))
    (fp_line (start -12.7 21.59) (end -10.16 21.59) (layer F.Fab) (width 0.1))
    (fp_line (start -10.16 21.59) (end -10.16 -19.05) (layer F.Fab) (width 0.1))
    (fp_line (start -10.16 -19.05) (end -12.7 -19.05) (layer F.Fab) (width 0.1))
    (fp_line (start -13.2 -19.55) (end -13.2 22.08) (layer F.CrtYd) (width 0.05))
    (fp_line (start -13.2 22.08) (end -9.66 22.08) (layer F.CrtYd) (width 0.05))
    (fp_line (start -9.66 22.08) (end -9.66 -19.55) (layer F.CrtYd) (width 0.05))
    (fp_line (start -9.66 -19.55) (end -13.2 -19.55) (layer F.CrtYd) (width 0.05))
    (fp_line (start -12.7 -16.51) (end -12.5 -16.51) (layer F.Fab) (width 0.1))
    (fp_line (start -10.16 -16.51) (end -10.36 -16.51) (layer F.Fab) (width 0.1))
    (fp_line (start -12.7 -13.97) (end -12.5 -13.97) (layer F.Fab) (width 0.1))
    (fp_line (start -10.16 -13.97) (end -10.36 -13.97) (layer F.Fab) (width 0.1))
    (fp_line (start -12.7 -11.43) (end -12.5 -11.43) (layer F.Fab) (width 0.1))
    (fp_line (start -10.16 -11.43) (end -10.36 -11.43) (layer F.Fab) (width 0.1))
    (fp_line (start -12.7 -8.89) (end -12.5 -8.89) (layer F.Fab) (width 0.1))
    (fp_line (start -10.16 -8.89) (end -10.36 -8.89) (layer F.Fab) (width 0.1))
    (fp_line (start -12.7 -6.35) (end -12.5 -6.35) (layer F.Fab) (width 0.1))
    (fp_line (start -10.16 -6.35) (end -10.36 -6.35) (layer F.Fab) (width 0.1))
    (fp_line (start -12.7 -3.81) (end -12.5 -3.81) (layer F.Fab) (width 0.1))
    (fp_line (start -10.16 -3.81) (end -10.36 -3.81) (layer F.Fab) (width 0.1))
    (fp_line (start -12.7 -1.27) (end -12.5 -1.27) (layer F.Fab) (width 0.1))
    (fp_line (start -10.16 -1.27) (end -10.36 -1.27) (layer F.Fab) (width 0.1))
    (fp_line (start -12.7 1.27) (end -12.5 1.27) (layer F.Fab) (width 0.1))
    (fp_line (start -10.16 1.27) (end -10.36 1.27) (layer F.Fab) (width 0.1))
    (fp_line (start -12.7 3.81) (end -12.5 3.81) (layer F.Fab) (width 0.1))
    (fp_line (start -10.16 3.81) (end -10.36 3.81) (layer F.Fab) (width 0.1))
    (fp_line (start -12.7 6.35) (end -12.5 6.35) (layer F.Fab) (width 0.1))
    (fp_line (start -10.16 6.35) (end -10.36 6.35) (layer F.Fab) (width 0.1))
    (fp_line (start -12.7 8.89) (end -12.5 8.89) (layer F.Fab) (width 0.1))
    (fp_line (start -10.16 8.89) (end -10.36 8.89) (layer F.Fab) (width 0.1))
    (fp_line (start -12.7 11.43) (end -12.5 11.43) (layer F.Fab) (width 0.1))
    (fp_line (start -10.16 11.43) (end -10.36 11.43) (layer F.Fab) (width 0.1))
    (fp_line (start -12.7 13.97) (end -12.5 13.97) (layer F.Fab) (width 0.1))
    (fp_line (start -10.16 13.97) (end -10.36 13.97) (layer F.Fab) (width 0.1))
    (fp_line (start -12.7 16.51) (end -12.5 16.51) (layer F.Fab) (width 0.1))
    (fp_line (start -10.16 16.51) (end -10.36 16.51) (layer F.Fab) (width 0.1))
    (fp_line (start -12.7 19.05) (end -12.5 19.05) (layer F.Fab) (width 0.1))
    (fp_line (start -10.16 19.05) (end -10.36 19.05) (layer F.Fab) (width 0.1))
    (fp_line (start -12.7 21.59) (end -12.5 21.59) (layer F.Fab) (width 0.1))
    (fp_line (start -10.16 21.59) (end -10.36 21.59) (layer F.Fab) (width 0.1))
    (fp_line (start 9.76 -19.45) (end 9.76 -18.05) (layer F.SilkS) (width 0.12))
    (fp_line (start 11.26 -19.2) (end 12.85 -19.2) (layer F.SilkS) (width 0.12))
    (fp_line (start 12.85 -19.2) (end 12.85 21.74) (layer F.SilkS) (width 0.12))
    (fp_line (start 12.85 21.74) (end 10.01 21.74) (layer F.SilkS) (width 0.12))
    (fp_line (start 10.01 21.74) (end 10.01 -17.95) (layer F.SilkS) (width 0.12))
    (fp_line (start 11.16 -19.45) (end 9.76 -19.45) (layer F.SilkS) (width 0.12))
    (fp_line (start 13.2 22.08) (end 13.2 -19.55) (layer F.CrtYd) (width 0.05))
    (fp_line (start 9.66 -19.55) (end 9.66 22.08) (layer F.CrtYd) (width 0.05))
    (fp_line (start 9.66 22.08) (end 13.2 22.08) (layer F.CrtYd) (width 0.05))
    (fp_line (start 13.2 -19.55) (end 9.66 -19.55) (layer F.CrtYd) (width 0.05))
    (fp_line (start 10.16 -16.51) (end 10.36 -16.51) (layer F.Fab) (width 0.1))
    (fp_line (start 11.16 -19.45) (end 9.76 -19.45) (layer F.Fab) (width 0.1))
    (fp_line (start 9.76 -19.45) (end 9.76 -18.05) (layer F.Fab) (width 0.1))
    (fp_line (start 12.7 -19.05) (end 10.16 -19.05) (layer F.Fab) (width 0.1))
    (fp_line (start 12.7 -16.51) (end 12.5 -16.51) (layer F.Fab) (width 0.1))
    (fp_line (start 10.16 21.59) (end 10.36 21.59) (layer F.Fab) (width 0.1))
    (fp_line (start 10.16 21.59) (end 12.7 21.59) (layer F.Fab) (width 0.1))
    (fp_line (start 10.16 19.05) (end 10.36 19.05) (layer F.Fab) (width 0.1))
    (fp_line (start 12.7 19.05) (end 12.5 19.05) (layer F.Fab) (width 0.1))
    (fp_line (start 12.7 21.59) (end 12.5 21.59) (layer F.Fab) (width 0.1))
    (fp_line (start 12.7 -11.43) (end 12.5 -11.43) (layer F.Fab) (width 0.1))
    (fp_line (start 10.16 -13.97) (end 10.36 -13.97) (layer F.Fab) (width 0.1))
    (fp_line (start 12.7 -13.97) (end 12.5 -13.97) (layer F.Fab) (width 0.1))
    (fp_line (start 10.16 -11.43) (end 10.36 -11.43) (layer F.Fab) (width 0.1))
    (fp_line (start 10.16 -8.89) (end 10.36 -8.89) (layer F.Fab) (width 0.1))
    (fp_line (start 12.7 -8.89) (end 12.5 -8.89) (layer F.Fab) (width 0.1))
    (fp_line (start 10.16 -6.35) (end 10.36 -6.35) (layer F.Fab) (width 0.1))
    (fp_line (start 12.7 -6.35) (end 12.5 -6.35) (layer F.Fab) (width 0.1))
    (fp_line (start 10.16 -3.81) (end 10.36 -3.81) (layer F.Fab) (width 0.1))
    (fp_line (start 12.7 -3.81) (end 12.5 -3.81) (layer F.Fab) (width 0.1))
    (fp_line (start 12.7 1.27) (end 12.5 1.27) (layer F.Fab) (width 0.1))
    (fp_line (start 10.16 -1.27) (end 10.36 -1.27) (layer F.Fab) (width 0.1))
    (fp_line (start 12.7 -1.27) (end 12.5 -1.27) (layer F.Fab) (width 0.1))
    (fp_line (start 10.16 1.27) (end 10.36 1.27) (layer F.Fab) (width 0.1))
    (fp_line (start 10.16 3.81) (end 10.36 3.81) (layer F.Fab) (width 0.1))
    (fp_line (start 12.7 3.81) (end 12.5 3.81) (layer F.Fab) (width 0.1))
    (fp_line (start 10.16 6.35) (end 10.36 6.35) (layer F.Fab) (width 0.1))
    (fp_line (start 12.7 6.35) (end 12.5 6.35) (layer F.Fab) (width 0.1))
    (fp_line (start 10.16 8.89) (end 10.36 8.89) (layer F.Fab) (width 0.1))
    (fp_line (start 12.7 8.89) (end 12.5 8.89) (layer F.Fab) (width 0.1))
    (fp_line (start 10.16 -19.05) (end 10.16 21.59) (layer F.Fab) (width 0.1))
    (fp_line (start 12.7 21.59) (end 12.7 -19.05) (layer F.Fab) (width 0.1))
    (fp_line (start 10.16 11.43) (end 10.36 11.43) (layer F.Fab) (width 0.1))
    (fp_line (start 12.7 11.43) (end 12.5 11.43) (layer F.Fab) (width 0.1))
    (fp_line (start 12.7 13.97) (end 12.5 13.97) (layer F.Fab) (width 0.1))
    (fp_line (start 10.16 16.51) (end 10.36 16.51) (layer F.Fab) (width 0.1))
    (fp_line (start 10.16 13.97) (end 10.36 13.97) (layer F.Fab) (width 0.1))
    (fp_line (start 12.7 16.51) (end 12.5 16.51) (layer F.Fab) (width 0.1))
    (pad 1 thru_hole rect (at -11.43 -17.78) (size 2 2) (drill 0.95) (layers *.Cu *.Mask)
      (net 35 IRQ))
    (pad 2 thru_hole circle (at -11.43 -15.24) (size 2 2) (drill 0.95) (layers *.Cu *.Mask)
      (net 33 input1))
    (pad 3 thru_hole circle (at -11.43 -12.7) (size 2 2) (drill 0.95) (layers *.Cu *.Mask)
      (net 14 GND))
    (pad 4 thru_hole circle (at -11.43 -10.16) (size 2 2) (drill 0.95) (layers *.Cu *.Mask)
      (net 36 SCL))
    (pad 5 thru_hole circle (at -11.43 -7.62) (size 2 2) (drill 0.95) (layers *.Cu *.Mask)
      (net 17 SDA))
    (pad 6 thru_hole circle (at -11.43 -5.08) (size 2 2) (drill 0.95) (layers *.Cu *.Mask)
      (net 17 SDA))
    (pad 7 thru_hole circle (at -11.43 -2.54) (size 2 2) (drill 0.95) (layers *.Cu *.Mask)
      (net 18 SCK))
    (pad 8 thru_hole circle (at -11.43 0) (size 2 2) (drill 0.95) (layers *.Cu *.Mask)
      (net 19 MISO))
    (pad 9 thru_hole circle (at -11.43 2.54) (size 2 2) (drill 0.95) (layers *.Cu *.Mask)
      (net 20 MOSI))
    (pad 10 thru_hole circle (at -11.43 5.08) (size 2 2) (drill 0.95) (layers *.Cu *.Mask)
      (net 21 RST))
    (pad 11 thru_hole circle (at -11.43 7.62) (size 2 2) (drill 0.95) (layers *.Cu *.Mask)
      (net 34 input2))
    (pad 12 thru_hole circle (at -11.43 10.16) (size 2 2) (drill 0.95) (layers *.Cu *.Mask)
      (net 22 Line_Out_L))
    (pad 13 thru_hole circle (at -11.43 12.7) (size 2 2) (drill 0.95) (layers *.Cu *.Mask))
    (pad 14 thru_hole circle (at -11.43 15.24) (size 2 2) (drill 0.95) (layers *.Cu *.Mask))
    (pad 15 thru_hole circle (at -11.43 17.78) (size 2 2) (drill 0.95) (layers *.Cu *.Mask)
      (net 16 "Net-(J1-Pad1)"))
    (pad 16 thru_hole circle (at -11.43 20.32) (size 2 2) (drill 0.95) (layers *.Cu *.Mask)
      (net 9 "Net-(J1-Pad2)"))
    (pad 20 thru_hole circle (at 11.43 -10.16) (size 2 2) (drill 0.95) (layers *.Cu *.Mask)
      (net 14 GND))
    (pad 18 thru_hole circle (at 11.43 -15.24) (size 2 2) (drill 0.95) (layers *.Cu *.Mask)
      (net 1 +5V))
    (pad 19 thru_hole circle (at 11.43 -12.7) (size 2 2) (drill 0.95) (layers *.Cu *.Mask)
      (net 3 +3V3))
    (pad 21 thru_hole circle (at 11.43 -7.62) (size 2 2) (drill 0.95) (layers *.Cu *.Mask)
      (net 23 audio_enable))
    (pad 25 thru_hole circle (at 11.43 2.54) (size 2 2) (drill 0.95) (layers *.Cu *.Mask))
    (pad 22 thru_hole circle (at 11.43 -5.08) (size 2 2) (drill 0.95) (layers *.Cu *.Mask)
      (net 24 relais_signal))
    (pad 23 thru_hole circle (at 11.43 -2.54) (size 2 2) (drill 0.95) (layers *.Cu *.Mask))
    (pad 24 thru_hole circle (at 11.43 0) (size 2 2) (drill 0.95) (layers *.Cu *.Mask))
    (pad 26 thru_hole circle (at 11.43 5.08) (size 2 2) (drill 0.95) (layers *.Cu *.Mask))
    (pad 27 thru_hole circle (at 11.43 7.62) (size 2 2) (drill 0.95) (layers *.Cu *.Mask)
      (net 25 RD-))
    (pad 31 thru_hole circle (at 11.43 17.78) (size 2 2) (drill 0.95) (layers *.Cu *.Mask)
      (net 26 LED_LNK))
    (pad 30 thru_hole circle (at 11.43 15.24) (size 2 2) (drill 0.95) (layers *.Cu *.Mask)
      (net 27 TD+))
    (pad 28 thru_hole circle (at 11.43 10.16) (size 2 2) (drill 0.95) (layers *.Cu *.Mask)
      (net 28 RD+))
    (pad 29 thru_hole circle (at 11.43 12.7) (size 2 2) (drill 0.95) (layers *.Cu *.Mask)
      (net 29 TD-))
    (pad 32 thru_hole circle (at 11.43 20.32) (size 2 2) (drill 0.95) (layers *.Cu *.Mask)
      (net 30 LED_ACK))
    (pad 17 thru_hole circle (at 11.43 -17.78) (size 2 2) (drill 0.95) (layers *.Cu *.Mask)
      (net 1 +5V))
    (model ${KISYS3DMOD}/Connectors_Samtec.3dshapes/SL-116-X-XX_1x16.wrl
      (at (xyz 0 0 0))
      (scale (xyz 1 1 1))
      (rotate (xyz 0 0 0))
    )
  )

  (module Capacitors_SMD:C_0805_HandSoldering (layer B.Cu) (tedit 58AA84A8) (tstamp 5FA3314B)
    (at 65 23.5 180)
    (descr "Capacitor SMD 0805, hand soldering")
    (tags "capacitor 0805")
    (path /5FEC37EB)
    (attr smd)
    (fp_text reference C1 (at 0 1.75) (layer B.SilkS)
      (effects (font (size 1 1) (thickness 0.15)) (justify mirror))
    )
    (fp_text value 1nF (at 0 -1.75) (layer B.Fab)
      (effects (font (size 1 1) (thickness 0.15)) (justify mirror))
    )
    (fp_line (start 2.25 -0.87) (end -2.25 -0.87) (layer B.CrtYd) (width 0.05))
    (fp_line (start 2.25 -0.87) (end 2.25 0.88) (layer B.CrtYd) (width 0.05))
    (fp_line (start -2.25 0.88) (end -2.25 -0.87) (layer B.CrtYd) (width 0.05))
    (fp_line (start -2.25 0.88) (end 2.25 0.88) (layer B.CrtYd) (width 0.05))
    (fp_line (start -0.5 -0.85) (end 0.5 -0.85) (layer B.SilkS) (width 0.12))
    (fp_line (start 0.5 0.85) (end -0.5 0.85) (layer B.SilkS) (width 0.12))
    (fp_line (start -1 0.62) (end 1 0.62) (layer B.Fab) (width 0.1))
    (fp_line (start 1 0.62) (end 1 -0.62) (layer B.Fab) (width 0.1))
    (fp_line (start 1 -0.62) (end -1 -0.62) (layer B.Fab) (width 0.1))
    (fp_line (start -1 -0.62) (end -1 0.62) (layer B.Fab) (width 0.1))
    (fp_text user %R (at 0 1.75) (layer B.Fab)
      (effects (font (size 1 1) (thickness 0.15)) (justify mirror))
    )
    (pad 2 smd rect (at 1.25 0 180) (size 1.5 1.25) (layers B.Cu B.Paste B.Mask)
      (net 14 GND))
    (pad 1 smd rect (at -1.25 0 180) (size 1.5 1.25) (layers B.Cu B.Paste B.Mask)
      (net 33 input1))
    (model Capacitors_SMD.3dshapes/C_0805.wrl
      (at (xyz 0 0 0))
      (scale (xyz 1 1 1))
      (rotate (xyz 0 0 0))
    )
  )

  (module Jumper:SolderJumper-2_P1.3mm_Open_Pad1.0x1.5mm (layer F.Cu) (tedit 5A3EABFC) (tstamp 5FA33159)
    (at 17.5 -6.35 270)
    (descr "SMD Solder Jumper, 1x1.5mm Pads, 0.3mm gap, open")
    (tags "solder jumper open")
    (path /5FF40152)
    (attr virtual)
    (fp_text reference JP1 (at 0 -1.8 90) (layer F.SilkS)
      (effects (font (size 1 1) (thickness 0.15)))
    )
    (fp_text value SolderJumper_2_Open (at 0 1.9 90) (layer F.Fab)
      (effects (font (size 1 1) (thickness 0.15)))
    )
    (fp_line (start -1.4 1) (end -1.4 -1) (layer F.SilkS) (width 0.12))
    (fp_line (start 1.4 1) (end -1.4 1) (layer F.SilkS) (width 0.12))
    (fp_line (start 1.4 -1) (end 1.4 1) (layer F.SilkS) (width 0.12))
    (fp_line (start -1.4 -1) (end 1.4 -1) (layer F.SilkS) (width 0.12))
    (fp_line (start -1.65 -1.25) (end 1.65 -1.25) (layer F.CrtYd) (width 0.05))
    (fp_line (start -1.65 -1.25) (end -1.65 1.25) (layer F.CrtYd) (width 0.05))
    (fp_line (start 1.65 1.25) (end 1.65 -1.25) (layer F.CrtYd) (width 0.05))
    (fp_line (start 1.65 1.25) (end -1.65 1.25) (layer F.CrtYd) (width 0.05))
    (pad 2 smd rect (at 0.65 0 270) (size 1 1.5) (layers F.Cu F.Mask)
      (net 14 GND))
    (pad 1 smd rect (at -0.65 0 270) (size 1 1.5) (layers F.Cu F.Mask)
      (net 37 "Net-(JP1-Pad1)"))
  )

  (module Jumper:SolderJumper-2_P1.3mm_Open_Pad1.0x1.5mm (layer F.Cu) (tedit 5A3EABFC) (tstamp 5FA3402D)
    (at 16.35 -21 180)
    (descr "SMD Solder Jumper, 1x1.5mm Pads, 0.3mm gap, open")
    (tags "solder jumper open")
    (path /5FF4BC31)
    (attr virtual)
    (fp_text reference JP3 (at 0 -1.8) (layer F.SilkS)
      (effects (font (size 1 1) (thickness 0.15)))
    )
    (fp_text value SolderJumper_2_Open (at 0 1.9) (layer F.Fab)
      (effects (font (size 1 1) (thickness 0.15)))
    )
    (fp_line (start 1.65 1.25) (end -1.65 1.25) (layer F.CrtYd) (width 0.05))
    (fp_line (start 1.65 1.25) (end 1.65 -1.25) (layer F.CrtYd) (width 0.05))
    (fp_line (start -1.65 -1.25) (end -1.65 1.25) (layer F.CrtYd) (width 0.05))
    (fp_line (start -1.65 -1.25) (end 1.65 -1.25) (layer F.CrtYd) (width 0.05))
    (fp_line (start -1.4 -1) (end 1.4 -1) (layer F.SilkS) (width 0.12))
    (fp_line (start 1.4 -1) (end 1.4 1) (layer F.SilkS) (width 0.12))
    (fp_line (start 1.4 1) (end -1.4 1) (layer F.SilkS) (width 0.12))
    (fp_line (start -1.4 1) (end -1.4 -1) (layer F.SilkS) (width 0.12))
    (pad 1 smd rect (at -0.65 0 180) (size 1 1.5) (layers F.Cu F.Mask)
      (net 38 "Net-(JP3-Pad1)"))
    (pad 2 smd rect (at 0.65 0 180) (size 1 1.5) (layers F.Cu F.Mask)
      (net 14 GND))
  )

  (module nanopi:relais_TX_TH (layer F.Cu) (tedit 5FA1EAF9) (tstamp 5FA33177)
    (at 17.5 -10.26)
    (path /6003B4FC)
    (fp_text reference K1 (at 8.89 1.27) (layer F.SilkS)
      (effects (font (size 1 1) (thickness 0.15)))
    )
    (fp_text value EE2-3SNU (at 0 2.54) (layer F.Fab)
      (effects (font (size 1 1) (thickness 0.15)))
    )
    (fp_line (start -6.23 -7.32) (end 8.77 -7.32) (layer F.SilkS) (width 0.15))
    (fp_line (start 8.77 -7.32) (end 8.77 0.08) (layer F.SilkS) (width 0.15))
    (fp_line (start 8.77 0.08) (end -6.23 0.08) (layer F.SilkS) (width 0.15))
    (fp_line (start -6.23 0.08) (end -6.23 -7.32) (layer F.SilkS) (width 0.15))
    (pad 10 smd rect (at 0 -7.24) (size 1 3.5) (layers F.Cu F.Paste F.Mask)
      (net 38 "Net-(JP3-Pad1)"))
    (pad 3 smd rect (at 0 0) (size 1 3.5) (layers F.Cu F.Paste F.Mask)
      (net 37 "Net-(JP1-Pad1)"))
    (pad 4 smd rect (at 2.54 0) (size 1 3.5) (layers F.Cu F.Paste F.Mask)
      (net 8 sw_12V))
    (pad 5 smd rect (at 5.08 0) (size 1 3.5) (layers F.Cu F.Paste F.Mask)
      (net 5 POE+))
    (pad 9 smd rect (at 2.54 -7.24) (size 1 3.5) (layers F.Cu F.Paste F.Mask)
      (net 10 sw_VDD))
    (pad 8 smd rect (at 5.08 -7.24) (size 1 3.5) (layers F.Cu F.Paste F.Mask)
      (net 2 VDD))
    (pad 12 smd rect (at -5.08 -7.24) (size 1 3.5) (layers F.Cu F.Paste F.Mask)
      (net 15 relais_signal_amplified))
    (pad 1 smd rect (at -5.08 0) (size 1 3.5) (layers F.Cu F.Paste F.Mask)
      (net 1 +5V))
  )

  (module NetTie:NetTie-2_SMD_Pad0.5mm (layer B.Cu) (tedit 5A1CF6D3) (tstamp 5FA33182)
    (at 12.5 26.5 180)
    (descr "Net tie, 2 pin, 0.5mm square SMD pads")
    (tags "net tie")
    (path /5FE0CB91)
    (attr virtual)
    (fp_text reference NT1 (at 0 1.2) (layer B.SilkS)
      (effects (font (size 1 1) (thickness 0.15)) (justify mirror))
    )
    (fp_text value "net tie poe vcc" (at 0 -1.2) (layer B.Fab)
      (effects (font (size 1 1) (thickness 0.15)) (justify mirror))
    )
    (fp_line (start -1 0.5) (end -1 -0.5) (layer B.CrtYd) (width 0.05))
    (fp_line (start -1 -0.5) (end 1 -0.5) (layer B.CrtYd) (width 0.05))
    (fp_line (start 1 -0.5) (end 1 0.5) (layer B.CrtYd) (width 0.05))
    (fp_line (start 1 0.5) (end -1 0.5) (layer B.CrtYd) (width 0.05))
    (fp_poly (pts (xy -0.5 0.25) (xy 0.5 0.25) (xy 0.5 -0.25) (xy -0.5 -0.25)) (layer B.Cu) (width 0))
    (pad 2 smd circle (at 0.5 0 180) (size 0.5 0.5) (layers B.Cu)
      (net 5 POE+))
    (pad 1 smd circle (at -0.5 0 180) (size 0.5 0.5) (layers B.Cu)
      (net 39 "Net-(LAN1-Pad7)"))
  )

  (module NetTie:NetTie-2_SMD_Pad0.5mm (layer B.Cu) (tedit 5A1CF6D3) (tstamp 5FA3318D)
    (at 23 27.5 270)
    (descr "Net tie, 2 pin, 0.5mm square SMD pads")
    (tags "net tie")
    (path /5FE19439)
    (attr virtual)
    (fp_text reference NT3 (at 0 1.2 270) (layer B.SilkS)
      (effects (font (size 1 1) (thickness 0.15)) (justify mirror))
    )
    (fp_text value "net tie poe gnd" (at 0 -1.2 270) (layer B.Fab)
      (effects (font (size 1 1) (thickness 0.15)) (justify mirror))
    )
    (fp_poly (pts (xy -0.5 0.25) (xy 0.5 0.25) (xy 0.5 -0.25) (xy -0.5 -0.25)) (layer B.Cu) (width 0))
    (fp_line (start 1 0.5) (end -1 0.5) (layer B.CrtYd) (width 0.05))
    (fp_line (start 1 -0.5) (end 1 0.5) (layer B.CrtYd) (width 0.05))
    (fp_line (start -1 -0.5) (end 1 -0.5) (layer B.CrtYd) (width 0.05))
    (fp_line (start -1 0.5) (end -1 -0.5) (layer B.CrtYd) (width 0.05))
    (pad 1 smd circle (at -0.5 0 270) (size 0.5 0.5) (layers B.Cu)
      (net 40 "Net-(LAN1-Pad8)"))
    (pad 2 smd circle (at 0.5 0 270) (size 0.5 0.5) (layers B.Cu)
      (net 14 GND))
  )

  (module Resistors_SMD:R_0805_HandSoldering (layer F.Cu) (tedit 58E0A804) (tstamp 5FA3319E)
    (at -5.65 8)
    (descr "Resistor SMD 0805, hand soldering")
    (tags "resistor 0805")
    (path /5FF02F27)
    (attr smd)
    (fp_text reference R8 (at 0 -1.7) (layer F.SilkS)
      (effects (font (size 1 1) (thickness 0.15)))
    )
    (fp_text value 4.7k (at 0 1.75) (layer F.Fab)
      (effects (font (size 1 1) (thickness 0.15)))
    )
    (fp_line (start 2.35 0.9) (end -2.35 0.9) (layer F.CrtYd) (width 0.05))
    (fp_line (start 2.35 0.9) (end 2.35 -0.9) (layer F.CrtYd) (width 0.05))
    (fp_line (start -2.35 -0.9) (end -2.35 0.9) (layer F.CrtYd) (width 0.05))
    (fp_line (start -2.35 -0.9) (end 2.35 -0.9) (layer F.CrtYd) (width 0.05))
    (fp_line (start -0.6 -0.88) (end 0.6 -0.88) (layer F.SilkS) (width 0.12))
    (fp_line (start 0.6 0.88) (end -0.6 0.88) (layer F.SilkS) (width 0.12))
    (fp_line (start -1 -0.62) (end 1 -0.62) (layer F.Fab) (width 0.1))
    (fp_line (start 1 -0.62) (end 1 0.62) (layer F.Fab) (width 0.1))
    (fp_line (start 1 0.62) (end -1 0.62) (layer F.Fab) (width 0.1))
    (fp_line (start -1 0.62) (end -1 -0.62) (layer F.Fab) (width 0.1))
    (fp_text user %R (at 0 0) (layer F.Fab)
      (effects (font (size 0.5 0.5) (thickness 0.075)))
    )
    (pad 2 smd rect (at 1.35 0) (size 1.5 1.3) (layers F.Cu F.Paste F.Mask)
      (net 36 SCL))
    (pad 1 smd rect (at -1.35 0) (size 1.5 1.3) (layers F.Cu F.Paste F.Mask)
      (net 1 +5V))
    (model ${KISYS3DMOD}/Resistors_SMD.3dshapes/R_0805.wrl
      (at (xyz 0 0 0))
      (scale (xyz 1 1 1))
      (rotate (xyz 0 0 0))
    )
  )

  (module Connector_JST:JST_XH_B4B-XH-A_1x04_P2.50mm_Vertical (layer F.Cu) (tedit 5C28146C) (tstamp 5FA3368C)
    (at 64 10.38 90)
    (descr "JST XH series connector, B4B-XH-A (http://www.jst-mfg.com/product/pdf/eng/eXH.pdf), generated with kicad-footprint-generator")
    (tags "connector JST XH vertical")
    (path /5B315B66)
    (fp_text reference J2 (at 3.75 -3.55 90) (layer F.SilkS)
      (effects (font (size 1 1) (thickness 0.15)))
    )
    (fp_text value Screw_Terminal (at 3.75 4.6 90) (layer F.Fab)
      (effects (font (size 1 1) (thickness 0.15)))
    )
    (fp_line (start -2.85 -2.75) (end -2.85 -1.5) (layer F.SilkS) (width 0.12))
    (fp_line (start -1.6 -2.75) (end -2.85 -2.75) (layer F.SilkS) (width 0.12))
    (fp_line (start 9.3 2.75) (end 3.75 2.75) (layer F.SilkS) (width 0.12))
    (fp_line (start 9.3 -0.2) (end 9.3 2.75) (layer F.SilkS) (width 0.12))
    (fp_line (start 10.05 -0.2) (end 9.3 -0.2) (layer F.SilkS) (width 0.12))
    (fp_line (start -1.8 2.75) (end 3.75 2.75) (layer F.SilkS) (width 0.12))
    (fp_line (start -1.8 -0.2) (end -1.8 2.75) (layer F.SilkS) (width 0.12))
    (fp_line (start -2.55 -0.2) (end -1.8 -0.2) (layer F.SilkS) (width 0.12))
    (fp_line (start 10.05 -2.45) (end 8.25 -2.45) (layer F.SilkS) (width 0.12))
    (fp_line (start 10.05 -1.7) (end 10.05 -2.45) (layer F.SilkS) (width 0.12))
    (fp_line (start 8.25 -1.7) (end 10.05 -1.7) (layer F.SilkS) (width 0.12))
    (fp_line (start 8.25 -2.45) (end 8.25 -1.7) (layer F.SilkS) (width 0.12))
    (fp_line (start -0.75 -2.45) (end -2.55 -2.45) (layer F.SilkS) (width 0.12))
    (fp_line (start -0.75 -1.7) (end -0.75 -2.45) (layer F.SilkS) (width 0.12))
    (fp_line (start -2.55 -1.7) (end -0.75 -1.7) (layer F.SilkS) (width 0.12))
    (fp_line (start -2.55 -2.45) (end -2.55 -1.7) (layer F.SilkS) (width 0.12))
    (fp_line (start 6.75 -2.45) (end 0.75 -2.45) (layer F.SilkS) (width 0.12))
    (fp_line (start 6.75 -1.7) (end 6.75 -2.45) (layer F.SilkS) (width 0.12))
    (fp_line (start 0.75 -1.7) (end 6.75 -1.7) (layer F.SilkS) (width 0.12))
    (fp_line (start 0.75 -2.45) (end 0.75 -1.7) (layer F.SilkS) (width 0.12))
    (fp_line (start 0 -1.35) (end 0.625 -2.35) (layer F.Fab) (width 0.1))
    (fp_line (start -0.625 -2.35) (end 0 -1.35) (layer F.Fab) (width 0.1))
    (fp_line (start 10.45 -2.85) (end -2.95 -2.85) (layer F.CrtYd) (width 0.05))
    (fp_line (start 10.45 3.9) (end 10.45 -2.85) (layer F.CrtYd) (width 0.05))
    (fp_line (start -2.95 3.9) (end 10.45 3.9) (layer F.CrtYd) (width 0.05))
    (fp_line (start -2.95 -2.85) (end -2.95 3.9) (layer F.CrtYd) (width 0.05))
    (fp_line (start 10.06 -2.46) (end -2.56 -2.46) (layer F.SilkS) (width 0.12))
    (fp_line (start 10.06 3.51) (end 10.06 -2.46) (layer F.SilkS) (width 0.12))
    (fp_line (start -2.56 3.51) (end 10.06 3.51) (layer F.SilkS) (width 0.12))
    (fp_line (start -2.56 -2.46) (end -2.56 3.51) (layer F.SilkS) (width 0.12))
    (fp_line (start 9.95 -2.35) (end -2.45 -2.35) (layer F.Fab) (width 0.1))
    (fp_line (start 9.95 3.4) (end 9.95 -2.35) (layer F.Fab) (width 0.1))
    (fp_line (start -2.45 3.4) (end 9.95 3.4) (layer F.Fab) (width 0.1))
    (fp_line (start -2.45 -2.35) (end -2.45 3.4) (layer F.Fab) (width 0.1))
    (fp_text user %R (at 3.75 2.7 90) (layer F.Fab)
      (effects (font (size 1 1) (thickness 0.15)))
    )
    (pad 1 thru_hole roundrect (at 0 0 90) (size 1.7 1.95) (drill 0.95) (layers *.Cu *.Mask) (roundrect_rratio 0.147059)
      (net 33 input1))
    (pad 2 thru_hole oval (at 2.5 0 90) (size 1.7 1.95) (drill 0.95) (layers *.Cu *.Mask)
      (net 34 input2))
    (pad 3 thru_hole oval (at 5 0 90) (size 1.7 1.95) (drill 0.95) (layers *.Cu *.Mask)
      (net 8 sw_12V))
    (pad 4 thru_hole oval (at 7.5 0 90) (size 1.7 1.95) (drill 0.95) (layers *.Cu *.Mask)
      (net 11 "Net-(J2-Pad4)"))
    (model ${KISYS3DMOD}/Connector_JST.3dshapes/JST_XH_B4B-XH-A_1x04_P2.50mm_Vertical.wrl
      (at (xyz 0 0 0))
      (scale (xyz 1 1 1))
      (rotate (xyz 0 0 0))
    )
  )

  (gr_text Dooropener_nanopi_duo_v0.1 (at 4 25 270) (layer B.SilkS)
    (effects (font (size 1.5 1.5) (thickness 0.3) italic) (justify mirror))
  )
  (gr_text GND (at 41 2 90) (layer B.SilkS) (tstamp 5B392A90)
    (effects (font (size 1.5 1.5) (thickness 0.2)) (justify mirror))
  )
  (gr_text VDD (at 43 18) (layer B.SilkS)
    (effects (font (size 1.5 1.5) (thickness 0.3)) (justify mirror))
  )
  (gr_text GND (at 41 10.5 90) (layer B.SilkS)
    (effects (font (size 1.5 1.5) (thickness 0.3)) (justify mirror))
  )
  (gr_text 12V (at 40.5 6 90) (layer B.SilkS)
    (effects (font (size 1.5 1.5) (thickness 0.3)) (justify mirror))
  )
  (gr_line (start 0 50) (end 0 0) (layer Edge.Cuts) (width 0.15))
  (gr_line (start 36.5 -23.5) (end -13.5 -23.5) (layer Edge.Cuts) (width 0.15))
  (gr_line (start 36.5 -73.5) (end 36.5 -23.5) (layer Edge.Cuts) (width 0.15))

  (segment (start 12.42 -10.26) (end 12.42 -7.92) (width 1) (layer F.Cu) (net 1) (status 10))
  (segment (start 12.42 -7.92) (end 5.5 -1) (width 1) (layer F.Cu) (net 1))
  (segment (start 2.737436 4) (end 1.5 4) (width 1) (layer F.Cu) (net 1) (status 20))
  (segment (start 5.5 1.237436) (end 2.737436 4) (width 1) (layer F.Cu) (net 1))
  (segment (start 5.5 -1) (end 5.5 1.237436) (width 1) (layer F.Cu) (net 1))

)
