M48
;DRILL file {KiCad 4.0.7} date Sun Jul  1 22:20:27 2018
;FORMAT={-:-/ absolute / inch / decimal}
FMAT,2
INCH,TZ
T1C0.016
T2C0.031
T3C0.035
T4C0.039
T5C0.039
T6C0.041
T7C0.049
%
G90
G05
M72
T1
X0.1378Y-0.4528
X0.1378Y-0.5906
X0.1378Y-1.3386
X0.1378Y-1.4764
X0.1575Y-1.1811
X0.1683Y-1.5856
X0.2756Y-0.1575
X0.3937Y-1.0827
X0.3937Y-1.1614
X0.3937Y-1.5945
X0.4134Y-0.9843
X0.4724Y-0.5118
X0.5315Y-1.1811
X0.5559Y-0.7087
X0.5906Y-1.6929
X0.6102Y-1.4764
X0.6693Y-0.1378
X0.6693Y-0.7087
X0.689Y-1.1614
X0.689Y-1.5748
X0.8071Y-0.5906
X0.8858Y-1.6929
X0.9252Y-0.9449
X0.9252Y-1.0236
X0.9957Y-0.7628
X1.1417Y-0.1378
X1.1614Y-0.2559
X1.2205Y-1.063
X1.2992Y-1.6732
X1.3189Y-1.8504
X1.3386Y-1.3976
X1.3559Y-0.9622
X1.3976Y-0.2953
X1.4173Y-0.1969
X1.4173Y-0.689
X1.4567Y-0.9449
X1.4567Y-1.5157
X1.4961Y-0.4921
X1.4961Y-1.378
X1.5551Y-1.6929
X1.5551Y-1.7323
X1.5945Y-0.1969
X1.6142Y-1.7913
X1.6339Y-0.748
X1.6732Y-1.063
X1.7126Y-0.3543
X1.7126Y-0.4102
X1.752Y-1.4961
X1.7913Y-1.5157
X1.811Y-1.6142
X1.8701Y-1.5748
X1.8701Y-1.6732
T2
X0.5709Y-0.2362
X0.5709Y-0.3362
X0.5709Y-0.4362
X0.5709Y-0.5362
X0.5709Y-0.6362
X0.8709Y-0.2362
X0.8709Y-0.3362
X0.8709Y-0.4362
X0.8709Y-0.5362
X0.8709Y-0.6362
T3
X1.3035Y-0.9917
X1.3035Y-1.0917
X1.3035Y-1.1917
X1.3035Y-1.2917
X1.4035Y-1.0417
X1.4035Y-1.1417
X1.4035Y-1.2417
X1.4035Y-1.3417
T4
X0.0591Y-0.0591
X0.0591Y-0.1575
X0.0591Y-0.2559
X0.0591Y-0.3543
X0.0591Y-0.5906
X0.0591Y-0.689
X0.0591Y-0.7874
X0.0591Y-0.8858
X0.0591Y-0.9843
X0.0591Y-1.0827
X0.0591Y-1.1811
X0.0591Y-1.2795
X0.0591Y-1.5157
X0.0591Y-1.6142
X0.0591Y-1.7126
X0.0591Y-1.811
X0.4134Y-0.1378
X0.4134Y-0.2362
X0.4134Y-0.3346
T5
X0.2485Y-0.3558
X0.2485Y-0.4558
X0.2485Y-0.5558
X0.2485Y-0.6558
X0.2485Y-0.7558
X0.2485Y-0.8558
X0.2485Y-0.9558
X0.2485Y-1.0558
X0.2485Y-1.1558
X0.2485Y-1.2558
X0.2485Y-1.3558
X0.2485Y-1.4558
X0.2485Y-1.5558
X0.2485Y-1.6558
X0.2485Y-1.7558
X0.2485Y-1.8558
X1.1417Y-0.361
X1.1417Y-0.461
X1.1417Y-0.561
X1.1417Y-0.661
X1.1417Y-0.761
X1.1417Y-0.861
X1.1417Y-0.961
X1.1417Y-1.061
X1.1417Y-1.161
X1.1417Y-1.261
X1.1417Y-1.361
X1.1417Y-1.461
X1.1417Y-1.561
X1.1417Y-1.661
X1.1417Y-1.761
X1.1417Y-1.861
T6
X1.7866Y-0.9177
X1.7866Y-1.3157
X1.8465Y-1.0177
X1.8465Y-1.4157
T7
X1.8504Y-0.1087
X1.8504Y-0.3087
X1.8504Y-0.5087
X1.8504Y-0.7087
T0
M30
