EESchema Schematic File Version 4
EELAYER 30 0
EELAYER END
$Descr A4 11693 8268
encoding utf-8
Sheet 1 1
Title ""
Date ""
Rev ""
Comp ""
Comment1 ""
Comment2 ""
Comment3 ""
Comment4 ""
$EndDescr
$Comp
L orange_pi_zero:MFRC522 U4
U 1 1 59AE62DC
P 1250 4950
F 0 "U4" H 1250 4950 60  0000 C CNN
F 1 "MFRC522" H 1250 4950 60  0000 C CNN
F 2 "dooropenerfootprints:JST_XH_B08B-XH-A_08x2.50mm_Straight" H 1250 4950 60  0001 C CNN
F 3 "" H 1250 4950 60  0001 C CNN
	1    1250 4950
	1    0    0    -1  
$EndComp
$Comp
L power:+5V #PWR01
U 1 1 59B6FEC3
P 3700 2750
F 0 "#PWR01" H 3700 2600 50  0001 C CNN
F 1 "+5V" H 3700 2890 50  0000 C CNN
F 2 "" H 3700 2750 50  0001 C CNN
F 3 "" H 3700 2750 50  0001 C CNN
	1    3700 2750
	1    0    0    -1  
$EndComp
$Comp
L power:GND #PWR02
U 1 1 59B6FFE2
P 3500 3250
F 0 "#PWR02" H 3500 3000 50  0001 C CNN
F 1 "GND" H 3500 3100 50  0000 C CNN
F 2 "" H 3500 3250 50  0001 C CNN
F 3 "" H 3500 3250 50  0001 C CNN
	1    3500 3250
	0    -1   -1   0   
$EndComp
$Comp
L power:+3.3V #PWR03
U 1 1 59B701A8
P 3700 3150
F 0 "#PWR03" H 3700 3000 50  0001 C CNN
F 1 "+3.3V" H 3700 3290 50  0000 C CNN
F 2 "" H 3700 3150 50  0001 C CNN
F 3 "" H 3700 3150 50  0001 C CNN
	1    3700 3150
	0    1    1    0   
$EndComp
$Comp
L power:GND #PWR04
U 1 1 59B70362
P 1650 1200
F 0 "#PWR04" H 1650 950 50  0001 C CNN
F 1 "GND" H 1650 1050 50  0000 C CNN
F 2 "" H 1650 1200 50  0001 C CNN
F 3 "" H 1650 1200 50  0001 C CNN
	1    1650 1200
	1    0    0    -1  
$EndComp
$Comp
L power:+5V #PWR05
U 1 1 59B7038E
P 1650 850
F 0 "#PWR05" H 1650 700 50  0001 C CNN
F 1 "+5V" H 1650 990 50  0000 C CNN
F 2 "" H 1650 850 50  0001 C CNN
F 3 "" H 1650 850 50  0001 C CNN
	1    1650 850 
	1    0    0    -1  
$EndComp
$Comp
L power:+3.3V #PWR06
U 1 1 59B7067C
P 850 5000
F 0 "#PWR06" H 850 4850 50  0001 C CNN
F 1 "+3.3V" H 850 5140 50  0000 C CNN
F 2 "" H 850 5000 50  0001 C CNN
F 3 "" H 850 5000 50  0001 C CNN
	1    850  5000
	1    0    0    -1  
$EndComp
$Comp
L power:GND #PWR07
U 1 1 59B706A8
P 900 5900
F 0 "#PWR07" H 900 5650 50  0001 C CNN
F 1 "GND" H 900 5750 50  0000 C CNN
F 2 "" H 900 5900 50  0001 C CNN
F 3 "" H 900 5900 50  0001 C CNN
	1    900  5900
	1    0    0    -1  
$EndComp
$Comp
L orange_pi_zero:S9014 T1
U 1 1 59B71298
P 2550 6850
F 0 "T1" H 2200 7100 60  0000 C CNN
F 1 "S9014" H 2100 7000 60  0000 C CNN
F 2 "TO_SOT_Packages_SMD:SOT-23_Handsoldering" H 2850 6900 60  0001 C CNN
F 3 "" H 2850 6900 60  0001 C CNN
	1    2550 6850
	1    0    0    -1  
$EndComp
$Comp
L dooropener_pcb-rescue:ohm-RESCUE-dooropener_pcb R3
U 1 1 59B71690
P 1750 7050
F 0 "R3" H 1750 6950 60  0000 C CNN
F 1 "2k2" H 1750 7050 60  0000 C CNN
F 2 "Resistors_SMD:R_1206_HandSoldering" H 1750 7050 60  0001 C CNN
F 3 "" H 1750 7050 60  0001 C CNN
	1    1750 7050
	0    1    1    0   
$EndComp
$Comp
L power:GND #PWR09
U 1 1 59B71898
P 2300 7300
F 0 "#PWR09" H 2300 7050 50  0001 C CNN
F 1 "GND" H 2300 7150 50  0000 C CNN
F 2 "" H 2300 7300 50  0001 C CNN
F 3 "" H 2300 7300 50  0001 C CNN
	1    2300 7300
	1    0    0    -1  
$EndComp
$Comp
L orange_pi_zero:Diode D2
U 1 1 59B720C3
P 4200 5150
F 0 "D2" H 4300 5250 60  0000 C CNN
F 1 "SS54" H 4350 5100 60  0000 C CNN
F 2 "Diodes_SMD:D_2114" H 4340 5060 60  0001 C CNN
F 3 "" H 4340 5060 60  0001 C CNN
F 4 "flyback diode for relais" H 4200 5150 60  0001 C CNN "Field4"
	1    4200 5150
	0    1    1    0   
$EndComp
$Comp
L orange_pi_zero:i²C U3
U 1 1 59B72A54
P 4200 2050
F 0 "U3" H 4350 2000 60  0000 C CNN
F 1 "i²C" H 4350 2100 60  0000 C CNN
F 2 "dooropenerfootprints:JST_XH_B04B-XH-A_04x2.50mm_Straight" H 4350 2000 60  0001 C CNN
F 3 "" H 4350 2000 60  0001 C CNN
	1    4200 2050
	1    0    0    -1  
$EndComp
$Comp
L power:GND #PWR010
U 1 1 59B72AD5
P 3500 2150
F 0 "#PWR010" H 3500 1900 50  0001 C CNN
F 1 "GND" H 3500 2000 50  0000 C CNN
F 2 "" H 3500 2150 50  0001 C CNN
F 3 "" H 3500 2150 50  0001 C CNN
	1    3500 2150
	1    0    0    -1  
$EndComp
$Comp
L power:GND #PWR011
U 1 1 59B80807
P 1400 3150
F 0 "#PWR011" H 1400 2900 50  0001 C CNN
F 1 "GND" H 1400 3000 50  0000 C CNN
F 2 "" H 1400 3150 50  0001 C CNN
F 3 "" H 1400 3150 50  0001 C CNN
	1    1400 3150
	0    1    1    0   
$EndComp
$Comp
L power:+12V #PWR012
U 1 1 59D7EFEA
P 950 850
F 0 "#PWR012" H 950 700 50  0001 C CNN
F 1 "+12V" H 950 990 50  0000 C CNN
F 2 "" H 950 850 50  0001 C CNN
F 3 "" H 950 850 50  0001 C CNN
	1    950  850 
	1    0    0    -1  
$EndComp
$Comp
L power:+12V #PWR013
U 1 1 59D7F2BE
P 4650 5950
F 0 "#PWR013" H 4650 5800 50  0001 C CNN
F 1 "+12V" H 4800 5950 50  0000 C CNN
F 2 "" H 4650 5950 50  0001 C CNN
F 3 "" H 4650 5950 50  0001 C CNN
	1    4650 5950
	1    0    0    -1  
$EndComp
$Comp
L power:GND #PWR015
U 1 1 59D7F623
P 6300 6350
F 0 "#PWR015" H 6300 6100 50  0001 C CNN
F 1 "GND" H 6300 6200 50  0000 C CNN
F 2 "" H 6300 6350 50  0001 C CNN
F 3 "" H 6300 6350 50  0001 C CNN
	1    6300 6350
	1    0    0    -1  
$EndComp
$Comp
L dooropener_pcb-rescue:ohm-RESCUE-dooropener_pcb R5
U 1 1 59D7FADC
P 8650 4950
F 0 "R5" H 8650 4850 60  0000 C CNN
F 1 "2.2k" H 8650 4950 60  0000 C CNN
F 2 "Resistors_SMD:R_0805_HandSoldering" H 8650 4950 60  0001 C CNN
F 3 "" H 8650 4950 60  0001 C CNN
	1    8650 4950
	1    0    0    -1  
$EndComp
$Comp
L power:+5V #PWR016
U 1 1 59D7FB5D
P 8450 4700
F 0 "#PWR016" H 8450 4550 50  0001 C CNN
F 1 "+5V" H 8450 4840 50  0000 C CNN
F 2 "" H 8450 4700 50  0001 C CNN
F 3 "" H 8450 4700 50  0001 C CNN
	1    8450 4700
	1    0    0    -1  
$EndComp
$Comp
L power:+12V #PWR019
U 1 1 59D80808
P 5900 7100
F 0 "#PWR019" H 5900 6950 50  0001 C CNN
F 1 "+12V" H 5900 7240 50  0000 C CNN
F 2 "" H 5900 7100 50  0001 C CNN
F 3 "" H 5900 7100 50  0001 C CNN
	1    5900 7100
	1    0    0    -1  
$EndComp
$Comp
L power:GND #PWR020
U 1 1 59D809DC
P 5900 7300
F 0 "#PWR020" H 5900 7050 50  0001 C CNN
F 1 "GND" H 5900 7150 50  0000 C CNN
F 2 "" H 5900 7300 50  0001 C CNN
F 3 "" H 5900 7300 50  0001 C CNN
	1    5900 7300
	1    0    0    -1  
$EndComp
$Comp
L power:VDD #PWR021
U 1 1 59D80A20
P 5900 7200
F 0 "#PWR021" H 5900 7050 50  0001 C CNN
F 1 "VDD" H 5900 7350 50  0000 C CNN
F 2 "" H 5900 7200 50  0001 C CNN
F 3 "" H 5900 7200 50  0001 C CNN
	1    5900 7200
	0    -1   -1   0   
$EndComp
$Comp
L power:VDD #PWR023
U 1 1 59D80C99
P 4650 6350
F 0 "#PWR023" H 4650 6200 50  0001 C CNN
F 1 "VDD" H 4650 6500 50  0000 C CNN
F 2 "" H 4650 6350 50  0001 C CNN
F 3 "" H 4650 6350 50  0001 C CNN
	1    4650 6350
	1    0    0    -1  
$EndComp
$Comp
L dooropener_pcb-rescue:R R7
U 1 1 59EA47E6
P 3300 2100
F 0 "R7" V 3380 2100 50  0000 C CNN
F 1 "4.7k" V 3300 2100 50  0000 C CNN
F 2 "Resistors_SMD:R_0805_HandSoldering" V 3230 2100 50  0001 C CNN
F 3 "" H 3300 2100 50  0001 C CNN
	1    3300 2100
	1    0    0    -1  
$EndComp
$Comp
L orange_pi_zero:Diode D4
U 1 1 5A05A5F2
P 6250 3850
F 0 "D4" H 6350 3950 60  0000 C CNN
F 1 "Diode" H 6400 3800 60  0000 C CNN
F 2 "Diodes_SMD:D_2114" H 6390 3760 60  0001 C CNN
F 3 "" H 6390 3760 60  0001 C CNN
	1    6250 3850
	1    0    0    -1  
$EndComp
$Comp
L power:GND #PWR028
U 1 1 5A05A5FF
P 6250 3950
F 0 "#PWR028" H 6250 3700 50  0001 C CNN
F 1 "GND" H 6250 3800 50  0000 C CNN
F 2 "" H 6250 3950 50  0001 C CNN
F 3 "" H 6250 3950 50  0001 C CNN
	1    6250 3950
	1    0    0    -1  
$EndComp
Wire Wire Line
	3700 3150 3500 3150
Wire Wire Line
	1050 5100 850  5100
Wire Wire Line
	850  5100 850  5000
Wire Wire Line
	1050 5800 900  5800
Wire Wire Line
	900  5800 900  5900
Wire Wire Line
	3500 1900 3500 2150
Connection ~ 3700 2950
Wire Wire Line
	8450 4700 8450 4750
$Comp
L dooropener_pcb-rescue:Conn_01x03 J4
U 1 1 5B1EEDCB
P 6100 7200
F 0 "J4" H 6100 7400 50  0000 C CNN
F 1 " buck converter" V 6200 7200 50  0000 C CNN
F 2 "Connectors_JST:JST_XH_B03B-XH-A_03x2.50mm_Straight" H 6100 7200 50  0001 C CNN
F 3 "" H 6100 7200 50  0001 C CNN
	1    6100 7200
	1    0    0    -1  
$EndComp
Wire Wire Line
	3700 2950 3700 2750
Text GLabel 1800 3450 0    60   Input ~ 0
SDA
Text GLabel 1050 5300 0    60   Input ~ 0
SDA
Text GLabel 1050 5400 0    60   Input ~ 0
SCK
Text GLabel 1800 3550 0    60   Input ~ 0
SCK
Text GLabel 1800 3650 0    60   Input ~ 0
MISO
Text GLabel 1800 3750 0    60   Input ~ 0
MOSI
Text GLabel 1050 5500 0    60   Input ~ 0
MOSI
Text GLabel 1050 5600 0    60   Input ~ 0
MISO
Text GLabel 1800 3850 0    60   Input ~ 0
RST
Text GLabel 1050 5200 0    60   Input ~ 0
RST
Text GLabel 6150 3500 0    60   Input ~ 0
sw_VDD
Text GLabel 3950 6250 0    60   Input ~ 0
sw_VDD
Text GLabel 6900 5900 0    60   Input ~ 0
sw_12V
Text GLabel 5500 3700 0    60   Input ~ 0
sw_12V
Text GLabel 3950 5850 0    60   Input ~ 0
sw_12V
Wire Wire Line
	5750 3700 5500 3700
Text GLabel 1500 6850 0    60   Input ~ 0
relais_signal
Text GLabel 3500 3450 2    60   Input ~ 0
relais_signal
Text GLabel 3500 3350 2    60   Input ~ 0
audio_enable
Text GLabel 950  950  0    60   Input ~ 0
POE+
$Comp
L nanopiduo2:JOOO6D01BNL LAN1
U 1 1 5B310444
P 5950 2050
F 0 "LAN1" H 5750 3150 60  0000 C CNN
F 1 "JOOO6D01BNL" H 5950 2250 60  0000 C CNN
F 2 "dooropenerfootprints:J0006D01BNL" H 5950 2250 60  0001 C CNN
F 3 "" H 5950 2250 60  0001 C CNN
	1    5950 2050
	1    0    0    -1  
$EndComp
Text GLabel 3500 4050 2    60   Input ~ 0
RD+
Text GLabel 3500 3950 2    60   Input ~ 0
RD-
Text GLabel 3500 4150 2    60   Input ~ 0
TD-
Text GLabel 3500 4250 2    60   Input ~ 0
TD+
Text GLabel 3500 4350 2    60   Input ~ 0
LED_LNK
Text GLabel 3500 4450 2    60   Input ~ 0
LED_ACK
Text GLabel 5450 1500 0    60   Input ~ 0
RD+
Text GLabel 5450 1600 0    60   Input ~ 0
RD-
Text GLabel 5450 1200 0    60   Input ~ 0
TD-
Text GLabel 5450 1100 0    60   Input ~ 0
TD+
Text GLabel 6400 1200 2    60   Input ~ 0
LED_LNK
Text GLabel 6400 1450 2    60   Input ~ 0
LED_ACK
$Comp
L dooropener_pcb-rescue:C_Small C4
U 1 1 5B31132C
P 4750 1400
F 0 "C4" H 4760 1470 50  0000 L CNN
F 1 "100 nf" H 4760 1320 50  0000 L CNN
F 2 "Capacitors_SMD:C_0805_HandSoldering" H 4750 1400 50  0001 C CNN
F 3 "" H 4750 1400 50  0001 C CNN
	1    4750 1400
	1    0    0    -1  
$EndComp
$Comp
L power:+3.3V #PWR031
U 1 1 5B31229B
P 7100 950
F 0 "#PWR031" H 7100 800 50  0001 C CNN
F 1 "+3.3V" H 7100 1090 50  0000 C CNN
F 2 "" H 7100 950 50  0001 C CNN
F 3 "" H 7100 950 50  0001 C CNN
	1    7100 950 
	1    0    0    -1  
$EndComp
$Comp
L dooropener_pcb-rescue:R R10
U 1 1 5B3122F1
P 6950 1350
F 0 "R10" V 7030 1350 50  0000 C CNN
F 1 "330" V 6950 1350 50  0000 C CNN
F 2 "Resistors_SMD:R_1206_HandSoldering" V 6880 1350 50  0001 C CNN
F 3 "" H 6950 1350 50  0001 C CNN
	1    6950 1350
	0    1    1    0   
$EndComp
Wire Wire Line
	6400 1350 6800 1350
Wire Wire Line
	7100 950  7100 1100
Connection ~ 7100 1100
$Comp
L dooropener_pcb-rescue:R R9
U 1 1 5B312C5A
P 6950 1100
F 0 "R9" V 7030 1100 50  0000 C CNN
F 1 "330" V 6950 1100 50  0000 C CNN
F 2 "Resistors_SMD:R_1206_HandSoldering" V 6880 1100 50  0001 C CNN
F 3 "" H 6950 1100 50  0001 C CNN
	1    6950 1100
	0    1    1    0   
$EndComp
Wire Wire Line
	6400 1100 6800 1100
$Comp
L dooropener_pcb-rescue:C_Small C5
U 1 1 5B3133FD
P 4950 1800
F 0 "C5" H 4960 1870 50  0000 L CNN
F 1 "100 nf" H 4960 1720 50  0000 L CNN
F 2 "Capacitors_SMD:C_0805_HandSoldering" H 4950 1800 50  0001 C CNN
F 3 "" H 4950 1800 50  0001 C CNN
	1    4950 1800
	1    0    0    -1  
$EndComp
Wire Wire Line
	4750 1300 5450 1300
Wire Wire Line
	4950 1700 5450 1700
$Comp
L power:GND #PWR032
U 1 1 5B31361D
P 4750 2000
F 0 "#PWR032" H 4750 1750 50  0001 C CNN
F 1 "GND" H 4750 1850 50  0000 C CNN
F 2 "" H 4750 2000 50  0001 C CNN
F 3 "" H 4750 2000 50  0001 C CNN
	1    4750 2000
	1    0    0    -1  
$EndComp
Wire Wire Line
	4750 1500 4750 1900
Wire Wire Line
	4950 1900 4750 1900
Connection ~ 4750 1900
Text GLabel 6600 1600 2    60   Input ~ 0
POE+
$Comp
L dooropener_pcb-rescue:Screw_Terminal_01x04 J2
U 1 1 5B315B66
P 7100 5800
F 0 "J2" H 7100 6000 50  0000 C CNN
F 1 "Screw_Terminal" H 7100 5500 50  0000 C CNN
F 2 "Connector_JST:JST_XH_B4B-XH-A_1x04_P2.50mm_Vertical" H 7100 5800 50  0001 C CNN
F 3 "" H 7100 5800 50  0001 C CNN
	1    7100 5800
	1    0    0    -1  
$EndComp
Wire Wire Line
	3850 1900 3500 1900
$Comp
L power:GND #PWR033
U 1 1 5B36C9D1
P 6600 1700
F 0 "#PWR033" H 6600 1450 50  0001 C CNN
F 1 "GND" H 6600 1550 50  0000 C CNN
F 2 "" H 6600 1700 50  0001 C CNN
F 3 "" H 6600 1700 50  0001 C CNN
	1    6600 1700
	1    0    0    -1  
$EndComp
Wire Wire Line
	3700 2950 3500 2950
Wire Wire Line
	7100 1100 7100 1350
Wire Wire Line
	4750 1900 4750 2000
Wire Wire Line
	3500 3050 3700 3050
Wire Wire Line
	3700 3050 3700 2950
Text GLabel 3800 5450 0    50   Input ~ 0
relais_signal_amplified
Text GLabel 10650 4900 0    50   Input ~ 0
relais_signal_amplified
$Comp
L dooropener_pcb-rescue:ohm-RESCUE-dooropener_pcb R2
U 1 1 5EC4F57B
P 10850 4200
F 0 "R2" H 10850 4100 60  0000 C CNN
F 1 "r_1k" H 10850 4200 60  0000 C CNN
F 2 "Resistors_SMD:R_1206_HandSoldering" H 10850 4200 60  0001 C CNN
F 3 "" H 10850 4200 60  0001 C CNN
	1    10850 4200
	1    0    0    -1  
$EndComp
$Comp
L dooropener_pcb-rescue:ohm-RESCUE-dooropener_pcb R6
U 1 1 5EC505AF
P 10850 4650
F 0 "R6" H 10850 4550 60  0000 C CNN
F 1 "r_1k" H 10850 4650 60  0000 C CNN
F 2 "Resistors_SMD:R_1206_HandSoldering" H 10850 4650 60  0001 C CNN
F 3 "" H 10850 4650 60  0001 C CNN
	1    10850 4650
	1    0    0    -1  
$EndComp
Text GLabel 10150 4650 2    60   Input ~ 0
sw_12V
Wire Wire Line
	1950 6850 2100 6850
Wire Wire Line
	1950 7300 2300 7300
$Comp
L dooropener_pcb-rescue:ohm-RESCUE-dooropener_pcb R4
U 1 1 59B7160D
P 2150 7050
F 0 "R4" H 2150 6950 60  0000 C CNN
F 1 "2k2" H 2150 7050 60  0000 C CNN
F 2 "Resistors_SMD:R_1206_HandSoldering" H 2150 7050 60  0001 C CNN
F 3 "" H 2150 7050 60  0001 C CNN
	1    2150 7050
	1    0    0    -1  
$EndComp
$Comp
L Device:Q_PNP_BCEC r_Q1
U 1 1 5ECC0C94
P 10200 4450
F 0 "r_Q1" H 10488 4404 50  0000 L CNN
F 1 "2SB1386" H 10488 4495 50  0000 L CNN
F 2 "SparkFun-DiscreteSemi:SOT89" H 10400 4550 50  0001 C CNN
F 3 "~" H 10200 4450 50  0001 C CNN
	1    10200 4450
	-1   0    0    1   
$EndComp
$Comp
L power:+12V #PWR0101
U 1 1 5ECE8F69
P 10650 4000
F 0 "#PWR0101" H 10650 3850 50  0001 C CNN
F 1 "+12V" H 10650 4140 50  0000 C CNN
F 2 "" H 10650 4000 50  0001 C CNN
F 3 "" H 10650 4000 50  0001 C CNN
	1    10650 4000
	1    0    0    -1  
$EndComp
$Comp
L power:+12V #PWR0102
U 1 1 5ECE9AA5
P 10100 4250
F 0 "#PWR0102" H 10100 4100 50  0001 C CNN
F 1 "+12V" H 10100 4390 50  0000 C CNN
F 2 "" H 10100 4250 50  0001 C CNN
F 3 "" H 10100 4250 50  0001 C CNN
	1    10100 4250
	1    0    0    -1  
$EndComp
Wire Wire Line
	10000 4650 10100 4650
Wire Wire Line
	10100 4650 10150 4650
Connection ~ 10100 4650
Wire Wire Line
	10400 4450 10650 4450
Connection ~ 10650 4450
Wire Notes Line
	9350 3650 11000 3650
Wire Notes Line
	11000 3650 11000 5100
Wire Notes Line
	11000 5100 9350 5100
Wire Notes Line
	9350 5100 9350 3650
Text Notes 9400 3750 0    50   ~ 0
relais substitute
Wire Notes Line
	4950 3150 6850 3150
Wire Notes Line
	6850 3150 6850 4250
Wire Notes Line
	6850 4250 4950 4250
Wire Notes Line
	4950 4250 4950 3150
Text Notes 4950 3250 0    50   ~ 0
flyback  diodes for  external solenoids\n
$Comp
L Connector_Generic:Conn_01x02 J8
U 1 1 5EDD3AEE
P 9550 2050
F 0 "J8" H 9630 2042 50  0000 L CNN
F 1 "Speaker 4-8 ohm" H 9630 1951 50  0000 L CNN
F 2 "Connector_JST:JST_PH_B2B-PH-K_1x02_P2.00mm_Vertical" H 9550 2050 50  0001 C CNN
F 3 "~" H 9550 2050 50  0001 C CNN
	1    9550 2050
	1    0    0    -1  
$EndComp
Text GLabel 1800 4150 0    50   Input ~ 0
Line_Out_L
Wire Notes Line
	7300 1200 10400 1200
Wire Notes Line
	10400 1200 10400 3400
Wire Notes Line
	10400 3400 7300 3400
Wire Notes Line
	7300 3400 7300 1200
Text Notes 7400 1350 0    50   ~ 0
3W class D amplifiier
$Comp
L charleslabs:Mini360_Module A1
U 1 1 5FA197A4
P 1300 1000
F 0 "A1" H 1300 1275 50  0000 C CNN
F 1 "Mini360_Module" H 1300 1184 50  0000 C CNN
F 2 "charleslabs:Mini360_Module" H 1300 850 50  0001 C CNN
F 3 "" H 1050 1100 50  0001 C CNN
	1    1300 1000
	1    0    0    -1  
$EndComp
Wire Wire Line
	950  850  950  950 
Wire Wire Line
	1650 950  1650 850 
Wire Wire Line
	1650 1050 1650 1200
$Comp
L Connector:Conn_Coaxial J1
U 1 1 5FA6D3DB
P 1600 4350
F 0 "J1" H 1800 4300 50  0000 C CNN
F 1 "Mic" H 1800 4400 50  0000 C CNN
F 2 "micro_coax:HRS_U_FL-R-SMT" H 1600 4350 50  0001 C CNN
F 3 " ~" H 1600 4350 50  0001 C CNN
	1    1600 4350
	-1   0    0    -1  
$EndComp
$Comp
L Mechanical:MountingHole H1
U 1 1 5FAABE40
P 2650 750
F 0 "H1" H 2750 796 50  0000 L CNN
F 1 "MountingHole" H 2750 705 50  0000 L CNN
F 2 "Mounting_Holes:MountingHole_3.2mm_M3" H 2650 750 50  0001 C CNN
F 3 "~" H 2650 750 50  0001 C CNN
	1    2650 750 
	1    0    0    -1  
$EndComp
$Comp
L Mechanical:MountingHole H2
U 1 1 5FAAD278
P 2650 1100
F 0 "H2" H 2750 1146 50  0000 L CNN
F 1 "MountingHole" H 2750 1055 50  0000 L CNN
F 2 "Mounting_Holes:MountingHole_3.2mm_M3" H 2650 1100 50  0001 C CNN
F 3 "~" H 2650 1100 50  0001 C CNN
	1    2650 1100
	1    0    0    -1  
$EndComp
$Comp
L Device:Net-Tie_2 NT2
U 1 1 5FAC1EF1
P 6300 6250
F 0 "NT2" V 6254 6294 50  0000 L CNN
F 1 "Net-Tie_2" V 6345 6294 50  0000 L CNN
F 2 "NetTie:NetTie-2_SMD_Pad0.5mm" H 6300 6250 50  0001 C CNN
F 3 "~" H 6300 6250 50  0001 C CNN
	1    6300 6250
	0    1    1    0   
$EndComp
Wire Wire Line
	6300 6000 6300 6100
Wire Wire Line
	6300 6000 6900 6000
$Comp
L Jumper:SolderJumper_2_Open JP2
U 1 1 5FACFE0E
P 6150 6100
F 0 "JP2" H 6150 6305 50  0000 C CNN
F 1 "solder gap" H 6150 6214 50  0000 C CNN
F 2 "Jumper:SolderJumper-2_P1.3mm_Open_Pad1.0x1.5mm" H 6150 6100 50  0001 C CNN
F 3 "~" H 6150 6100 50  0001 C CNN
	1    6150 6100
	1    0    0    -1  
$EndComp
Connection ~ 6300 6100
Wire Wire Line
	6300 6100 6300 6150
Wire Wire Line
	6000 6100 5900 6100
$Comp
L dooropener_pcb-rescue:ohm-RESCUE-dooropener_pcb R1
U 1 1 5FB134CF
P 8050 4950
F 0 "R1" H 8050 4850 60  0000 C CNN
F 1 "2.2k" H 8050 4950 60  0000 C CNN
F 2 "Resistors_SMD:R_0805_HandSoldering" H 8050 4950 60  0001 C CNN
F 3 "" H 8050 4950 60  0001 C CNN
	1    8050 4950
	1    0    0    -1  
$EndComp
$Comp
L power:+5V #PWR0104
U 1 1 5FB13849
P 7850 4700
F 0 "#PWR0104" H 7850 4550 50  0001 C CNN
F 1 "+5V" H 7850 4840 50  0000 C CNN
F 2 "" H 7850 4700 50  0001 C CNN
F 3 "" H 7850 4700 50  0001 C CNN
	1    7850 4700
	1    0    0    -1  
$EndComp
Wire Wire Line
	7850 4700 7850 4750
$Comp
L orange_pi_zero:capacitor C2
U 1 1 5FB2B525
P 8450 5300
F 0 "C2" H 8578 5328 60  0000 L CNN
F 1 "1nF" H 8578 5222 60  0000 L CNN
F 2 "Capacitors_SMD:C_0805_HandSoldering" H 8750 5200 60  0001 C CNN
F 3 "" H 8750 5200 60  0001 C CNN
	1    8450 5300
	1    0    0    -1  
$EndComp
$Comp
L power:GND #PWR0106
U 1 1 5FB2B7EF
P 8450 5450
F 0 "#PWR0106" H 8450 5200 50  0001 C CNN
F 1 "GND" H 8450 5300 50  0000 C CNN
F 2 "" H 8450 5450 50  0001 C CNN
F 3 "" H 8450 5450 50  0001 C CNN
	1    8450 5450
	1    0    0    -1  
$EndComp
Wire Wire Line
	4650 5150 4650 5450
Wire Wire Line
	4650 5450 4550 5450
Wire Wire Line
	4100 5150 3900 5150
Wire Wire Line
	3900 5150 3900 5450
Wire Wire Line
	3900 5450 3950 5450
Wire Wire Line
	3900 5450 3800 5450
Connection ~ 3900 5450
Wire Wire Line
	4550 5950 4650 5950
Wire Wire Line
	4550 6350 4650 6350
$Comp
L nanopiduo2:8002_3w_audio_module U1
U 1 1 5FC7F145
P 8750 2150
F 0 "U1" H 8750 2625 50  0000 C CNN
F 1 "8002_3w_audio_module" H 8750 2534 50  0000 C CNN
F 2 "nanopi:Ayima_3w_8002_audio_amplifier_module" H 8550 2850 50  0001 C CNN
F 3 "" H 8550 2850 50  0001 C CNN
	1    8750 2150
	1    0    0    -1  
$EndComp
$Comp
L power:+5V #PWR0107
U 1 1 5FC868A5
P 8350 2300
F 0 "#PWR0107" H 8350 2150 50  0001 C CNN
F 1 "+5V" H 8350 2440 50  0000 C CNN
F 2 "" H 8350 2300 50  0001 C CNN
F 3 "" H 8350 2300 50  0001 C CNN
	1    8350 2300
	0    -1   -1   0   
$EndComp
$Comp
L power:GND #PWR0108
U 1 1 5FC876C0
P 8350 2200
F 0 "#PWR0108" H 8350 1950 50  0001 C CNN
F 1 "GND" H 8350 2050 50  0000 C CNN
F 2 "" H 8350 2200 50  0001 C CNN
F 3 "" H 8350 2200 50  0001 C CNN
	1    8350 2200
	0    1    1    0   
$EndComp
Text GLabel 8350 2000 0    60   Input ~ 0
audio_enable
Text GLabel 8350 2100 0    50   Input ~ 0
Line_Out_L
Wire Wire Line
	9150 1900 9350 1900
Wire Wire Line
	9350 1900 9350 2050
Wire Wire Line
	9350 2150 9350 2350
Wire Wire Line
	9350 2350 9150 2350
$Comp
L orange_pi_zero:Diode D3
U 1 1 5FD08083
P 5750 3850
F 0 "D3" H 5850 3950 60  0000 C CNN
F 1 "Diode" H 5900 3800 60  0000 C CNN
F 2 "Diodes_SMD:D_2114" H 5890 3760 60  0001 C CNN
F 3 "" H 5890 3760 60  0001 C CNN
	1    5750 3850
	1    0    0    -1  
$EndComp
$Comp
L power:GND #PWR0110
U 1 1 5FD08681
P 5750 3950
F 0 "#PWR0110" H 5750 3700 50  0001 C CNN
F 1 "GND" H 5750 3800 50  0000 C CNN
F 2 "" H 5750 3950 50  0001 C CNN
F 3 "" H 5750 3950 50  0001 C CNN
	1    5750 3950
	1    0    0    -1  
$EndComp
Wire Notes Line
	5500 7550 5500 6750
Text Notes 5550 6850 0    50   ~ 0
optional step up for vdd
Wire Notes Line
	1900 550  1900 1500
Wire Notes Line
	1900 1500 550  1500
Wire Notes Line
	550  1500 550  550 
Wire Notes Line
	550  550  1900 550 
Text Notes 600  650  0    50   ~ 0
step down module mini360 @5v
Wire Wire Line
	1800 4450 1800 4550
Wire Wire Line
	1800 4550 1600 4550
$Comp
L nanopiduo2:nanopiduo J5
U 1 1 5FDCB21B
P 2650 4550
F 0 "J5" H 2650 6437 60  0000 C CNN
F 1 "nanopiduo" H 2650 6331 60  0000 C CNN
F 2 "nanopi:nanopi" H 3050 4500 60  0001 C CNN
F 3 "" H 3050 4500 60  0001 C CNN
	1    2650 4550
	1    0    0    -1  
$EndComp
$Comp
L Device:Net-Tie_2 NT1
U 1 1 5FE0CB91
P 6500 1600
F 0 "NT1" H 6500 1781 50  0000 C CNN
F 1 "net tie poe vcc" H 6500 1690 50  0000 C CNN
F 2 "NetTie:NetTie-2_SMD_Pad0.5mm" H 6500 1600 50  0001 C CNN
F 3 "~" H 6500 1600 50  0001 C CNN
	1    6500 1600
	1    0    0    -1  
$EndComp
$Comp
L Device:Net-Tie_2 NT3
U 1 1 5FE19439
P 6500 1700
F 0 "NT3" H 6500 1881 50  0000 C CNN
F 1 "net tie poe gnd" H 6500 1790 50  0000 C CNN
F 2 "NetTie:NetTie-2_SMD_Pad0.5mm" H 6500 1700 50  0001 C CNN
F 3 "~" H 6500 1700 50  0001 C CNN
	1    6500 1700
	1    0    0    -1  
$EndComp
Text GLabel 1800 3050 0    50   Input ~ 0
input1
Text GLabel 6900 5700 0    50   Input ~ 0
input1
Text GLabel 1800 3950 0    50   Input ~ 0
input2
Text GLabel 6900 5800 0    50   Input ~ 0
input2
Text GLabel 8450 5200 0    50   Input ~ 0
input2
Text GLabel 7850 5200 0    50   Input ~ 0
input1
$Comp
L orange_pi_zero:capacitor C1
U 1 1 5FEC37EB
P 7850 5300
F 0 "C1" H 7978 5328 60  0000 L CNN
F 1 "1nF" H 7978 5222 60  0000 L CNN
F 2 "Capacitors_SMD:C_0805_HandSoldering" H 8150 5200 60  0001 C CNN
F 3 "" H 8150 5200 60  0001 C CNN
	1    7850 5300
	1    0    0    -1  
$EndComp
$Comp
L power:GND #PWR0103
U 1 1 5FEC37F1
P 7850 5450
F 0 "#PWR0103" H 7850 5200 50  0001 C CNN
F 1 "GND" H 7850 5300 50  0000 C CNN
F 2 "" H 7850 5450 50  0001 C CNN
F 3 "" H 7850 5450 50  0001 C CNN
	1    7850 5450
	1    0    0    -1  
$EndComp
Wire Wire Line
	6150 3500 6250 3500
Wire Wire Line
	6250 3500 6250 3700
Text GLabel 1800 3350 0    50   Input ~ 0
SDA
Text GLabel 3850 2100 0    50   Input ~ 0
SDA
Text GLabel 3300 2250 0    50   Input ~ 0
SDA
$Comp
L power:+5V #PWR0105
U 1 1 5FEF80F0
P 3300 1950
F 0 "#PWR0105" H 3300 1800 50  0001 C CNN
F 1 "+5V" H 3300 2090 50  0000 C CNN
F 2 "" H 3300 1950 50  0001 C CNN
F 3 "" H 3300 1950 50  0001 C CNN
	1    3300 1950
	1    0    0    -1  
$EndComp
Text GLabel 1800 3250 0    50   Input ~ 0
SCL
Text GLabel 2800 2250 0    50   Input ~ 0
SCL
$Comp
L dooropener_pcb-rescue:R R8
U 1 1 5FF02F27
P 2800 2100
F 0 "R8" V 2880 2100 50  0000 C CNN
F 1 "4.7k" V 2800 2100 50  0000 C CNN
F 2 "Resistors_SMD:R_0805_HandSoldering" V 2730 2100 50  0001 C CNN
F 3 "" H 2800 2100 50  0001 C CNN
	1    2800 2100
	1    0    0    -1  
$EndComp
$Comp
L power:+5V #PWR0109
U 1 1 5FF02F2D
P 2800 1950
F 0 "#PWR0109" H 2800 1800 50  0001 C CNN
F 1 "+5V" H 2800 2090 50  0000 C CNN
F 2 "" H 2800 1950 50  0001 C CNN
F 3 "" H 2800 1950 50  0001 C CNN
	1    2800 1950
	1    0    0    -1  
$EndComp
Text GLabel 3850 2200 0    50   Input ~ 0
SCL
$Comp
L power:+5V #PWR0111
U 1 1 5FF0B374
P 3650 1800
F 0 "#PWR0111" H 3650 1650 50  0001 C CNN
F 1 "+5V" H 3650 1940 50  0000 C CNN
F 2 "" H 3650 1800 50  0001 C CNN
F 3 "" H 3650 1800 50  0001 C CNN
	1    3650 1800
	1    0    0    -1  
$EndComp
Wire Wire Line
	3850 2000 3650 2000
Wire Wire Line
	3650 2000 3650 1800
$Comp
L power:+12V #PWR0112
U 1 1 5FF3EC12
P 5900 6100
F 0 "#PWR0112" H 5900 5950 50  0001 C CNN
F 1 "+12V" H 5850 6000 50  0000 C CNN
F 2 "" H 5900 6100 50  0001 C CNN
F 3 "" H 5900 6100 50  0001 C CNN
	1    5900 6100
	1    0    0    -1  
$EndComp
$Comp
L Jumper:SolderJumper_2_Open JP1
U 1 1 5FF40152
P 4700 5750
F 0 "JP1" H 4700 5955 50  0000 C CNN
F 1 "SolderJumper_2_Open" H 4700 5864 50  0000 C CNN
F 2 "Jumper:SolderJumper-2_P1.3mm_Open_Pad1.0x1.5mm" H 4700 5750 50  0001 C CNN
F 3 "~" H 4700 5750 50  0001 C CNN
	1    4700 5750
	1    0    0    -1  
$EndComp
$Comp
L Jumper:SolderJumper_2_Open JP3
U 1 1 5FF4BC31
P 4700 6150
F 0 "JP3" H 4700 6355 50  0000 C CNN
F 1 "SolderJumper_2_Open" H 4700 6264 50  0000 C CNN
F 2 "Jumper:SolderJumper-2_P1.3mm_Open_Pad1.0x1.5mm" H 4700 6150 50  0001 C CNN
F 3 "~" H 4700 6150 50  0001 C CNN
	1    4700 6150
	1    0    0    -1  
$EndComp
$Comp
L power:GND #PWR0113
U 1 1 5FF4C35D
P 4850 6150
F 0 "#PWR0113" H 4850 5900 50  0001 C CNN
F 1 "GND" H 4850 6000 50  0000 C CNN
F 2 "" H 4850 6150 50  0001 C CNN
F 3 "" H 4850 6150 50  0001 C CNN
	1    4850 6150
	1    0    0    -1  
$EndComp
$Comp
L power:GND #PWR0114
U 1 1 5FF4CB0A
P 4850 5750
F 0 "#PWR0114" H 4850 5500 50  0001 C CNN
F 1 "GND" H 4850 5600 50  0000 C CNN
F 2 "" H 4850 5750 50  0001 C CNN
F 3 "" H 4850 5750 50  0001 C CNN
	1    4850 5750
	1    0    0    -1  
$EndComp
$Comp
L Connector:Conn_01x01_Female J6
U 1 1 5FABE294
P 3750 6100
F 0 "J6" H 3850 6150 50  0000 R CNN
F 1 "deenergized a" H 4350 6100 50  0000 R CNN
F 2 "Connector_PinHeader_2.54mm:PinHeader_1x01_P2.54mm_Vertical" H 3750 6100 50  0001 C CNN
F 3 "~" H 3750 6100 50  0001 C CNN
	1    3750 6100
	-1   0    0    1   
$EndComp
Wire Notes Line
	5500 6750 6600 6750
Wire Notes Line
	6600 6750 6600 7550
Wire Notes Line
	6600 7550 5500 7550
Text GLabel 2500 6500 0    50   Input ~ 0
relais_signal_amplified
Connection ~ 2100 6850
Wire Wire Line
	2100 6850 2300 6850
Wire Wire Line
	2500 7200 2500 7300
Connection ~ 2300 7300
Wire Wire Line
	2300 7300 2500 7300
Connection ~ 1950 6850
Wire Wire Line
	3950 6100 3950 6250
Wire Wire Line
	4350 5150 4650 5150
$Comp
L power:+5V #PWR08
U 1 1 59B714FF
P 4650 5150
F 0 "#PWR08" H 4650 5000 50  0001 C CNN
F 1 "+5V" H 4650 5300 50  0000 C CNN
F 2 "" H 4650 5150 50  0001 C CNN
F 3 "" H 4650 5150 50  0001 C CNN
	1    4650 5150
	1    0    0    -1  
$EndComp
Connection ~ 4650 5150
Wire Wire Line
	1400 3150 1800 3150
Text GLabel 1800 2950 0    50   Input ~ 0
IRQ
Text GLabel 1050 5700 0    50   Input ~ 0
IRQ
$Comp
L Relay:EE2-3SNU K1
U 1 1 6003B4FC
P 4250 5850
F 0 "K1" V 3483 5850 50  0000 C CNN
F 1 "EE2-3SNU" V 3574 5850 50  0000 C CNN
F 2 "nanopi:relais_TX_TH" H 4250 5850 50  0001 C CNN
F 3 "https://content.kemet.com/datasheets/KEM_R7002_EC2_EE2.pdf" H 4250 5850 50  0001 C CNN
	1    4250 5850
	0    1    1    0   
$EndComp
$EndSCHEMATC
