(module nanopi_duo (layer F.Cu) (tedit 5B369A9C)
  (descr "Pin socket 16pin")
  (tags "CONN DEV")
  (fp_text reference PIN_SOCKET_16 (at 8.89 1.27 270) (layer F.SilkS)
    (effects (font (size 1.016 1.016) (thickness 0.2032)))
  )
  (fp_text value Val** (at 8.89 11.43 270) (layer F.SilkS) hide
    (effects (font (size 1.016 0.889) (thickness 0.2032)))
  )
  (fp_line (start -12.5 -25) (end -12.5 25) (layer F.CrtYd) (width 0.15))
  (fp_line (start -12.5 25) (end 12.5 25) (layer F.CrtYd) (width 0.15))
  (fp_line (start 12.5 -25) (end 12.5 25) (layer F.CrtYd) (width 0.15))
  (fp_line (start -12.5 -25) (end 12.5 -25) (layer F.CrtYd) (width 0.15))
  (pad 18 thru_hole oval (at 11.43 -13.97 270) (size 1.524 2.19964) (drill 1.00076) (layers *.Cu *.Mask F.SilkS))
  (pad 19 thru_hole oval (at 11.43 -11.43 270) (size 1.524 2.19964) (drill 1.00076) (layers *.Cu *.Mask F.SilkS))
  (pad 20 thru_hole oval (at 11.43 -8.89 270) (size 1.524 2.19964) (drill 1.00076) (layers *.Cu *.Mask F.SilkS))
  (pad 21 thru_hole oval (at 11.43 -6.35 270) (size 1.524 2.19964) (drill 1.00076) (layers *.Cu *.Mask F.SilkS))
  (pad 22 thru_hole oval (at 11.43 -3.81 270) (size 1.524 2.19964) (drill 1.00076) (layers *.Cu *.Mask F.SilkS))
  (pad 23 thru_hole oval (at 11.43 -1.27 270) (size 1.524 2.19964) (drill 1.00076) (layers *.Cu *.Mask F.SilkS))
  (pad 24 thru_hole oval (at 11.43 1.27 270) (size 1.524 2.19964) (drill 1.00076) (layers *.Cu *.Mask F.SilkS))
  (pad 25 thru_hole oval (at 11.43 3.81 270) (size 1.524 2.19964) (drill 1.00076) (layers *.Cu *.Mask F.SilkS))
  (pad 26 thru_hole oval (at 11.43 6.35 270) (size 1.524 2.19964) (drill 1.00076) (layers *.Cu *.Mask F.SilkS))
  (pad 27 thru_hole oval (at 11.43 8.89 270) (size 1.524 2.19964) (drill 1.00076) (layers *.Cu *.Mask F.SilkS))
  (pad 28 thru_hole oval (at 11.43 11.43 270) (size 1.524 2.19964) (drill 1.00076) (layers *.Cu *.Mask F.SilkS))
  (pad 29 thru_hole oval (at 11.43 13.97 270) (size 1.524 2.19964) (drill 1.00076) (layers *.Cu *.Mask F.SilkS))
  (pad 30 thru_hole oval (at 11.43 16.51 270) (size 1.524 2.19964) (drill 1.00076) (layers *.Cu *.Mask F.SilkS))
  (pad 31 thru_hole oval (at 11.43 19.05 270) (size 1.524 2.19964) (drill 1.00076) (layers *.Cu *.Mask F.SilkS))
  (pad 32 thru_hole oval (at 11.43 21.59 270) (size 1.524 2.19964) (drill 1.00076) (layers *.Cu *.Mask F.SilkS))
  (pad 13 thru_hole oval (at -11.259005 13.838345 270) (size 1.524 2.19964) (drill 1.00076) (layers *.Cu *.Mask F.SilkS))
  (pad 16 thru_hole oval (at -11.259005 21.458345 270) (size 1.524 2.19964) (drill 1.00076) (layers *.Cu *.Mask F.SilkS))
  (pad 14 thru_hole oval (at -11.259005 16.378345 270) (size 1.524 2.19964) (drill 1.00076) (layers *.Cu *.Mask F.SilkS))
  (pad 15 thru_hole oval (at -11.259005 18.918345 270) (size 1.524 2.19964) (drill 1.00076) (layers *.Cu *.Mask F.SilkS))
  (pad 2 thru_hole oval (at -11.259005 -14.101655 270) (size 1.524 2.19964) (drill 1.00076) (layers *.Cu *.Mask F.SilkS))
  (pad 1 thru_hole rect (at -11.259005 -16.641655 270) (size 1.524 2.19964) (drill 1.00076) (layers *.Cu *.Mask F.SilkS))
  (pad 4 thru_hole oval (at -11.259005 -9.021655 270) (size 1.524 2.19964) (drill 1.00076) (layers *.Cu *.Mask F.SilkS))
  (pad 3 thru_hole oval (at -11.259005 -11.561655 270) (size 1.524 2.19964) (drill 1.00076) (layers *.Cu *.Mask F.SilkS))
  (pad 6 thru_hole oval (at -11.259005 -3.941655 270) (size 1.524 2.19964) (drill 1.00076) (layers *.Cu *.Mask F.SilkS))
  (pad 5 thru_hole oval (at -11.259005 -6.481655 270) (size 1.524 2.19964) (drill 1.00076) (layers *.Cu *.Mask F.SilkS))
  (pad 7 thru_hole oval (at -11.259005 -1.401655 270) (size 1.524 2.19964) (drill 1.00076) (layers *.Cu *.Mask F.SilkS))
  (pad 12 thru_hole oval (at -11.259005 11.298345 270) (size 1.524 2.19964) (drill 1.00076) (layers *.Cu *.Mask F.SilkS))
  (pad 11 thru_hole oval (at -11.259005 8.758345 270) (size 1.524 2.19964) (drill 1.00076) (layers *.Cu *.Mask F.SilkS))
  (pad 9 thru_hole oval (at -11.259005 3.678345 270) (size 1.524 2.19964) (drill 1.00076) (layers *.Cu *.Mask F.SilkS))
  (pad 10 thru_hole oval (at -11.259005 6.218345 270) (size 1.524 2.19964) (drill 1.00076) (layers *.Cu *.Mask F.SilkS))
  (pad 8 thru_hole oval (at -11.259005 1.138345 270) (size 1.524 2.19964) (drill 1.00076) (layers *.Cu *.Mask F.SilkS))
  (pad 17 thru_hole oval (at 11.43 -16.51 270) (size 1.524 2.19964) (drill 1.00076) (layers *.Cu *.Mask F.SilkS))
  (model walter/pin_strip/pin_socket_16.wrl
    (at (xyz 0 0 0))
    (scale (xyz 1 1 1))
    (rotate (xyz 0 0 0))
  )
)
