(module nanopi (layer F.Cu) (tedit 5B33E8C4)
  (descr "Low profile, screw machine socket strip, through hole, 100mil / 2.54mm pitch")
  (tags "samtec socket strip tht single")
  (fp_text reference J1 (at -13.7 1.27 90) (layer F.SilkS)
    (effects (font (size 1 1) (thickness 0.15)))
  )
  (fp_text value nanopiduo_no_media (at -8.89 0 90) (layer F.Fab)
    (effects (font (size 1 1) (thickness 0.15)))
  )
  (fp_line (start 3.81 -26.67) (end -3.81 -26.67) (layer F.SilkS) (width 0.15))
  (fp_line (start 3.81 -22.86) (end 3.81 -26.67) (layer F.SilkS) (width 0.15))
  (fp_line (start -3.81 -22.86) (end 3.81 -22.86) (layer F.SilkS) (width 0.15))
  (fp_line (start -3.81 -26.67) (end -3.81 -22.86) (layer F.SilkS) (width 0.15))
  (fp_line (start 12.5 25) (end 12.5 -25) (layer F.CrtYd) (width 0.15))
  (fp_line (start -12.5 25) (end 12.5 25) (layer F.CrtYd) (width 0.15))
  (fp_line (start -12.5 -25) (end -12.5 25) (layer F.CrtYd) (width 0.15))
  (fp_line (start 12.5 -25) (end -12.5 -25) (layer F.CrtYd) (width 0.15))
  (fp_line (start -11.6 -19.2) (end -10.01 -19.2) (layer F.SilkS) (width 0.12))
  (fp_line (start -10.01 -19.2) (end -10.01 21.74) (layer F.SilkS) (width 0.12))
  (fp_line (start -10.01 21.74) (end -12.85 21.74) (layer F.SilkS) (width 0.12))
  (fp_line (start -12.85 21.74) (end -12.85 -17.95) (layer F.SilkS) (width 0.12))
  (fp_line (start -11.7 -19.45) (end -13.1 -19.45) (layer F.SilkS) (width 0.12))
  (fp_line (start -13.1 -19.45) (end -13.1 -18.05) (layer F.SilkS) (width 0.12))
  (fp_line (start -11.7 -19.45) (end -13.1 -19.45) (layer F.Fab) (width 0.1))
  (fp_line (start -13.1 -19.45) (end -13.1 -18.05) (layer F.Fab) (width 0.1))
  (fp_line (start -12.7 -19.05) (end -12.7 21.59) (layer F.Fab) (width 0.1))
  (fp_line (start -12.7 21.59) (end -10.16 21.59) (layer F.Fab) (width 0.1))
  (fp_line (start -10.16 21.59) (end -10.16 -19.05) (layer F.Fab) (width 0.1))
  (fp_line (start -10.16 -19.05) (end -12.7 -19.05) (layer F.Fab) (width 0.1))
  (fp_line (start -13.2 -19.55) (end -13.2 22.08) (layer F.CrtYd) (width 0.05))
  (fp_line (start -13.2 22.08) (end -9.66 22.08) (layer F.CrtYd) (width 0.05))
  (fp_line (start -9.66 22.08) (end -9.66 -19.55) (layer F.CrtYd) (width 0.05))
  (fp_line (start -9.66 -19.55) (end -13.2 -19.55) (layer F.CrtYd) (width 0.05))
  (fp_line (start -12.7 -16.51) (end -12.5 -16.51) (layer F.Fab) (width 0.1))
  (fp_line (start -10.16 -16.51) (end -10.36 -16.51) (layer F.Fab) (width 0.1))
  (fp_line (start -12.7 -13.97) (end -12.5 -13.97) (layer F.Fab) (width 0.1))
  (fp_line (start -10.16 -13.97) (end -10.36 -13.97) (layer F.Fab) (width 0.1))
  (fp_line (start -12.7 -11.43) (end -12.5 -11.43) (layer F.Fab) (width 0.1))
  (fp_line (start -10.16 -11.43) (end -10.36 -11.43) (layer F.Fab) (width 0.1))
  (fp_line (start -12.7 -8.89) (end -12.5 -8.89) (layer F.Fab) (width 0.1))
  (fp_line (start -10.16 -8.89) (end -10.36 -8.89) (layer F.Fab) (width 0.1))
  (fp_line (start -12.7 -6.35) (end -12.5 -6.35) (layer F.Fab) (width 0.1))
  (fp_line (start -10.16 -6.35) (end -10.36 -6.35) (layer F.Fab) (width 0.1))
  (fp_line (start -12.7 -3.81) (end -12.5 -3.81) (layer F.Fab) (width 0.1))
  (fp_line (start -10.16 -3.81) (end -10.36 -3.81) (layer F.Fab) (width 0.1))
  (fp_line (start -12.7 -1.27) (end -12.5 -1.27) (layer F.Fab) (width 0.1))
  (fp_line (start -10.16 -1.27) (end -10.36 -1.27) (layer F.Fab) (width 0.1))
  (fp_line (start -12.7 1.27) (end -12.5 1.27) (layer F.Fab) (width 0.1))
  (fp_line (start -10.16 1.27) (end -10.36 1.27) (layer F.Fab) (width 0.1))
  (fp_line (start -12.7 3.81) (end -12.5 3.81) (layer F.Fab) (width 0.1))
  (fp_line (start -10.16 3.81) (end -10.36 3.81) (layer F.Fab) (width 0.1))
  (fp_line (start -12.7 6.35) (end -12.5 6.35) (layer F.Fab) (width 0.1))
  (fp_line (start -10.16 6.35) (end -10.36 6.35) (layer F.Fab) (width 0.1))
  (fp_line (start -12.7 8.89) (end -12.5 8.89) (layer F.Fab) (width 0.1))
  (fp_line (start -10.16 8.89) (end -10.36 8.89) (layer F.Fab) (width 0.1))
  (fp_line (start -12.7 11.43) (end -12.5 11.43) (layer F.Fab) (width 0.1))
  (fp_line (start -10.16 11.43) (end -10.36 11.43) (layer F.Fab) (width 0.1))
  (fp_line (start -12.7 13.97) (end -12.5 13.97) (layer F.Fab) (width 0.1))
  (fp_line (start -10.16 13.97) (end -10.36 13.97) (layer F.Fab) (width 0.1))
  (fp_line (start -12.7 16.51) (end -12.5 16.51) (layer F.Fab) (width 0.1))
  (fp_line (start -10.16 16.51) (end -10.36 16.51) (layer F.Fab) (width 0.1))
  (fp_line (start -12.7 19.05) (end -12.5 19.05) (layer F.Fab) (width 0.1))
  (fp_line (start -10.16 19.05) (end -10.36 19.05) (layer F.Fab) (width 0.1))
  (fp_line (start -12.7 21.59) (end -12.5 21.59) (layer F.Fab) (width 0.1))
  (fp_line (start -10.16 21.59) (end -10.36 21.59) (layer F.Fab) (width 0.1))
  (fp_line (start 9.76 -19.45) (end 9.76 -18.05) (layer F.SilkS) (width 0.12))
  (fp_line (start 11.26 -19.2) (end 12.85 -19.2) (layer F.SilkS) (width 0.12))
  (fp_line (start 12.85 -19.2) (end 12.85 21.74) (layer F.SilkS) (width 0.12))
  (fp_line (start 12.85 21.74) (end 10.01 21.74) (layer F.SilkS) (width 0.12))
  (fp_line (start 10.01 21.74) (end 10.01 -17.95) (layer F.SilkS) (width 0.12))
  (fp_line (start 11.16 -19.45) (end 9.76 -19.45) (layer F.SilkS) (width 0.12))
  (fp_line (start 13.2 22.08) (end 13.2 -19.55) (layer F.CrtYd) (width 0.05))
  (fp_line (start 9.66 -19.55) (end 9.66 22.08) (layer F.CrtYd) (width 0.05))
  (fp_line (start 9.66 22.08) (end 13.2 22.08) (layer F.CrtYd) (width 0.05))
  (fp_line (start 13.2 -19.55) (end 9.66 -19.55) (layer F.CrtYd) (width 0.05))
  (fp_line (start 10.16 -16.51) (end 10.36 -16.51) (layer F.Fab) (width 0.1))
  (fp_line (start 11.16 -19.45) (end 9.76 -19.45) (layer F.Fab) (width 0.1))
  (fp_line (start 9.76 -19.45) (end 9.76 -18.05) (layer F.Fab) (width 0.1))
  (fp_line (start 12.7 -19.05) (end 10.16 -19.05) (layer F.Fab) (width 0.1))
  (fp_line (start 12.7 -16.51) (end 12.5 -16.51) (layer F.Fab) (width 0.1))
  (fp_line (start 10.16 21.59) (end 10.36 21.59) (layer F.Fab) (width 0.1))
  (fp_line (start 10.16 21.59) (end 12.7 21.59) (layer F.Fab) (width 0.1))
  (fp_line (start 10.16 19.05) (end 10.36 19.05) (layer F.Fab) (width 0.1))
  (fp_line (start 12.7 19.05) (end 12.5 19.05) (layer F.Fab) (width 0.1))
  (fp_line (start 12.7 21.59) (end 12.5 21.59) (layer F.Fab) (width 0.1))
  (fp_line (start 12.7 -11.43) (end 12.5 -11.43) (layer F.Fab) (width 0.1))
  (fp_line (start 10.16 -13.97) (end 10.36 -13.97) (layer F.Fab) (width 0.1))
  (fp_line (start 12.7 -13.97) (end 12.5 -13.97) (layer F.Fab) (width 0.1))
  (fp_line (start 10.16 -11.43) (end 10.36 -11.43) (layer F.Fab) (width 0.1))
  (fp_line (start 10.16 -8.89) (end 10.36 -8.89) (layer F.Fab) (width 0.1))
  (fp_line (start 12.7 -8.89) (end 12.5 -8.89) (layer F.Fab) (width 0.1))
  (fp_line (start 10.16 -6.35) (end 10.36 -6.35) (layer F.Fab) (width 0.1))
  (fp_line (start 12.7 -6.35) (end 12.5 -6.35) (layer F.Fab) (width 0.1))
  (fp_line (start 10.16 -3.81) (end 10.36 -3.81) (layer F.Fab) (width 0.1))
  (fp_line (start 12.7 -3.81) (end 12.5 -3.81) (layer F.Fab) (width 0.1))
  (fp_line (start 12.7 1.27) (end 12.5 1.27) (layer F.Fab) (width 0.1))
  (fp_line (start 10.16 -1.27) (end 10.36 -1.27) (layer F.Fab) (width 0.1))
  (fp_line (start 12.7 -1.27) (end 12.5 -1.27) (layer F.Fab) (width 0.1))
  (fp_line (start 10.16 1.27) (end 10.36 1.27) (layer F.Fab) (width 0.1))
  (fp_line (start 10.16 3.81) (end 10.36 3.81) (layer F.Fab) (width 0.1))
  (fp_line (start 12.7 3.81) (end 12.5 3.81) (layer F.Fab) (width 0.1))
  (fp_line (start 10.16 6.35) (end 10.36 6.35) (layer F.Fab) (width 0.1))
  (fp_line (start 12.7 6.35) (end 12.5 6.35) (layer F.Fab) (width 0.1))
  (fp_line (start 10.16 8.89) (end 10.36 8.89) (layer F.Fab) (width 0.1))
  (fp_line (start 12.7 8.89) (end 12.5 8.89) (layer F.Fab) (width 0.1))
  (fp_line (start 10.16 -19.05) (end 10.16 21.59) (layer F.Fab) (width 0.1))
  (fp_line (start 12.7 21.59) (end 12.7 -19.05) (layer F.Fab) (width 0.1))
  (fp_line (start 10.16 11.43) (end 10.36 11.43) (layer F.Fab) (width 0.1))
  (fp_line (start 12.7 11.43) (end 12.5 11.43) (layer F.Fab) (width 0.1))
  (fp_line (start 12.7 13.97) (end 12.5 13.97) (layer F.Fab) (width 0.1))
  (fp_line (start 10.16 16.51) (end 10.36 16.51) (layer F.Fab) (width 0.1))
  (fp_line (start 10.16 13.97) (end 10.36 13.97) (layer F.Fab) (width 0.1))
  (fp_line (start 12.7 16.51) (end 12.5 16.51) (layer F.Fab) (width 0.1))
  (pad 1 thru_hole rect (at -11.43 -17.78) (size 2 2) (drill 0.95) (layers *.Cu *.Mask))
  (pad 2 thru_hole circle (at -11.43 -15.24) (size 2 2) (drill 0.95) (layers *.Cu *.Mask))
  (pad 3 thru_hole circle (at -11.43 -12.7) (size 2 2) (drill 0.95) (layers *.Cu *.Mask))
  (pad 4 thru_hole circle (at -11.43 -10.16) (size 2 2) (drill 0.95) (layers *.Cu *.Mask))
  (pad 5 thru_hole circle (at -11.43 -7.62) (size 2 2) (drill 0.95) (layers *.Cu *.Mask))
  (pad 6 thru_hole circle (at -11.43 -5.08) (size 2 2) (drill 0.95) (layers *.Cu *.Mask))
  (pad 7 thru_hole circle (at -11.43 -2.54) (size 2 2) (drill 0.95) (layers *.Cu *.Mask))
  (pad 8 thru_hole circle (at -11.43 0) (size 2 2) (drill 0.95) (layers *.Cu *.Mask))
  (pad 9 thru_hole circle (at -11.43 2.54) (size 2 2) (drill 0.95) (layers *.Cu *.Mask))
  (pad 10 thru_hole circle (at -11.43 5.08) (size 2 2) (drill 0.95) (layers *.Cu *.Mask))
  (pad 11 thru_hole circle (at -11.43 7.62) (size 2 2) (drill 0.95) (layers *.Cu *.Mask))
  (pad 12 thru_hole circle (at -11.43 10.16) (size 2 2) (drill 0.95) (layers *.Cu *.Mask))
  (pad 13 thru_hole circle (at -11.43 12.7) (size 2 2) (drill 0.95) (layers *.Cu *.Mask))
  (pad 14 thru_hole circle (at -11.43 15.24) (size 2 2) (drill 0.95) (layers *.Cu *.Mask))
  (pad 15 thru_hole circle (at -11.43 17.78) (size 2 2) (drill 0.95) (layers *.Cu *.Mask))
  (pad 16 thru_hole circle (at -11.43 20.32) (size 2 2) (drill 0.95) (layers *.Cu *.Mask))
  (pad 20 thru_hole circle (at 11.43 -10.16) (size 2 2) (drill 0.95) (layers *.Cu *.Mask))
  (pad 18 thru_hole circle (at 11.43 -15.24) (size 2 2) (drill 0.95) (layers *.Cu *.Mask))
  (pad 19 thru_hole circle (at 11.43 -12.7) (size 2 2) (drill 0.95) (layers *.Cu *.Mask))
  (pad 21 thru_hole circle (at 11.43 -7.62) (size 2 2) (drill 0.95) (layers *.Cu *.Mask))
  (pad 25 thru_hole circle (at 11.43 2.54) (size 2 2) (drill 0.95) (layers *.Cu *.Mask))
  (pad 22 thru_hole circle (at 11.43 -5.08) (size 2 2) (drill 0.95) (layers *.Cu *.Mask))
  (pad 23 thru_hole circle (at 11.43 -2.54) (size 2 2) (drill 0.95) (layers *.Cu *.Mask))
  (pad 24 thru_hole circle (at 11.43 0) (size 2 2) (drill 0.95) (layers *.Cu *.Mask))
  (pad 26 thru_hole circle (at 11.43 5.08) (size 2 2) (drill 0.95) (layers *.Cu *.Mask))
  (pad 27 thru_hole circle (at 11.43 7.62) (size 2 2) (drill 0.95) (layers *.Cu *.Mask))
  (pad 31 thru_hole circle (at 11.43 17.78) (size 2 2) (drill 0.95) (layers *.Cu *.Mask))
  (pad 30 thru_hole circle (at 11.43 15.24) (size 2 2) (drill 0.95) (layers *.Cu *.Mask))
  (pad 28 thru_hole circle (at 11.43 10.16) (size 2 2) (drill 0.95) (layers *.Cu *.Mask))
  (pad 29 thru_hole circle (at 11.43 12.7) (size 2 2) (drill 0.95) (layers *.Cu *.Mask))
  (pad 32 thru_hole circle (at 11.43 20.32) (size 2 2) (drill 0.95) (layers *.Cu *.Mask))
  (pad 17 thru_hole circle (at 11.43 -17.78) (size 2 2) (drill 0.95) (layers *.Cu *.Mask))
  (model ${KISYS3DMOD}/Connectors_Samtec.3dshapes/SL-116-X-XX_1x16.wrl
    (at (xyz 0 0 0))
    (scale (xyz 1 1 1))
    (rotate (xyz 0 0 0))
  )
)
