EESchema Schematic File Version 2
LIBS:dooropener_pcb-rescue
LIBS:power
LIBS:device
LIBS:transistors
LIBS:conn
LIBS:linear
LIBS:regul
LIBS:74xx
LIBS:cmos4000
LIBS:adc-dac
LIBS:memory
LIBS:xilinx
LIBS:microcontrollers
LIBS:dsp
LIBS:microchip
LIBS:analog_switches
LIBS:motorola
LIBS:texas
LIBS:intel
LIBS:audio
LIBS:interface
LIBS:digital-audio
LIBS:philips
LIBS:display
LIBS:cypress
LIBS:siliconi
LIBS:opto
LIBS:atmel
LIBS:contrib
LIBS:valves
LIBS:orange_pi_zero
LIBS:nanopiduo2
LIBS:dooropener_pcb-cache
EELAYER 25 0
EELAYER END
$Descr A4 11693 8268
encoding utf-8
Sheet 1 1
Title ""
Date ""
Rev ""
Comp ""
Comment1 ""
Comment2 ""
Comment3 ""
Comment4 ""
$EndDescr
$Comp
L MFRC522 U4
U 1 1 59AE62DC
P 2300 4300
F 0 "U4" H 2300 4300 60  0000 C CNN
F 1 "MFRC522" H 2300 4300 60  0000 C CNN
F 2 "dooropenerfootprints:JST_XH_B08B-XH-A_08x2.50mm_Straight" H 2300 4300 60  0001 C CNN
F 3 "" H 2300 4300 60  0001 C CNN
	1    2300 4300
	1    0    0    -1  
$EndComp
$Comp
L Relais_TQ2-5V U5
U 1 1 59AE73C6
P 5200 5050
F 0 "U5" H 5750 4600 60  0000 C CNN
F 1 "Relais_TQ2-5V" H 5750 4600 60  0000 C CNN
F 2 "Housings_DIP:DIP-10_W7.62mm_Socket" H 5750 4600 60  0001 C CNN
F 3 "" H 5750 4600 60  0001 C CNN
	1    5200 5050
	1    0    0    -1  
$EndComp
$Comp
L LM2596S U1
U 1 1 59AEF321
P 2050 1700
F 0 "U1" H 2050 1600 60  0000 C CNN
F 1 "LM2596S" H 2050 1700 60  0000 C CNN
F 2 "TO_SOT_Packages_SMD:TO-263-5_TabPin3" H 2050 1700 60  0001 C CNN
F 3 "" H 2050 1700 60  0001 C CNN
	1    2050 1700
	1    0    0    -1  
$EndComp
$Comp
L Elko C1
U 1 1 59AEF467
P 1050 1400
F 0 "C1" H 1150 1300 60  0000 C CNN
F 1 "220u" H 1200 1450 60  0000 C CNN
F 2 "Capacitors_SMD:CP_Elec_8x10" H 1350 1300 60  0001 C CNN
F 3 "" H 1350 1300 60  0001 C CNN
	1    1050 1400
	1    0    0    -1  
$EndComp
$Comp
L Elko C3
U 1 1 59AEF518
P 3350 1600
F 0 "C3" H 3650 1400 60  0000 C CNN
F 1 "220uF" H 3650 1500 60  0000 C CNN
F 2 "Capacitors_SMD:CP_Elec_8x10" H 3650 1500 60  0001 C CNN
F 3 "" H 3650 1500 60  0001 C CNN
	1    3350 1600
	1    0    0    -1  
$EndComp
$Comp
L inductance L1
U 1 1 59AF0066
P 3050 1300
F 0 "L1" H 3050 1200 60  0000 C CNN
F 1 "330uH" H 3050 1400 60  0000 C CNN
F 2 "Inductors_SMD:L_12x12mm_h8mm" H 2950 1200 60  0001 C CNN
F 3 "" H 2950 1200 60  0001 C CNN
	1    3050 1300
	1    0    0    -1  
$EndComp
$Comp
L Diode D1
U 1 1 59AF316A
P 2850 1600
F 0 "D1" H 2930 1660 60  0000 C CNN
F 1 "SS54" H 2990 1510 60  0000 C CNN
F 2 "Diodes_SMD:D_2114" H 2990 1510 60  0001 C CNN
F 3 "" H 2990 1510 60  0001 C CNN
	1    2850 1600
	1    0    0    -1  
$EndComp
$Comp
L capacitor-RESCUE-dooropener_pcb C2
U 1 1 59AF3B93
P 1350 1400
F 0 "C2" H 1500 1300 60  0000 C CNN
F 1 "100n" H 1500 1450 60  0000 C CNN
F 2 "Capacitors_SMD:C_0805_HandSoldering" H 1650 1300 60  0001 C CNN
F 3 "" H 1650 1300 60  0001 C CNN
	1    1350 1400
	1    0    0    -1  
$EndComp
Text Label 3750 1950 0    60   ~ 0
GND
Text Label 3550 1300 0    60   ~ 0
5V
Text Notes 900  950  0    60   ~ 0
power Converter
$Comp
L +5V #PWR01
U 1 1 59B6FEC3
P 3700 2750
F 0 "#PWR01" H 3700 2600 50  0001 C CNN
F 1 "+5V" H 3700 2890 50  0000 C CNN
F 2 "" H 3700 2750 50  0001 C CNN
F 3 "" H 3700 2750 50  0001 C CNN
	1    3700 2750
	1    0    0    -1  
$EndComp
$Comp
L GND #PWR02
U 1 1 59B6FFE2
P 3500 3150
F 0 "#PWR02" H 3500 2900 50  0001 C CNN
F 1 "GND" H 3500 3000 50  0000 C CNN
F 2 "" H 3500 3150 50  0001 C CNN
F 3 "" H 3500 3150 50  0001 C CNN
	1    3500 3150
	0    -1   -1   0   
$EndComp
$Comp
L +3.3V #PWR03
U 1 1 59B701A8
P 3700 3050
F 0 "#PWR03" H 3700 2900 50  0001 C CNN
F 1 "+3.3V" H 3700 3190 50  0000 C CNN
F 2 "" H 3700 3050 50  0001 C CNN
F 3 "" H 3700 3050 50  0001 C CNN
	1    3700 3050
	0    1    1    0   
$EndComp
$Comp
L GND #PWR04
U 1 1 59B70362
P 4200 2050
F 0 "#PWR04" H 4200 1800 50  0001 C CNN
F 1 "GND" H 4200 1900 50  0000 C CNN
F 2 "" H 4200 2050 50  0001 C CNN
F 3 "" H 4200 2050 50  0001 C CNN
	1    4200 2050
	1    0    0    -1  
$EndComp
$Comp
L +5V #PWR05
U 1 1 59B7038E
P 4100 1150
F 0 "#PWR05" H 4100 1000 50  0001 C CNN
F 1 "+5V" H 4100 1290 50  0000 C CNN
F 2 "" H 4100 1150 50  0001 C CNN
F 3 "" H 4100 1150 50  0001 C CNN
	1    4100 1150
	1    0    0    -1  
$EndComp
$Comp
L +3.3V #PWR06
U 1 1 59B7067C
P 1900 4350
F 0 "#PWR06" H 1900 4200 50  0001 C CNN
F 1 "+3.3V" H 1900 4490 50  0000 C CNN
F 2 "" H 1900 4350 50  0001 C CNN
F 3 "" H 1900 4350 50  0001 C CNN
	1    1900 4350
	1    0    0    -1  
$EndComp
$Comp
L GND #PWR07
U 1 1 59B706A8
P 1950 5250
F 0 "#PWR07" H 1950 5000 50  0001 C CNN
F 1 "GND" H 1950 5100 50  0000 C CNN
F 2 "" H 1950 5250 50  0001 C CNN
F 3 "" H 1950 5250 50  0001 C CNN
	1    1950 5250
	1    0    0    -1  
$EndComp
$Comp
L S9014 T1
U 1 1 59B71298
P 4650 5900
F 0 "T1" H 4950 5950 60  0000 C CNN
F 1 "S9014" H 4950 5850 60  0000 C CNN
F 2 "TO_SOT_Packages_SMD:SOT-23_Handsoldering" H 4950 5950 60  0001 C CNN
F 3 "" H 4950 5950 60  0001 C CNN
	1    4650 5900
	1    0    0    -1  
$EndComp
$Comp
L +5V #PWR08
U 1 1 59B714FF
P 4850 4700
F 0 "#PWR08" H 4850 4550 50  0001 C CNN
F 1 "+5V" H 4850 4840 50  0000 C CNN
F 2 "" H 4850 4700 50  0001 C CNN
F 3 "" H 4850 4700 50  0001 C CNN
	1    4850 4700
	1    0    0    -1  
$EndComp
$Comp
L ohm-RESCUE-dooropener_pcb R4
U 1 1 59B7160D
P 4050 6100
F 0 "R4" H 4050 6000 60  0000 C CNN
F 1 "2k2" H 4050 6100 60  0000 C CNN
F 2 "Resistors_SMD:R_1206_HandSoldering" H 4050 6100 60  0001 C CNN
F 3 "" H 4050 6100 60  0001 C CNN
	1    4050 6100
	1    0    0    -1  
$EndComp
$Comp
L ohm-RESCUE-dooropener_pcb R3
U 1 1 59B71690
P 3500 6100
F 0 "R3" H 3500 6000 60  0000 C CNN
F 1 "2k2" H 3500 6100 60  0000 C CNN
F 2 "Resistors_SMD:R_1206_HandSoldering" H 3500 6100 60  0001 C CNN
F 3 "" H 3500 6100 60  0001 C CNN
	1    3500 6100
	0    1    1    0   
$EndComp
$Comp
L GND #PWR09
U 1 1 59B71898
P 4600 6350
F 0 "#PWR09" H 4600 6100 50  0001 C CNN
F 1 "GND" H 4600 6200 50  0000 C CNN
F 2 "" H 4600 6350 50  0001 C CNN
F 3 "" H 4600 6350 50  0001 C CNN
	1    4600 6350
	1    0    0    -1  
$EndComp
$Comp
L Diode D2
U 1 1 59B720C3
P 4850 5000
F 0 "D2" H 4950 5100 60  0000 C CNN
F 1 "SS54" H 5000 4950 60  0000 C CNN
F 2 "Diodes_SMD:D_2114" H 4990 4910 60  0001 C CNN
F 3 "" H 4990 4910 60  0001 C CNN
F 4 "flyback diode for relais" H 4850 5000 60  0001 C CNN "Field4"
	1    4850 5000
	1    0    0    -1  
$EndComp
$Comp
L i²C U3
U 1 1 59B72A54
P 4800 2800
F 0 "U3" H 4950 2750 60  0000 C CNN
F 1 "i²C" H 4950 2850 60  0000 C CNN
F 2 "dooropenerfootprints:JST_XH_B04B-XH-A_04x2.50mm_Straight" H 4950 2750 60  0001 C CNN
F 3 "" H 4950 2750 60  0001 C CNN
	1    4800 2800
	1    0    0    -1  
$EndComp
$Comp
L GND #PWR010
U 1 1 59B72AD5
P 4100 2900
F 0 "#PWR010" H 4100 2650 50  0001 C CNN
F 1 "GND" H 4100 2750 50  0000 C CNN
F 2 "" H 4100 2900 50  0001 C CNN
F 3 "" H 4100 2900 50  0001 C CNN
	1    4100 2900
	1    0    0    -1  
$EndComp
$Comp
L GND #PWR011
U 1 1 59B80807
P 1800 3150
F 0 "#PWR011" H 1800 2900 50  0001 C CNN
F 1 "GND" H 1800 3000 50  0000 C CNN
F 2 "" H 1800 3150 50  0001 C CNN
F 3 "" H 1800 3150 50  0001 C CNN
	1    1800 3150
	0    1    1    0   
$EndComp
$Comp
L ohm-RESCUE-dooropener_pcb R2
U 1 1 59B80B1A
P 3200 750
F 0 "R2" H 3200 650 60  0000 C CNN
F 1 "3k" H 3200 750 60  0000 C CNN
F 2 "Resistors_SMD:R_1206_HandSoldering" H 3200 750 60  0001 C CNN
F 3 "" H 3200 750 60  0001 C CNN
	1    3200 750 
	0    -1   -1   0   
$EndComp
$Comp
L Jumper_NC_Dual JP2
U 1 1 59D7E946
P 6000 5950
F 0 "JP2" H 6050 5850 50  0000 L CNN
F 1 "Jumper_12v" H 6000 6050 50  0000 C BNN
F 2 "SparkFun-Passives:PAD-JUMPER-3-NO_YES_SILK_FULL_BOX_WIDE_SPACING" H 6000 5950 50  0001 C CNN
F 3 "" H 6000 5950 50  0001 C CNN
	1    6000 5950
	0    -1   -1   0   
$EndComp
$Comp
L +12V #PWR012
U 1 1 59D7EFEA
P 900 700
F 0 "#PWR012" H 900 550 50  0001 C CNN
F 1 "+12V" H 900 840 50  0000 C CNN
F 2 "" H 900 700 50  0001 C CNN
F 3 "" H 900 700 50  0001 C CNN
	1    900  700 
	1    0    0    -1  
$EndComp
$Comp
L +12V #PWR013
U 1 1 59D7F2BE
P 6850 4800
F 0 "#PWR013" H 6850 4650 50  0001 C CNN
F 1 "+12V" H 6850 4940 50  0000 C CNN
F 2 "" H 6850 4800 50  0001 C CNN
F 3 "" H 6850 4800 50  0001 C CNN
	1    6850 4800
	1    0    0    -1  
$EndComp
$Comp
L +12V #PWR014
U 1 1 59D7F5E3
P 6000 5700
F 0 "#PWR014" H 6000 5550 50  0001 C CNN
F 1 "+12V" H 6000 5840 50  0000 C CNN
F 2 "" H 6000 5700 50  0001 C CNN
F 3 "" H 6000 5700 50  0001 C CNN
	1    6000 5700
	1    0    0    -1  
$EndComp
$Comp
L GND #PWR015
U 1 1 59D7F623
P 6000 6200
F 0 "#PWR015" H 6000 5950 50  0001 C CNN
F 1 "GND" H 6000 6050 50  0000 C CNN
F 2 "" H 6000 6200 50  0001 C CNN
F 3 "" H 6000 6200 50  0001 C CNN
	1    6000 6200
	1    0    0    -1  
$EndComp
$Comp
L ohm-RESCUE-dooropener_pcb R5
U 1 1 59D7FADC
P 5500 6650
F 0 "R5" H 5500 6550 60  0000 C CNN
F 1 "10k" H 5500 6650 60  0000 C CNN
F 2 "Resistors_SMD:R_0805_HandSoldering" H 5500 6650 60  0001 C CNN
F 3 "" H 5500 6650 60  0001 C CNN
	1    5500 6650
	1    0    0    -1  
$EndComp
$Comp
L +5V #PWR016
U 1 1 59D7FB5D
P 5300 6400
F 0 "#PWR016" H 5300 6250 50  0001 C CNN
F 1 "+5V" H 5300 6540 50  0000 C CNN
F 2 "" H 5300 6400 50  0001 C CNN
F 3 "" H 5300 6400 50  0001 C CNN
	1    5300 6400
	1    0    0    -1  
$EndComp
$Comp
L GND #PWR017
U 1 1 59D7FDA3
P 6600 6350
F 0 "#PWR017" H 6600 6100 50  0001 C CNN
F 1 "GND" H 6600 6200 50  0000 C CNN
F 2 "" H 6600 6350 50  0001 C CNN
F 3 "" H 6600 6350 50  0001 C CNN
	1    6600 6350
	0    1    1    0   
$EndComp
$Comp
L +5V #PWR018
U 1 1 59D7FF3E
P 6600 6150
F 0 "#PWR018" H 6600 6000 50  0001 C CNN
F 1 "+5V" H 6600 6290 50  0000 C CNN
F 2 "" H 6600 6150 50  0001 C CNN
F 3 "" H 6600 6150 50  0001 C CNN
	1    6600 6150
	0    -1   -1   0   
$EndComp
$Comp
L +12V #PWR019
U 1 1 59D80808
P 6000 2550
F 0 "#PWR019" H 6000 2400 50  0001 C CNN
F 1 "+12V" H 6000 2690 50  0000 C CNN
F 2 "" H 6000 2550 50  0001 C CNN
F 3 "" H 6000 2550 50  0001 C CNN
	1    6000 2550
	1    0    0    -1  
$EndComp
$Comp
L GND #PWR020
U 1 1 59D809DC
P 6000 2750
F 0 "#PWR020" H 6000 2500 50  0001 C CNN
F 1 "GND" H 6000 2600 50  0000 C CNN
F 2 "" H 6000 2750 50  0001 C CNN
F 3 "" H 6000 2750 50  0001 C CNN
	1    6000 2750
	0    1    1    0   
$EndComp
$Comp
L VDD #PWR021
U 1 1 59D80A20
P 5650 2650
F 0 "#PWR021" H 5650 2500 50  0001 C CNN
F 1 "VDD" H 5650 2800 50  0000 C CNN
F 2 "" H 5650 2650 50  0001 C CNN
F 3 "" H 5650 2650 50  0001 C CNN
	1    5650 2650
	0    -1   -1   0   
$EndComp
$Comp
L GND #PWR022
U 1 1 59D80C55
P 6400 4750
F 0 "#PWR022" H 6400 4500 50  0001 C CNN
F 1 "GND" H 6400 4600 50  0000 C CNN
F 2 "" H 6400 4750 50  0001 C CNN
F 3 "" H 6400 4750 50  0001 C CNN
	1    6400 4750
	0    -1   -1   0   
$EndComp
$Comp
L VDD #PWR023
U 1 1 59D80C99
P 7050 5050
F 0 "#PWR023" H 7050 4900 50  0001 C CNN
F 1 "VDD" H 7050 5200 50  0000 C CNN
F 2 "" H 7050 5050 50  0001 C CNN
F 3 "" H 7050 5050 50  0001 C CNN
	1    7050 5050
	1    0    0    -1  
$EndComp
$Comp
L Jumper_NC_Dual JP1
U 1 1 59D81A96
P 5500 5950
F 0 "JP1" H 5550 5850 50  0000 L CNN
F 1 "Jumper_VDD" H 5500 6050 50  0000 C BNN
F 2 "SparkFun-Passives:PAD-JUMPER-3-NO_YES_SILK_FULL_BOX_WIDE_SPACING" H 5500 5950 50  0001 C CNN
F 3 "" H 5500 5950 50  0001 C CNN
	1    5500 5950
	0    -1   -1   0   
$EndComp
$Comp
L VDD #PWR024
U 1 1 59D81C64
P 5500 5700
F 0 "#PWR024" H 5500 5550 50  0001 C CNN
F 1 "VDD" H 5500 5850 50  0000 C CNN
F 2 "" H 5500 5700 50  0001 C CNN
F 3 "" H 5500 5700 50  0001 C CNN
	1    5500 5700
	1    0    0    -1  
$EndComp
$Comp
L GND #PWR025
U 1 1 59D81CAA
P 5500 6200
F 0 "#PWR025" H 5500 5950 50  0001 C CNN
F 1 "GND" H 5500 6050 50  0000 C CNN
F 2 "" H 5500 6200 50  0001 C CNN
F 3 "" H 5500 6200 50  0001 C CNN
	1    5500 6200
	1    0    0    -1  
$EndComp
$Comp
L ohm-RESCUE-dooropener_pcb R6
U 1 1 59D8A250
P 2700 750
F 0 "R6" H 2700 650 60  0000 C CNN
F 1 "150R" H 2700 750 60  0000 C CNN
F 2 "Resistors_SMD:R_1206_HandSoldering" H 2700 750 60  0001 C CNN
F 3 "" H 2700 750 60  0001 C CNN
	1    2700 750 
	0    -1   -1   0   
$EndComp
$Comp
L ohm R1
U 1 1 59D96F14
P 2700 1650
F 0 "R1" H 2700 1550 60  0000 C CNN
F 1 "330" H 2700 1650 60  0000 C CNN
F 2 "Resistors_SMD:R_1206_HandSoldering" H 2700 1650 60  0001 C CNN
F 3 "" H 2700 1650 60  0001 C CNN
	1    2700 1650
	1    0    0    -1  
$EndComp
$Comp
L R R8
U 1 1 59EA4755
P 3900 2550
F 0 "R8" V 3980 2550 50  0000 C CNN
F 1 "4.7k" V 3900 2550 50  0000 C CNN
F 2 "Resistors_SMD:R_0805_HandSoldering" V 3830 2550 50  0001 C CNN
F 3 "" H 3900 2550 50  0001 C CNN
	1    3900 2550
	1    0    0    -1  
$EndComp
$Comp
L R R7
U 1 1 59EA47E6
P 3500 2650
F 0 "R7" V 3580 2650 50  0000 C CNN
F 1 "4.7k" V 3500 2650 50  0000 C CNN
F 2 "Resistors_SMD:R_0805_HandSoldering" V 3430 2650 50  0001 C CNN
F 3 "" H 3500 2650 50  0001 C CNN
	1    3500 2650
	1    0    0    -1  
$EndComp
$Comp
L Diode D5
U 1 1 5A059962
P 5150 3700
F 0 "D5" H 5250 3800 60  0000 C CNN
F 1 "Diode" H 5300 3650 60  0000 C CNN
F 2 "Diodes_SMD:D_2114" H 5290 3610 60  0001 C CNN
F 3 "" H 5290 3610 60  0001 C CNN
F 4 "flyback diode" H 5150 3700 60  0001 C CNN "use"
	1    5150 3700
	1    0    0    -1  
$EndComp
$Comp
L Diode D6
U 1 1 5A059BB9
P 5150 3950
F 0 "D6" H 5250 4050 60  0000 C CNN
F 1 "Diode" H 5300 3900 60  0000 C CNN
F 2 "Diodes_SMD:D_2114" H 5290 3860 60  0001 C CNN
F 3 "" H 5290 3860 60  0001 C CNN
F 4 "Flyback diode for solenoid opener" H 5150 3950 60  0001 C CNN "function"
	1    5150 3950
	1    0    0    -1  
$EndComp
$Comp
L +12V #PWR026
U 1 1 5A05A15E
P 5150 3550
F 0 "#PWR026" H 5150 3400 50  0001 C CNN
F 1 "+12V" H 5150 3690 50  0000 C CNN
F 2 "" H 5150 3550 50  0001 C CNN
F 3 "" H 5150 3550 50  0001 C CNN
	1    5150 3550
	1    0    0    -1  
$EndComp
$Comp
L GND #PWR027
U 1 1 5A05A343
P 5150 4050
F 0 "#PWR027" H 5150 3800 50  0001 C CNN
F 1 "GND" H 5150 3900 50  0000 C CNN
F 2 "" H 5150 4050 50  0001 C CNN
F 3 "" H 5150 4050 50  0001 C CNN
	1    5150 4050
	1    0    0    -1  
$EndComp
$Comp
L Diode D3
U 1 1 5A05A5EC
P 5650 3700
F 0 "D3" H 5750 3800 60  0000 C CNN
F 1 "Diode" H 5800 3650 60  0000 C CNN
F 2 "Diodes_SMD:D_2114" H 5790 3610 60  0001 C CNN
F 3 "" H 5790 3610 60  0001 C CNN
	1    5650 3700
	1    0    0    -1  
$EndComp
$Comp
L Diode D4
U 1 1 5A05A5F2
P 5650 3950
F 0 "D4" H 5750 4050 60  0000 C CNN
F 1 "Diode" H 5800 3900 60  0000 C CNN
F 2 "Diodes_SMD:D_2114" H 5790 3860 60  0001 C CNN
F 3 "" H 5790 3860 60  0001 C CNN
	1    5650 3950
	1    0    0    -1  
$EndComp
$Comp
L GND #PWR028
U 1 1 5A05A5FF
P 5650 4050
F 0 "#PWR028" H 5650 3800 50  0001 C CNN
F 1 "GND" H 5650 3900 50  0000 C CNN
F 2 "" H 5650 4050 50  0001 C CNN
F 3 "" H 5650 4050 50  0001 C CNN
	1    5650 4050
	1    0    0    -1  
$EndComp
$Comp
L Buzzer BZ1
U 1 1 5A05C009
P 9450 2650
F 0 "BZ1" H 9600 2700 50  0000 L CNN
F 1 "Buzzer" H 9600 2600 50  0000 L CNN
F 2 "dooropenerfootprints:Buzzer9.6x9.6x5.0" V 9425 2750 50  0001 C CNN
F 3 "" V 9425 2750 50  0001 C CNN
	1    9450 2650
	1    0    0    -1  
$EndComp
Wire Wire Line
	1050 1500 1050 1550
Connection ~ 1050 1550
Connection ~ 1050 1300
Connection ~ 1350 1550
Wire Wire Line
	850  1300 1600 1300
Wire Wire Line
	1600 1300 1600 1250
Connection ~ 1350 1300
Wire Wire Line
	1600 1550 1600 1400
Wire Wire Line
	1350 1550 1350 1950
Wire Wire Line
	1350 1950 4200 1950
Wire Wire Line
	2500 1300 2850 1300
Wire Wire Line
	3250 1300 4100 1300
Wire Wire Line
	2500 1900 2500 1950
Connection ~ 2500 1950
Connection ~ 3350 1300
Wire Wire Line
	3350 1950 3350 1700
Connection ~ 2850 1950
Wire Wire Line
	2850 1300 2850 1450
Wire Wire Line
	2850 1700 2850 1950
Connection ~ 3350 1950
Wire Notes Line
	3950 2100 3950 750 
Wire Notes Line
	3950 750  500  750 
Wire Notes Line
	500  750  500  2100
Wire Notes Line
	500  2100 3950 2100
Wire Wire Line
	3900 2950 3500 2950
Wire Wire Line
	3700 3050 3500 3050
Wire Wire Line
	4200 1950 4200 2050
Wire Wire Line
	4100 1300 4100 1150
Wire Wire Line
	2100 4450 1900 4450
Wire Wire Line
	1900 4450 1900 4350
Wire Wire Line
	2100 5150 1950 5150
Wire Wire Line
	1950 5150 1950 5250
Wire Wire Line
	4600 5550 4600 5200
Wire Wire Line
	5000 5200 5000 5100
Wire Wire Line
	4850 4700 4850 4850
Wire Wire Line
	4850 4850 5000 4850
Wire Wire Line
	3700 5900 4200 5900
Connection ~ 3850 5900
Wire Wire Line
	3850 6350 4600 6350
Wire Wire Line
	4600 6350 4600 6250
Wire Wire Line
	4850 5100 4850 5200
Connection ~ 4850 5200
Wire Wire Line
	4100 2650 4100 2900
Wire Wire Line
	4200 2500 4200 2850
Wire Wire Line
	1550 2500 4200 2500
Wire Wire Line
	4350 2400 4350 2950
Wire Wire Line
	1450 2400 4350 2400
Wire Wire Line
	9200 2750 9200 3150
Wire Wire Line
	9200 2750 9350 2750
Connection ~ 3700 2950
Wire Wire Line
	4600 5200 5000 5200
Wire Wire Line
	900  1300 900  700 
Connection ~ 900  1300
Wire Wire Line
	6100 5950 6250 5950
Wire Wire Line
	6250 5950 6250 5850
Wire Wire Line
	6250 5850 6600 5850
Wire Wire Line
	1450 6900 6250 6900
Wire Wire Line
	6250 6450 6600 6450
Wire Wire Line
	6600 6250 6150 6250
Wire Wire Line
	1200 7150 6150 7150
Connection ~ 3250 5900
Wire Wire Line
	6400 5050 7050 5050
Wire Wire Line
	6400 5250 6700 5250
Wire Wire Line
	6500 5750 6600 5750
Wire Wire Line
	5650 3800 5800 3800
Wire Wire Line
	5600 5950 5600 5650
Wire Wire Line
	5600 5650 6600 5650
Wire Wire Line
	2950 950  3000 950 
Wire Wire Line
	3450 950  3450 1150
Wire Wire Line
	3450 1150 3350 1150
Wire Wire Line
	3350 1150 3350 1500
Wire Wire Line
	5300 6900 5350 6900
Connection ~ 5350 6900
Connection ~ 5300 6900
Wire Wire Line
	5300 6400 5300 6450
Connection ~ 3450 950 
Connection ~ 3000 950 
Connection ~ 2950 950 
Connection ~ 2500 950 
Wire Wire Line
	2500 1450 2600 1450
Wire Wire Line
	2600 1450 2600 1100
Wire Wire Line
	2600 1100 2500 1100
Wire Wire Line
	2500 1100 2500 950 
Wire Wire Line
	3900 2700 3900 2950
Wire Wire Line
	3500 2950 3500 2800
Connection ~ 3500 2500
Connection ~ 3900 2400
Connection ~ 3500 2950
$Comp
L VDD #PWR029
U 1 1 5B1EE299
P 5650 3550
F 0 "#PWR029" H 5650 3400 50  0001 C CNN
F 1 "VDD" H 5650 3700 50  0000 C CNN
F 2 "" H 5650 3550 50  0001 C CNN
F 3 "" H 5650 3550 50  0001 C CNN
	1    5650 3550
	1    0    0    -1  
$EndComp
$Comp
L Conn_01x03 J4
U 1 1 5B1EEDCB
P 6200 2650
F 0 "J4" H 6200 2850 50  0000 C CNN
F 1 " buck regulator" H 6200 2450 50  0000 C CNN
F 2 "Connectors_JST:JST_XH_B03B-XH-A_03x2.50mm_Straight" H 6200 2650 50  0001 C CNN
F 3 "" H 6200 2650 50  0001 C CNN
	1    6200 2650
	1    0    0    -1  
$EndComp
$Comp
L nanopiduo_no_media J1
U 1 1 5B1F1965
P 2650 4550
F 0 "J1" H 2100 6300 60  0000 C CNN
F 1 "nanopiduo_no_media" H 2550 5000 60  0000 C CNN
F 2 "dooropenerfootprints:nanopi_duo" H 2550 5000 60  0001 C CNN
F 3 "" H 2550 5000 60  0001 C CNN
	1    2650 4550
	1    0    0    -1  
$EndComp
Wire Wire Line
	3700 2950 3700 2750
Wire Wire Line
	1550 2500 1550 3350
Wire Wire Line
	1550 3350 1800 3350
Wire Wire Line
	1450 2400 1450 3250
Wire Wire Line
	1450 3250 1800 3250
Text GLabel 1800 3450 0    60   Input ~ 0
SDA
Text GLabel 2100 4650 0    60   Input ~ 0
SDA
Text GLabel 2100 4750 0    60   Input ~ 0
SCK
Text GLabel 1800 3550 0    60   Input ~ 0
SCK
Text GLabel 1800 3650 0    60   Input ~ 0
MISO
Text GLabel 1800 3750 0    60   Input ~ 0
MOSI
Text GLabel 2100 4850 0    60   Input ~ 0
MOSI
Text GLabel 2100 4950 0    60   Input ~ 0
MISO
Text GLabel 1800 3850 0    60   Input ~ 0
RST
Text GLabel 2100 4550 0    60   Input ~ 0
RST
Text GLabel 5800 3800 2    60   Input ~ 0
sw_VDD
Text GLabel 6600 5550 0    60   Input ~ 0
sw_VDD
Text GLabel 6400 5150 2    60   Input ~ 0
sw_VDD
Text GLabel 6500 5750 0    60   Input ~ 0
sw_12V
Text GLabel 4900 3800 0    60   Input ~ 0
sw_12V
Text GLabel 6400 4850 2    60   Input ~ 0
sw_12V
Wire Wire Line
	5150 3800 4900 3800
$Comp
L GND #PWR030
U 1 1 5B29BC7E
P 6700 5250
F 0 "#PWR030" H 6700 5000 50  0001 C CNN
F 1 "GND" H 6700 5100 50  0000 C CNN
F 2 "" H 6700 5250 50  0001 C CNN
F 3 "" H 6700 5250 50  0001 C CNN
	1    6700 5250
	1    0    0    -1  
$EndComp
Wire Wire Line
	6400 4950 6850 4950
Wire Wire Line
	6850 4950 6850 4800
Text GLabel 3250 5900 0    60   Input ~ 0
relais_signal
Text GLabel 3500 3350 2    60   Input ~ 0
relais_signal
Text GLabel 7850 3500 0    60   Input ~ 0
buzzer
Text GLabel 3500 3250 2    60   Input ~ 0
buzzer
Text GLabel 850  1300 0    60   Input ~ 0
POE+
$Comp
L JOOO6D01BNL LAN1
U 1 1 5B310444
P 5950 2050
F 0 "LAN1" H 5750 3150 60  0000 C CNN
F 1 "JOOO6D01BNL" H 5950 2250 60  0000 C CNN
F 2 "dooropenerfootprints:J0006D01BNL" H 5950 2250 60  0001 C CNN
F 3 "" H 5950 2250 60  0001 C CNN
	1    5950 2050
	1    0    0    -1  
$EndComp
Text GLabel 3500 3550 2    60   Input ~ 0
RD+
Text GLabel 3500 3450 2    60   Input ~ 0
RD-
Text GLabel 3500 3650 2    60   Input ~ 0
TD-
Text GLabel 3500 3750 2    60   Input ~ 0
TD+
Text GLabel 3500 3850 2    60   Input ~ 0
LED_LNK
Text GLabel 3500 3950 2    60   Input ~ 0
LED_ACK
Text GLabel 5450 1500 0    60   Input ~ 0
RD+
Text GLabel 5450 1600 0    60   Input ~ 0
RD-
Text GLabel 5450 1200 0    60   Input ~ 0
TD-
Text GLabel 5450 1100 0    60   Input ~ 0
TD+
Text GLabel 6400 1200 2    60   Input ~ 0
LED_LNK
Text GLabel 6400 1450 2    60   Input ~ 0
LED_ACK
$Comp
L C_Small C4
U 1 1 5B31132C
P 4750 1400
F 0 "C4" H 4760 1470 50  0000 L CNN
F 1 "100 nf" H 4760 1320 50  0000 L CNN
F 2 "Capacitors_SMD:C_0805_HandSoldering" H 4750 1400 50  0001 C CNN
F 3 "" H 4750 1400 50  0001 C CNN
	1    4750 1400
	1    0    0    -1  
$EndComp
$Comp
L +3.3V #PWR031
U 1 1 5B31229B
P 7100 950
F 0 "#PWR031" H 7100 800 50  0001 C CNN
F 1 "+3.3V" H 7100 1090 50  0000 C CNN
F 2 "" H 7100 950 50  0001 C CNN
F 3 "" H 7100 950 50  0001 C CNN
	1    7100 950 
	1    0    0    -1  
$EndComp
$Comp
L R R10
U 1 1 5B3122F1
P 6950 1350
F 0 "R10" V 7030 1350 50  0000 C CNN
F 1 "330" V 6950 1350 50  0000 C CNN
F 2 "Resistors_SMD:R_1206_HandSoldering" V 6880 1350 50  0001 C CNN
F 3 "" H 6950 1350 50  0001 C CNN
	1    6950 1350
	0    1    1    0   
$EndComp
Wire Wire Line
	6400 1350 6800 1350
Wire Wire Line
	7100 950  7100 1350
Connection ~ 7100 1100
$Comp
L R R9
U 1 1 5B312C5A
P 6950 1100
F 0 "R9" V 7030 1100 50  0000 C CNN
F 1 "330" V 6950 1100 50  0000 C CNN
F 2 "Resistors_SMD:R_1206_HandSoldering" V 6880 1100 50  0001 C CNN
F 3 "" H 6950 1100 50  0001 C CNN
	1    6950 1100
	0    1    1    0   
$EndComp
Wire Wire Line
	6400 1100 6800 1100
$Comp
L C_Small C5
U 1 1 5B3133FD
P 4950 1800
F 0 "C5" H 4960 1870 50  0000 L CNN
F 1 "100 nf" H 4960 1720 50  0000 L CNN
F 2 "Capacitors_SMD:C_0805_HandSoldering" H 4950 1800 50  0001 C CNN
F 3 "" H 4950 1800 50  0001 C CNN
	1    4950 1800
	1    0    0    -1  
$EndComp
Wire Wire Line
	4750 1300 5450 1300
Wire Wire Line
	4950 1700 5450 1700
$Comp
L GND #PWR032
U 1 1 5B31361D
P 4750 2000
F 0 "#PWR032" H 4750 1750 50  0001 C CNN
F 1 "GND" H 4750 1850 50  0000 C CNN
F 2 "" H 4750 2000 50  0001 C CNN
F 3 "" H 4750 2000 50  0001 C CNN
	1    4750 2000
	1    0    0    -1  
$EndComp
Wire Wire Line
	4750 1500 4750 2000
Wire Wire Line
	4950 1900 4750 1900
Connection ~ 4750 1900
Text GLabel 6400 1600 2    60   Input ~ 0
POE+
Wire Wire Line
	1450 6900 1450 3950
Wire Wire Line
	1450 3950 1800 3950
Wire Wire Line
	5650 2650 6000 2650
$Comp
L Conn_01x04 J3
U 1 1 5B315A69
P 6800 6250
F 0 "J3" H 6800 6450 50  0000 C CNN
F 1 "sensors" H 6800 5950 50  0000 C CNN
F 2 "dooropenerfootprints:JST_XH_B04B-XH-A_04x2.50mm_Straight" H 6800 6250 50  0001 C CNN
F 3 "" H 6800 6250 50  0001 C CNN
	1    6800 6250
	1    0    0    -1  
$EndComp
$Comp
L Screw_Terminal_01x04 J2
U 1 1 5B315B66
P 6800 5650
F 0 "J2" H 6800 5850 50  0000 C CNN
F 1 "Screw_Terminal" H 6800 5350 50  0000 C CNN
F 2 "dooropenerfootprints:mors_4p" H 6800 5650 50  0001 C CNN
F 3 "" H 6800 5650 50  0001 C CNN
	1    6800 5650
	1    0    0    -1  
$EndComp
Wire Wire Line
	6250 6900 6250 6450
Wire Wire Line
	6150 7150 6150 6250
Wire Wire Line
	1800 3050 1200 3050
Wire Wire Line
	1200 3050 1200 7150
Wire Wire Line
	3900 2750 4450 2750
Wire Wire Line
	4450 2650 4100 2650
Wire Wire Line
	4200 2850 4450 2850
Wire Wire Line
	4350 2950 4450 2950
Connection ~ 3900 2750
Wire Wire Line
	1050 1550 1600 1550
$Comp
L GND #PWR033
U 1 1 5B36C9D1
P 6400 1700
F 0 "#PWR033" H 6400 1450 50  0001 C CNN
F 1 "GND" H 6400 1550 50  0000 C CNN
F 2 "" H 6400 1700 50  0001 C CNN
F 3 "" H 6400 1700 50  0001 C CNN
	1    6400 1700
	1    0    0    -1  
$EndComp
$Comp
L S9014 T2
U 1 1 5B391917
P 9250 3500
F 0 "T2" H 9550 3550 60  0000 C CNN
F 1 "S9014" H 9550 3450 60  0000 C CNN
F 2 "TO_SOT_Packages_SMD:SOT-23_Handsoldering" H 9550 3550 60  0001 C CNN
F 3 "" H 9550 3550 60  0001 C CNN
	1    9250 3500
	1    0    0    -1  
$EndComp
$Comp
L ohm-RESCUE-dooropener_pcb R12
U 1 1 5B39191D
P 8650 3700
F 0 "R12" H 8650 3600 60  0000 C CNN
F 1 "2k2" H 8650 3700 60  0000 C CNN
F 2 "Resistors_SMD:R_1206_HandSoldering" H 8650 3700 60  0001 C CNN
F 3 "" H 8650 3700 60  0001 C CNN
	1    8650 3700
	1    0    0    -1  
$EndComp
$Comp
L ohm-RESCUE-dooropener_pcb R11
U 1 1 5B391923
P 8100 3700
F 0 "R11" H 8100 3600 60  0000 C CNN
F 1 "2k2" H 8100 3700 60  0000 C CNN
F 2 "Resistors_SMD:R_1206_HandSoldering" H 8100 3700 60  0001 C CNN
F 3 "" H 8100 3700 60  0001 C CNN
	1    8100 3700
	0    1    1    0   
$EndComp
$Comp
L GND #PWR034
U 1 1 5B391929
P 9200 3950
F 0 "#PWR034" H 9200 3700 50  0001 C CNN
F 1 "GND" H 9200 3800 50  0000 C CNN
F 2 "" H 9200 3950 50  0001 C CNN
F 3 "" H 9200 3950 50  0001 C CNN
	1    9200 3950
	1    0    0    -1  
$EndComp
Wire Wire Line
	8300 3500 8800 3500
Connection ~ 8450 3500
Wire Wire Line
	8450 3950 9200 3950
Wire Wire Line
	9200 3950 9200 3850
Connection ~ 7850 3500
$Comp
L +5V #PWR035
U 1 1 5B392938
P 9350 2550
F 0 "#PWR035" H 9350 2400 50  0001 C CNN
F 1 "+5V" H 9350 2690 50  0000 C CNN
F 2 "" H 9350 2550 50  0001 C CNN
F 3 "" H 9350 2550 50  0001 C CNN
	1    9350 2550
	1    0    0    -1  
$EndComp
$EndSCHEMATC
