(module J0006D01BNL (layer F.Cu) (tedit 5B314835)
  (fp_text reference LAN** (at -2.54 -11.43) (layer F.SilkS)
    (effects (font (size 1 1) (thickness 0.15)))
  )
  (fp_text value J0006D01BNL (at 0 13.97) (layer F.Fab)
    (effects (font (size 1 1) (thickness 0.15)))
  )
  (fp_line (start -8.51 -10.79) (end 8.51 -10.79) (layer F.SilkS) (width 0.15))
  (fp_line (start -8.51 10.79) (end 8.51 10.79) (layer F.SilkS) (width 0.15))
  (fp_line (start -8.51 -10.79) (end -8.51 10.79) (layer F.SilkS) (width 0.15))
  (fp_line (start 8.51 -10.79) (end 8.51 10.79) (layer F.SilkS) (width 0.15))
  (pad "" np_thru_hole circle (at -5.715 0) (size 3.2 3.2) (drill 3.2) (layers *.Cu *.Mask))
  (pad "" np_thru_hole circle (at 5.715 0) (size 3.2 3.2) (drill 3.2) (layers *.Cu *.Mask))
  (pad "" np_thru_hole circle (at 7.875 3.05) (size 1.6 1.6) (drill 1.6) (layers *.Cu *.Mask))
  (pad "" np_thru_hole circle (at -7.875 3.05) (size 1.6 1.6) (drill 1.6) (layers *.Cu *.Mask))
  (pad 12 thru_hole circle (at -6.325 -3.38) (size 1.8 1.8) (drill 1.05) (layers *.Cu *.Mask))
  (pad 10 thru_hole circle (at 3.785 -3.38) (size 1.8 1.8) (drill 1.05) (layers *.Cu *.Mask))
  (pad 9 thru_hole circle (at 6.325 -4.9) (size 1.8 1.8) (drill 1.05) (layers *.Cu *.Mask))
  (pad 11 thru_hole circle (at -3.785 -4.9) (size 1.8 1.8) (drill 1.05) (layers *.Cu *.Mask))
  (pad 1 thru_hole circle (at 4.445 6.35) (size 1.5 1.5) (drill 0.89) (layers *.Cu *.Mask))
  (pad 3 thru_hole circle (at 1.905 6.35) (size 1.5 1.5) (drill 0.89) (layers *.Cu *.Mask))
  (pad 5 thru_hole circle (at -0.635 6.35) (size 1.5 1.5) (drill 0.89) (layers *.Cu *.Mask))
  (pad 7 thru_hole circle (at -3.175 6.35) (size 1.5 1.5) (drill 0.89) (layers *.Cu *.Mask))
  (pad 8 thru_hole circle (at -4.445 8.89) (size 1.5 1.5) (drill 0.89) (layers *.Cu *.Mask))
  (pad 6 thru_hole circle (at -1.905 8.89) (size 1.5 1.5) (drill 0.89) (layers *.Cu *.Mask))
  (pad 4 thru_hole circle (at 0.635 8.89) (size 1.5 1.5) (drill 0.89) (layers *.Cu *.Mask))
  (pad 2 thru_hole circle (at 3.175 8.89) (size 1.5 1.5) (drill 0.89) (layers *.Cu *.Mask))
)
